{
  "name": "backend",
  "$schema": "../../node_modules/nx/schemas/project-schema.json",
  "sourceRoot": "apps/backend/src",
  "projectType": "application",
  "targets": {
    "build": {
      "executor": "@nx/webpack:webpack",
      "outputs": ["{options.outputPath}"],
      "options": {
        "target": "node",
        "compiler": "tsc",
        "poll": 500,
        "outputPath": "dist/apps/backend",
        "main": "apps/backend/src/main.ts",
        "tsConfig": "apps/backend/tsconfig.app.json",
        "assets": ["apps/backend/src/assets"],
        "webpackConfig": "apps/backend/webpack.config.js"
      },
      "configurations": {
        "production": {
          "optimization": true,
          "extractLicenses": true,
          "inspect": false,
          "generatePackageJson": true
        }
      }
    },
    "serve": {
      "executor": "@nx/js:node",
      "options": {
        "buildTarget": "backend:build"
      },
      "configurations": {
        "production": {
          "buildTarget": "backend:build:production"
        }
      }
    },
    "lint": {
      "executor": "@nx/linter:eslint",
      "outputs": ["{options.outputFile}"],
      "options": {
        "lintFilePatterns": ["apps/backend/**/*.ts"]
      }
    },
    "test": {
      "executor": "@nx/jest:jest",
      "outputs": ["{workspaceRoot}/coverage/{projectRoot}"],
      "options": {
        "jestConfig": "apps/backend/jest.config.ts",
        "passWithNoTests": true
      },
      "configurations": {
        "ci": {
          "ci": true,
          "codeCoverage": true
        }
      }
    }
  },
  "tags": []
}
