<?xml version="1.0" encoding="UTF-8"?>
<!DOCTYPE svg PUBLIC "-//W3C//DTD SVG 1.1//EN" "http://www.w3.org/Graphics/SVG/1.1/DTD/svg11.dtd">
<svg xmlns="http://www.w3.org/2000/svg" style="background: #ffffff; background-color: light-dark(#ffffff, var(--ge-dark-color, #121212)); color-scheme: light;" xmlns:xlink="http://www.w3.org/1999/xlink" version="1.1" viewBox="-0.5 -0.5 1172 882"><defs/><rect fill="#ffffff" width="100%" height="100%" x="0" y="0" style="fill: light-dark(#ffffff, var(--ge-dark-color, #121212));"/><g><g><rect x="21" y="230" width="200" height="110" fill-opacity="0.2" fill="#f0a30a" stroke="#bd7000" stroke-opacity="0.2" stroke-width="3" pointer-events="all" style="fill: light-dark(rgb(240, 163, 10), rgb(240, 163, 10)); stroke: light-dark(rgb(189, 112, 0), rgb(189, 112, 0));"/></g><g><g transform="translate(-0.5 -0.5)"><switch><foreignObject style="overflow: visible; text-align: left;" pointer-events="none" width="100%" height="100%" requiredFeatures="http://www.w3.org/TR/SVG11/feature#Extensibility"><div xmlns="http://www.w3.org/1999/xhtml" style="display: flex; align-items: unsafe flex-start; justify-content: unsafe center; width: 198px; height: 1px; padding-top: 237px; margin-left: 22px;"><div style="box-sizing: border-box; font-size: 0; text-align: center; color: #4D4D4D; "><div style="display: inline-block; font-size: 12px; font-family: &quot;Helvetica&quot;; color: light-dark(#4D4D4D, #4D4D4D); line-height: 1.2; pointer-events: all; white-space: normal; word-wrap: normal; ">User</div></div></div></foreignObject><text x="121" y="249" fill="#4D4D4D" font-family="&quot;Helvetica&quot;" font-size="12px" text-anchor="middle">User</text></switch></g></g><g><path d="M 441 290 L 441 146.37" fill="none" stroke="#000000" stroke-miterlimit="10" pointer-events="stroke" style="stroke: light-dark(rgb(0, 0, 0), rgb(255, 255, 255));"/><path d="M 441 141.12 L 444.5 148.12 L 441 146.37 L 437.5 148.12 Z" fill="#000000" stroke="#000000" stroke-miterlimit="10" pointer-events="all" style="fill: light-dark(rgb(0, 0, 0), rgb(255, 255, 255)); stroke: light-dark(rgb(0, 0, 0), rgb(255, 255, 255));"/></g><g><g transform="translate(-0.5 -0.5)"><switch><foreignObject style="overflow: visible; text-align: left;" pointer-events="none" width="100%" height="100%" requiredFeatures="http://www.w3.org/TR/SVG11/feature#Extensibility"><div xmlns="http://www.w3.org/1999/xhtml" style="display: flex; align-items: unsafe center; justify-content: unsafe center; width: 1px; height: 1px; padding-top: 171px; margin-left: 442px;"><div style="box-sizing: border-box; font-size: 0; text-align: center; color: #000000; background-color: #ffffff; "><div style="display: inline-block; font-size: 11px; font-family: &quot;Helvetica&quot;; color: light-dark(#000000, #ffffff); line-height: 1.2; pointer-events: all; background-color: light-dark(#ffffff, var(--ge-dark-color, #121212)); white-space: nowrap; ">P102 has titlle</div></div></div></foreignObject><text x="442" y="174" fill="light-dark(#000000, #ffffff)" font-family="&quot;Helvetica&quot;" font-size="11px" text-anchor="middle">P102 has titlle</text></switch></g></g><g><path d="M 521 100 L 521 73.6 Q 521 70 517.4 70 L 364.6 70 Q 361 70 361 73.6 L 361 100" fill="#cccccc" stroke="#000000" stroke-miterlimit="10" pointer-events="all" style="fill: light-dark(rgb(204, 204, 204), rgb(204, 204, 204)); stroke: light-dark(rgb(0, 0, 0), rgb(255, 255, 255));"/><path d="M 361 100 L 361 136.4 Q 361 140 364.6 140 L 517.4 140 Q 521 140 521 136.4 L 521 100" fill="none" stroke="#000000" stroke-miterlimit="10" pointer-events="none" style="stroke: light-dark(rgb(0, 0, 0), rgb(255, 255, 255));"/><path d="M 361 100 L 521 100" fill="none" stroke="#000000" stroke-miterlimit="10" pointer-events="none" style="stroke: light-dark(rgb(0, 0, 0), rgb(255, 255, 255));"/></g><g><g transform="translate(-0.5 -0.5)"><switch><foreignObject style="overflow: visible; text-align: left;" pointer-events="none" width="100%" height="100%" requiredFeatures="http://www.w3.org/TR/SVG11/feature#Extensibility"><div xmlns="http://www.w3.org/1999/xhtml" style="display: flex; align-items: unsafe center; justify-content: unsafe center; width: 158px; height: 1px; padding-top: 85px; margin-left: 362px;"><div style="box-sizing: border-box; font-size: 0; text-align: center; color: #000000; "><div style="display: inline-block; font-size: 12px; font-family: &quot;Helvetica&quot;; color: light-dark(#000000, #000000); line-height: 1.2; pointer-events: all; font-weight: bold; white-space: normal; word-wrap: normal; ">E35 Title</div></div></div></foreignObject><text x="441" y="89" fill="#000000" font-family="&quot;Helvetica&quot;" font-size="12px" text-anchor="middle" font-weight="bold">E35 Title</text></switch></g></g><g><rect x="361" y="100" width="160" height="40" fill="none" stroke="none" pointer-events="all"/></g><g><g transform="translate(-0.5 -0.5)"><switch><foreignObject style="overflow: visible; text-align: left;" pointer-events="none" width="100%" height="100%" requiredFeatures="http://www.w3.org/TR/SVG11/feature#Extensibility"><div xmlns="http://www.w3.org/1999/xhtml" style="display: flex; align-items: unsafe flex-start; justify-content: unsafe center; width: 1px; height: 1px; padding-top: 107px; margin-left: 443px;"><div style="box-sizing: border-box; font-size: 0; text-align: center; color: #000000; "><div style="display: inline-block; font-size: 12px; font-family: &quot;Helvetica&quot;; color: light-dark(#000000, #ffffff); line-height: 1.2; pointer-events: all; white-space: nowrap; ">id<br /><div style=""><span style="background-color: initial;">value</span></div></div></div></div></foreignObject><text x="443" y="119" fill="light-dark(#000000, #ffffff)" font-family="&quot;Helvetica&quot;" font-size="12px" text-anchor="middle">id...</text></switch></g></g><g><path d="M 851 270 L 851 243.6 Q 851 240 847.4 240 L 694.6 240 Q 691 240 691 243.6 L 691 270" fill="#cccccc" stroke="#000000" stroke-miterlimit="10" pointer-events="all" style="fill: light-dark(rgb(204, 204, 204), rgb(204, 204, 204)); stroke: light-dark(rgb(0, 0, 0), rgb(255, 255, 255));"/><path d="M 691 270 L 691 336.4 Q 691 340 694.6 340 L 847.4 340 Q 851 340 851 336.4 L 851 270" fill="none" stroke="#000000" stroke-miterlimit="10" pointer-events="none" style="stroke: light-dark(rgb(0, 0, 0), rgb(255, 255, 255));"/><path d="M 691 270 L 851 270" fill="none" stroke="#000000" stroke-miterlimit="10" pointer-events="none" style="stroke: light-dark(rgb(0, 0, 0), rgb(255, 255, 255));"/></g><g><g transform="translate(-0.5 -0.5)"><switch><foreignObject style="overflow: visible; text-align: left;" pointer-events="none" width="100%" height="100%" requiredFeatures="http://www.w3.org/TR/SVG11/feature#Extensibility"><div xmlns="http://www.w3.org/1999/xhtml" style="display: flex; align-items: unsafe center; justify-content: unsafe center; width: 158px; height: 1px; padding-top: 255px; margin-left: 692px;"><div style="box-sizing: border-box; font-size: 0; text-align: center; color: #000000; "><div style="display: inline-block; font-size: 12px; font-family: &quot;Helvetica&quot;; color: light-dark(#000000, #000000); line-height: 1.2; pointer-events: all; font-weight: bold; white-space: normal; word-wrap: normal; ">E42 Identifier</div></div></div></foreignObject><text x="771" y="259" fill="#000000" font-family="&quot;Helvetica&quot;" font-size="12px" text-anchor="middle" font-weight="bold">E42 Identifier</text></switch></g></g><g><rect x="691" y="270" width="160" height="70" fill="none" stroke="none" pointer-events="all"/></g><g><g transform="translate(-0.5 -0.5)"><switch><foreignObject style="overflow: visible; text-align: left;" pointer-events="none" width="100%" height="100%" requiredFeatures="http://www.w3.org/TR/SVG11/feature#Extensibility"><div xmlns="http://www.w3.org/1999/xhtml" style="display: flex; align-items: unsafe flex-start; justify-content: unsafe center; width: 1px; height: 1px; padding-top: 277px; margin-left: 773px;"><div style="box-sizing: border-box; font-size: 0; text-align: center; color: #000000; "><div style="display: inline-block; font-size: 12px; font-family: &quot;Helvetica&quot;; color: light-dark(#000000, #ffffff); line-height: 1.2; pointer-events: all; white-space: nowrap; ">id<br /><div style=""><span style="background-color: initial;">value</span></div><div style=""><span style="background-color: initial;">doi?</span></div><div style=""><span style="background-color: initial;">bibtex?</span></div></div></div></div></foreignObject><text x="773" y="289" fill="light-dark(#000000, #ffffff)" font-family="&quot;Helvetica&quot;" font-size="12px" text-anchor="middle">id...</text></switch></g></g><g><path d="M 201 30 L 201 3.6 Q 201 0 197.4 0 L 44.6 0 Q 41 0 41 3.6 L 41 30" fill="#cccccc" stroke="#000000" stroke-miterlimit="10" pointer-events="all" style="fill: light-dark(rgb(204, 204, 204), rgb(204, 204, 204)); stroke: light-dark(rgb(0, 0, 0), rgb(255, 255, 255));"/><path d="M 41 30 L 41 166.4 Q 41 170 44.6 170 L 197.4 170 Q 201 170 201 166.4 L 201 30" fill="none" stroke="#000000" stroke-miterlimit="10" pointer-events="none" style="stroke: light-dark(rgb(0, 0, 0), rgb(255, 255, 255));"/><path d="M 41 30 L 201 30" fill="none" stroke="#000000" stroke-miterlimit="10" pointer-events="none" style="stroke: light-dark(rgb(0, 0, 0), rgb(255, 255, 255));"/></g><g><g transform="translate(-0.5 -0.5)"><switch><foreignObject style="overflow: visible; text-align: left;" pointer-events="none" width="100%" height="100%" requiredFeatures="http://www.w3.org/TR/SVG11/feature#Extensibility"><div xmlns="http://www.w3.org/1999/xhtml" style="display: flex; align-items: unsafe center; justify-content: unsafe center; width: 158px; height: 1px; padding-top: 15px; margin-left: 42px;"><div style="box-sizing: border-box; font-size: 0; text-align: center; color: #000000; "><div style="display: inline-block; font-size: 12px; font-family: &quot;Helvetica&quot;; color: light-dark(#000000, #000000); line-height: 1.2; pointer-events: all; font-weight: bold; white-space: normal; word-wrap: normal; ">D9 Digital Object</div></div></div></foreignObject><text x="121" y="19" fill="#000000" font-family="&quot;Helvetica&quot;" font-size="12px" text-anchor="middle" font-weight="bold">D9 Digital Object</text></switch></g></g><g><rect x="41" y="30" width="160" height="140" fill="none" stroke="none" pointer-events="all"/></g><g><g transform="translate(-0.5 -0.5)"><switch><foreignObject style="overflow: visible; text-align: left;" pointer-events="none" width="100%" height="100%" requiredFeatures="http://www.w3.org/TR/SVG11/feature#Extensibility"><div xmlns="http://www.w3.org/1999/xhtml" style="display: flex; align-items: unsafe flex-start; justify-content: unsafe center; width: 1px; height: 1px; padding-top: 37px; margin-left: 123px;"><div style="box-sizing: border-box; font-size: 0; text-align: center; color: #000000; "><div style="display: inline-block; font-size: 12px; font-family: &quot;Helvetica&quot;; color: light-dark(#000000, #ffffff); line-height: 1.2; pointer-events: all; white-space: nowrap; ">id<br /><div style=""><span style="background-color: initial;">path<br />preview</span></div><div style=""><span style="background-color: initial;">thumb</span></div><div style=""><span style="background-color: initial;">original</span></div><div style=""><span style="background-color: initial;">type</span></div><div style=""><span style="background-color: initial;">pdf?</span></div><div style=""><span style="background-color: initial;">txt?</span></div><div style="">json?</div></div></div></div></foreignObject><text x="123" y="49" fill="light-dark(#000000, #ffffff)" font-family="&quot;Helvetica&quot;" font-size="12px" text-anchor="middle">id...</text></switch></g></g><g><path d="M 1171 370 L 1171 343.6 Q 1171 340 1167.4 340 L 1014.6 340 Q 1011 340 1011 343.6 L 1011 370" fill="#cccccc" stroke="#000000" stroke-miterlimit="10" pointer-events="all" style="fill: light-dark(rgb(204, 204, 204), rgb(204, 204, 204)); stroke: light-dark(rgb(0, 0, 0), rgb(255, 255, 255));"/><path d="M 1011 370 L 1011 456.4 Q 1011 460 1014.6 460 L 1167.4 460 Q 1171 460 1171 456.4 L 1171 370" fill="none" stroke="#000000" stroke-miterlimit="10" pointer-events="none" style="stroke: light-dark(rgb(0, 0, 0), rgb(255, 255, 255));"/><path d="M 1011 370 L 1171 370" fill="none" stroke="#000000" stroke-miterlimit="10" pointer-events="none" style="stroke: light-dark(rgb(0, 0, 0), rgb(255, 255, 255));"/></g><g><g transform="translate(-0.5 -0.5)"><switch><foreignObject style="overflow: visible; text-align: left;" pointer-events="none" width="100%" height="100%" requiredFeatures="http://www.w3.org/TR/SVG11/feature#Extensibility"><div xmlns="http://www.w3.org/1999/xhtml" style="display: flex; align-items: unsafe center; justify-content: unsafe center; width: 158px; height: 1px; padding-top: 355px; margin-left: 1012px;"><div style="box-sizing: border-box; font-size: 0; text-align: center; color: #000000; "><div style="display: inline-block; font-size: 12px; font-family: &quot;Helvetica&quot;; color: light-dark(#000000, #000000); line-height: 1.2; pointer-events: all; font-weight: bold; white-space: normal; word-wrap: normal; ">E61 Time Primitive</div></div></div></foreignObject><text x="1091" y="359" fill="#000000" font-family="&quot;Helvetica&quot;" font-size="12px" text-anchor="middle" font-weight="bold">E61 Time Primitive</text></switch></g></g><g><rect x="1011" y="370" width="160" height="90" fill="none" stroke="none" pointer-events="all"/></g><g><g transform="translate(-0.5 -0.5)"><switch><foreignObject style="overflow: visible; text-align: left;" pointer-events="none" width="100%" height="100%" requiredFeatures="http://www.w3.org/TR/SVG11/feature#Extensibility"><div xmlns="http://www.w3.org/1999/xhtml" style="display: flex; align-items: unsafe flex-start; justify-content: unsafe center; width: 1px; height: 1px; padding-top: 377px; margin-left: 1093px;"><div style="box-sizing: border-box; font-size: 0; text-align: center; color: #000000; "><div style="display: inline-block; font-size: 12px; font-family: &quot;Helvetica&quot;; color: light-dark(#000000, #ffffff); line-height: 1.2; pointer-events: all; white-space: nowrap; ">id<br /><div style=""><span style="background-color: initial;">value</span></div><div style=""><span style="background-color: initial;">from</span></div><div style=""><span style="background-color: initial;">to</span></div><div style=""><span style="background-color: initial;">display</span></div></div></div></div></foreignObject><text x="1093" y="389" fill="light-dark(#000000, #ffffff)" font-family="&quot;Helvetica&quot;" font-size="12px" text-anchor="middle">id...</text></switch></g></g><g><path d="M 1171 515 L 1171 488.6 Q 1171 485 1167.4 485 L 1014.6 485 Q 1011 485 1011 488.6 L 1011 515" fill="#cccccc" stroke="#000000" stroke-miterlimit="10" pointer-events="all" style="fill: light-dark(rgb(204, 204, 204), rgb(204, 204, 204)); stroke: light-dark(rgb(0, 0, 0), rgb(255, 255, 255));"/><path d="M 1011 515 L 1011 551.4 Q 1011 555 1014.6 555 L 1167.4 555 Q 1171 555 1171 551.4 L 1171 515" fill="none" stroke="#000000" stroke-miterlimit="10" pointer-events="none" style="stroke: light-dark(rgb(0, 0, 0), rgb(255, 255, 255));"/><path d="M 1011 515 L 1171 515" fill="none" stroke="#000000" stroke-miterlimit="10" pointer-events="none" style="stroke: light-dark(rgb(0, 0, 0), rgb(255, 255, 255));"/></g><g><g transform="translate(-0.5 -0.5)"><switch><foreignObject style="overflow: visible; text-align: left;" pointer-events="none" width="100%" height="100%" requiredFeatures="http://www.w3.org/TR/SVG11/feature#Extensibility"><div xmlns="http://www.w3.org/1999/xhtml" style="display: flex; align-items: unsafe center; justify-content: unsafe center; width: 158px; height: 1px; padding-top: 500px; margin-left: 1012px;"><div style="box-sizing: border-box; font-size: 0; text-align: center; color: #000000; "><div style="display: inline-block; font-size: 12px; font-family: &quot;Helvetica&quot;; color: light-dark(#000000, #000000); line-height: 1.2; pointer-events: all; font-weight: bold; white-space: normal; word-wrap: normal; ">E82 Actor Appellation</div></div></div></foreignObject><text x="1091" y="504" fill="#000000" font-family="&quot;Helvetica&quot;" font-size="12px" text-anchor="middle" font-weight="bold">E82 Actor Appellation</text></switch></g></g><g><rect x="1011" y="515" width="160" height="40" fill="none" stroke="none" pointer-events="all"/></g><g><g transform="translate(-0.5 -0.5)"><switch><foreignObject style="overflow: visible; text-align: left;" pointer-events="none" width="100%" height="100%" requiredFeatures="http://www.w3.org/TR/SVG11/feature#Extensibility"><div xmlns="http://www.w3.org/1999/xhtml" style="display: flex; align-items: unsafe flex-start; justify-content: unsafe center; width: 1px; height: 1px; padding-top: 522px; margin-left: 1093px;"><div style="box-sizing: border-box; font-size: 0; text-align: center; color: #000000; "><div style="display: inline-block; font-size: 12px; font-family: &quot;Helvetica&quot;; color: light-dark(#000000, #ffffff); line-height: 1.2; pointer-events: all; white-space: nowrap; ">id<br /><div style=""><span style="background-color: initial;">value</span></div></div></div></div></foreignObject><text x="1093" y="534" fill="light-dark(#000000, #ffffff)" font-family="&quot;Helvetica&quot;" font-size="12px" text-anchor="middle">id...</text></switch></g></g><g><path d="M 851 520 L 1004.63 520" fill="none" stroke="#000000" stroke-miterlimit="10" stroke-dasharray="3 3" pointer-events="stroke" style="stroke: light-dark(rgb(0, 0, 0), rgb(255, 255, 255));"/><path d="M 1009.88 520 L 1002.88 523.5 L 1004.63 520 L 1002.88 516.5 Z" fill="#000000" stroke="#000000" stroke-miterlimit="10" pointer-events="all" style="fill: light-dark(rgb(0, 0, 0), rgb(255, 255, 255)); stroke: light-dark(rgb(0, 0, 0), rgb(255, 255, 255));"/></g><g><g transform="translate(-0.5 -0.5)"><switch><foreignObject style="overflow: visible; text-align: left;" pointer-events="none" width="100%" height="100%" requiredFeatures="http://www.w3.org/TR/SVG11/feature#Extensibility"><div xmlns="http://www.w3.org/1999/xhtml" style="display: flex; align-items: unsafe center; justify-content: unsafe center; width: 1px; height: 1px; padding-top: 521px; margin-left: 932px;"><div style="box-sizing: border-box; font-size: 0; text-align: center; color: #000000; background-color: #ffffff; "><div style="display: inline-block; font-size: 11px; font-family: &quot;Helvetica&quot;; color: light-dark(#000000, #ffffff); line-height: 1.2; pointer-events: all; background-color: light-dark(#ffffff, var(--ge-dark-color, #121212)); white-space: nowrap; ">P131 is identified by</div></div></div></foreignObject><text x="932" y="524" fill="light-dark(#000000, #ffffff)" font-family="&quot;Helvetica&quot;" font-size="11px" text-anchor="middle">P131 is identified by</text></switch></g></g><g><path d="M 851 520 L 851 493.6 Q 851 490 847.4 490 L 694.6 490 Q 691 490 691 493.6 L 691 520" fill="#cccccc" stroke="#000000" stroke-miterlimit="10" pointer-events="all" style="fill: light-dark(rgb(204, 204, 204), rgb(204, 204, 204)); stroke: light-dark(rgb(0, 0, 0), rgb(255, 255, 255));"/><path d="M 691 520 L 691 546.4 Q 691 550 694.6 550 L 847.4 550 Q 851 550 851 546.4 L 851 520" fill="none" stroke="#000000" stroke-miterlimit="10" pointer-events="none" style="stroke: light-dark(rgb(0, 0, 0), rgb(255, 255, 255));"/><path d="M 691 520 L 851 520" fill="none" stroke="#000000" stroke-miterlimit="10" pointer-events="none" style="stroke: light-dark(rgb(0, 0, 0), rgb(255, 255, 255));"/></g><g><g transform="translate(-0.5 -0.5)"><switch><foreignObject style="overflow: visible; text-align: left;" pointer-events="none" width="100%" height="100%" requiredFeatures="http://www.w3.org/TR/SVG11/feature#Extensibility"><div xmlns="http://www.w3.org/1999/xhtml" style="display: flex; align-items: unsafe center; justify-content: unsafe center; width: 158px; height: 1px; padding-top: 505px; margin-left: 692px;"><div style="box-sizing: border-box; font-size: 0; text-align: center; color: #000000; "><div style="display: inline-block; font-size: 12px; font-family: &quot;Helvetica&quot;; color: light-dark(#000000, #000000); line-height: 1.2; pointer-events: all; font-weight: bold; white-space: normal; word-wrap: normal; ">E21 Person</div></div></div></foreignObject><text x="771" y="509" fill="#000000" font-family="&quot;Helvetica&quot;" font-size="12px" text-anchor="middle" font-weight="bold">E21 Person</text></switch></g></g><g><rect x="691" y="520" width="160" height="30" fill="none" stroke="none" pointer-events="all"/></g><g><g transform="translate(-0.5 -0.5)"><switch><foreignObject style="overflow: visible; text-align: left;" pointer-events="none" width="100%" height="100%" requiredFeatures="http://www.w3.org/TR/SVG11/feature#Extensibility"><div xmlns="http://www.w3.org/1999/xhtml" style="display: flex; align-items: unsafe flex-start; justify-content: unsafe center; width: 1px; height: 1px; padding-top: 527px; margin-left: 773px;"><div style="box-sizing: border-box; font-size: 0; text-align: center; color: #000000; "><div style="display: inline-block; font-size: 12px; font-family: &quot;Helvetica&quot;; color: light-dark(#000000, #ffffff); line-height: 1.2; pointer-events: all; white-space: nowrap; ">id</div></div></div></foreignObject><text x="773" y="539" fill="light-dark(#000000, #ffffff)" font-family="&quot;Helvetica&quot;" font-size="12px" text-anchor="middle">id</text></switch></g></g><g><path d="M 521 450 L 541 450 Q 551 450 551 440 L 551 410 Q 551 400 561 400 L 684.63 400" fill="none" stroke="#000000" stroke-miterlimit="10" stroke-dasharray="3 3" pointer-events="stroke" style="stroke: light-dark(rgb(0, 0, 0), rgb(255, 255, 255));"/><path d="M 689.88 400 L 682.88 403.5 L 684.63 400 L 682.88 396.5 Z" fill="#000000" stroke="#000000" stroke-miterlimit="10" pointer-events="all" style="fill: light-dark(rgb(0, 0, 0), rgb(255, 255, 255)); stroke: light-dark(rgb(0, 0, 0), rgb(255, 255, 255));"/></g><g><g transform="translate(-0.5 -0.5)"><switch><foreignObject style="overflow: visible; text-align: left;" pointer-events="none" width="100%" height="100%" requiredFeatures="http://www.w3.org/TR/SVG11/feature#Extensibility"><div xmlns="http://www.w3.org/1999/xhtml" style="display: flex; align-items: unsafe center; justify-content: unsafe center; width: 1px; height: 1px; padding-top: 401px; margin-left: 612px;"><div style="box-sizing: border-box; font-size: 0; text-align: center; color: #000000; background-color: #ffffff; "><div style="display: inline-block; font-size: 11px; font-family: &quot;Helvetica&quot;; color: light-dark(#000000, #ffffff); line-height: 1.2; pointer-events: all; background-color: light-dark(#ffffff, var(--ge-dark-color, #121212)); white-space: nowrap; ">P4 has time-span</div></div></div></foreignObject><text x="612" y="404" fill="light-dark(#000000, #ffffff)" font-family="&quot;Helvetica&quot;" font-size="11px" text-anchor="middle">P4 has time-span</text></switch></g></g><g><path d="M 441 430 L 441 326.37" fill="none" stroke="#000000" stroke-miterlimit="10" pointer-events="stroke" style="stroke: light-dark(rgb(0, 0, 0), rgb(255, 255, 255));"/><path d="M 441 321.12 L 444.5 328.12 L 441 326.37 L 437.5 328.12 Z" fill="#000000" stroke="#000000" stroke-miterlimit="10" pointer-events="all" style="fill: light-dark(rgb(0, 0, 0), rgb(255, 255, 255)); stroke: light-dark(rgb(0, 0, 0), rgb(255, 255, 255));"/></g><g><g transform="translate(-0.5 -0.5)"><switch><foreignObject style="overflow: visible; text-align: left;" pointer-events="none" width="100%" height="100%" requiredFeatures="http://www.w3.org/TR/SVG11/feature#Extensibility"><div xmlns="http://www.w3.org/1999/xhtml" style="display: flex; align-items: unsafe center; justify-content: unsafe center; width: 1px; height: 1px; padding-top: 370px; margin-left: 442px;"><div style="box-sizing: border-box; font-size: 0; text-align: center; color: #000000; background-color: #ffffff; "><div style="display: inline-block; font-size: 11px; font-family: &quot;Helvetica&quot;; color: light-dark(#000000, #ffffff); line-height: 1.2; pointer-events: all; background-color: light-dark(#ffffff, var(--ge-dark-color, #121212)); white-space: nowrap; ">P94 has created</div></div></div></foreignObject><text x="442" y="373" fill="light-dark(#000000, #ffffff)" font-family="&quot;Helvetica&quot;" font-size="11px" text-anchor="middle">P94 has created</text></switch></g></g><g><path d="M 521 460 L 521 433.6 Q 521 430 517.4 430 L 364.6 430 Q 361 430 361 433.6 L 361 460" fill="#cccccc" stroke="#000000" stroke-miterlimit="10" pointer-events="all" style="fill: light-dark(rgb(204, 204, 204), rgb(204, 204, 204)); stroke: light-dark(rgb(0, 0, 0), rgb(255, 255, 255));"/><path d="M 361 460 L 361 486.4 Q 361 490 364.6 490 L 517.4 490 Q 521 490 521 486.4 L 521 460" fill="none" stroke="#000000" stroke-miterlimit="10" pointer-events="none" style="stroke: light-dark(rgb(0, 0, 0), rgb(255, 255, 255));"/><path d="M 361 460 L 521 460" fill="none" stroke="#000000" stroke-miterlimit="10" pointer-events="none" style="stroke: light-dark(rgb(0, 0, 0), rgb(255, 255, 255));"/></g><g><g transform="translate(-0.5 -0.5)"><switch><foreignObject style="overflow: visible; text-align: left;" pointer-events="none" width="100%" height="100%" requiredFeatures="http://www.w3.org/TR/SVG11/feature#Extensibility"><div xmlns="http://www.w3.org/1999/xhtml" style="display: flex; align-items: unsafe center; justify-content: unsafe center; width: 158px; height: 1px; padding-top: 445px; margin-left: 362px;"><div style="box-sizing: border-box; font-size: 0; text-align: center; color: #000000; "><div style="display: inline-block; font-size: 12px; font-family: &quot;Helvetica&quot;; color: light-dark(#000000, #000000); line-height: 1.2; pointer-events: all; font-weight: bold; white-space: normal; word-wrap: normal; ">E65 Creation</div></div></div></foreignObject><text x="441" y="449" fill="#000000" font-family="&quot;Helvetica&quot;" font-size="12px" text-anchor="middle" font-weight="bold">E65 Creation</text></switch></g></g><g><rect x="361" y="460" width="160" height="30" fill="none" stroke="none" pointer-events="all"/></g><g><g transform="translate(-0.5 -0.5)"><switch><foreignObject style="overflow: visible; text-align: left;" pointer-events="none" width="100%" height="100%" requiredFeatures="http://www.w3.org/TR/SVG11/feature#Extensibility"><div xmlns="http://www.w3.org/1999/xhtml" style="display: flex; align-items: unsafe flex-start; justify-content: unsafe center; width: 1px; height: 1px; padding-top: 467px; margin-left: 443px;"><div style="box-sizing: border-box; font-size: 0; text-align: center; color: #000000; "><div style="display: inline-block; font-size: 12px; font-family: &quot;Helvetica&quot;; color: light-dark(#000000, #ffffff); line-height: 1.2; pointer-events: all; white-space: nowrap; ">id</div></div></div></foreignObject><text x="443" y="479" fill="light-dark(#000000, #ffffff)" font-family="&quot;Helvetica&quot;" font-size="12px" text-anchor="middle">id</text></switch></g></g><g><path d="M 851 400 L 1004.63 400" fill="none" stroke="#000000" stroke-miterlimit="10" stroke-dasharray="3 3" pointer-events="stroke" style="stroke: light-dark(rgb(0, 0, 0), rgb(255, 255, 255));"/><path d="M 1009.88 400 L 1002.88 403.5 L 1004.63 400 L 1002.88 396.5 Z" fill="#000000" stroke="#000000" stroke-miterlimit="10" pointer-events="all" style="fill: light-dark(rgb(0, 0, 0), rgb(255, 255, 255)); stroke: light-dark(rgb(0, 0, 0), rgb(255, 255, 255));"/></g><g><g transform="translate(-0.5 -0.5)"><switch><foreignObject style="overflow: visible; text-align: left;" pointer-events="none" width="100%" height="100%" requiredFeatures="http://www.w3.org/TR/SVG11/feature#Extensibility"><div xmlns="http://www.w3.org/1999/xhtml" style="display: flex; align-items: unsafe center; justify-content: unsafe center; width: 1px; height: 1px; padding-top: 401px; margin-left: 933px;"><div style="box-sizing: border-box; font-size: 0; text-align: center; color: #000000; background-color: #ffffff; "><div style="display: inline-block; font-size: 11px; font-family: &quot;Helvetica&quot;; color: light-dark(#000000, #ffffff); line-height: 1.2; pointer-events: all; background-color: light-dark(#ffffff, var(--ge-dark-color, #121212)); white-space: nowrap; ">P82 at some<br />time within</div></div></div></foreignObject><text x="933" y="404" fill="light-dark(#000000, #ffffff)" font-family="&quot;Helvetica&quot;" font-size="11px" text-anchor="middle">P82 at some...</text></switch></g></g><g><path d="M 851 400 L 851 373.6 Q 851 370 847.4 370 L 694.6 370 Q 691 370 691 373.6 L 691 400" fill="#cccccc" stroke="#000000" stroke-miterlimit="10" pointer-events="all" style="fill: light-dark(rgb(204, 204, 204), rgb(204, 204, 204)); stroke: light-dark(rgb(0, 0, 0), rgb(255, 255, 255));"/><path d="M 691 400 L 691 426.4 Q 691 430 694.6 430 L 847.4 430 Q 851 430 851 426.4 L 851 400" fill="none" stroke="#000000" stroke-miterlimit="10" pointer-events="none" style="stroke: light-dark(rgb(0, 0, 0), rgb(255, 255, 255));"/><path d="M 691 400 L 851 400" fill="none" stroke="#000000" stroke-miterlimit="10" pointer-events="none" style="stroke: light-dark(rgb(0, 0, 0), rgb(255, 255, 255));"/></g><g><g transform="translate(-0.5 -0.5)"><switch><foreignObject style="overflow: visible; text-align: left;" pointer-events="none" width="100%" height="100%" requiredFeatures="http://www.w3.org/TR/SVG11/feature#Extensibility"><div xmlns="http://www.w3.org/1999/xhtml" style="display: flex; align-items: unsafe center; justify-content: unsafe center; width: 158px; height: 1px; padding-top: 385px; margin-left: 692px;"><div style="box-sizing: border-box; font-size: 0; text-align: center; color: #000000; "><div style="display: inline-block; font-size: 12px; font-family: &quot;Helvetica&quot;; color: light-dark(#000000, #000000); line-height: 1.2; pointer-events: all; font-weight: bold; white-space: normal; word-wrap: normal; ">E52 Time-Span</div></div></div></foreignObject><text x="771" y="389" fill="#000000" font-family="&quot;Helvetica&quot;" font-size="12px" text-anchor="middle" font-weight="bold">E52 Time-Span</text></switch></g></g><g><rect x="691" y="400" width="160" height="30" fill="none" stroke="none" pointer-events="all"/></g><g><g transform="translate(-0.5 -0.5)"><switch><foreignObject style="overflow: visible; text-align: left;" pointer-events="none" width="100%" height="100%" requiredFeatures="http://www.w3.org/TR/SVG11/feature#Extensibility"><div xmlns="http://www.w3.org/1999/xhtml" style="display: flex; align-items: unsafe flex-start; justify-content: unsafe center; width: 1px; height: 1px; padding-top: 407px; margin-left: 773px;"><div style="box-sizing: border-box; font-size: 0; text-align: center; color: #000000; "><div style="display: inline-block; font-size: 12px; font-family: &quot;Helvetica&quot;; color: light-dark(#000000, #ffffff); line-height: 1.2; pointer-events: all; white-space: nowrap; ">id</div></div></div></foreignObject><text x="773" y="419" fill="light-dark(#000000, #ffffff)" font-family="&quot;Helvetica&quot;" font-size="12px" text-anchor="middle">id</text></switch></g></g><g><path d="M 521 290 L 684.63 290" fill="none" stroke="#000000" stroke-miterlimit="10" pointer-events="stroke" style="stroke: light-dark(rgb(0, 0, 0), rgb(255, 255, 255));"/><path d="M 689.88 290 L 682.88 293.5 L 684.63 290 L 682.88 286.5 Z" fill="#000000" stroke="#000000" stroke-miterlimit="10" pointer-events="all" style="fill: light-dark(rgb(0, 0, 0), rgb(255, 255, 255)); stroke: light-dark(rgb(0, 0, 0), rgb(255, 255, 255));"/></g><g><g transform="translate(-0.5 -0.5)"><switch><foreignObject style="overflow: visible; text-align: left;" pointer-events="none" width="100%" height="100%" requiredFeatures="http://www.w3.org/TR/SVG11/feature#Extensibility"><div xmlns="http://www.w3.org/1999/xhtml" style="display: flex; align-items: unsafe center; justify-content: unsafe center; width: 1px; height: 1px; padding-top: 291px; margin-left: 602px;"><div style="box-sizing: border-box; font-size: 0; text-align: center; color: #000000; background-color: #ffffff; "><div style="display: inline-block; font-size: 11px; font-family: &quot;Helvetica&quot;; color: light-dark(#000000, #ffffff); line-height: 1.2; pointer-events: all; background-color: light-dark(#ffffff, var(--ge-dark-color, #121212)); white-space: nowrap; ">P48 has preferred<br />identifier</div></div></div></foreignObject><text x="602" y="294" fill="light-dark(#000000, #ffffff)" font-family="&quot;Helvetica&quot;" font-size="11px" text-anchor="middle">P48 has preferred...</text></switch></g></g><g><path d="M 401 320 L 401 330 Q 401 340 391 340 L 291 340 Q 281 340 281 350 L 281 573.63" fill="none" stroke="#000000" stroke-miterlimit="10" stroke-dasharray="3 3" pointer-events="stroke" style="stroke: light-dark(rgb(0, 0, 0), rgb(255, 255, 255));"/><path d="M 281 578.88 L 277.5 571.88 L 281 573.63 L 284.5 571.88 Z" fill="#000000" stroke="#000000" stroke-miterlimit="10" pointer-events="all" style="fill: light-dark(rgb(0, 0, 0), rgb(255, 255, 255)); stroke: light-dark(rgb(0, 0, 0), rgb(255, 255, 255));"/></g><g><g transform="translate(-0.5 -0.5)"><switch><foreignObject style="overflow: visible; text-align: left;" pointer-events="none" width="100%" height="100%" requiredFeatures="http://www.w3.org/TR/SVG11/feature#Extensibility"><div xmlns="http://www.w3.org/1999/xhtml" style="display: flex; align-items: unsafe center; justify-content: unsafe center; width: 1px; height: 1px; padding-top: 391px; margin-left: 282px;"><div style="box-sizing: border-box; font-size: 0; text-align: center; color: #000000; background-color: #ffffff; "><div style="display: inline-block; font-size: 11px; font-family: &quot;Helvetica&quot;; color: light-dark(#000000, #ffffff); line-height: 1.2; pointer-events: all; background-color: light-dark(#ffffff, var(--ge-dark-color, #121212)); white-space: nowrap; ">P106 is composed of</div></div></div></foreignObject><text x="282" y="394" fill="light-dark(#000000, #ffffff)" font-family="&quot;Helvetica&quot;" font-size="11px" text-anchor="middle">P106 is composed of</text></switch></g></g><g><path d="M 481 260 L 481 200 Q 481 190 491 190 L 761 190 Q 771 190 771 180 L 771 146.37" fill="none" stroke="#000000" stroke-miterlimit="10" stroke-dasharray="3 3" pointer-events="stroke" style="stroke: light-dark(rgb(0, 0, 0), rgb(255, 255, 255));"/><path d="M 771 141.12 L 774.5 148.12 L 771 146.37 L 767.5 148.12 Z" fill="#000000" stroke="#000000" stroke-miterlimit="10" pointer-events="all" style="fill: light-dark(rgb(0, 0, 0), rgb(255, 255, 255)); stroke: light-dark(rgb(0, 0, 0), rgb(255, 255, 255));"/></g><g><g transform="translate(-0.5 -0.5)"><switch><foreignObject style="overflow: visible; text-align: left;" pointer-events="none" width="100%" height="100%" requiredFeatures="http://www.w3.org/TR/SVG11/feature#Extensibility"><div xmlns="http://www.w3.org/1999/xhtml" style="display: flex; align-items: unsafe center; justify-content: unsafe center; width: 1px; height: 1px; padding-top: 191px; margin-left: 632px;"><div style="box-sizing: border-box; font-size: 0; text-align: center; color: #000000; background-color: #ffffff; "><div style="display: inline-block; font-size: 11px; font-family: &quot;Helvetica&quot;; color: light-dark(#000000, #ffffff); line-height: 1.2; pointer-events: all; background-color: light-dark(#ffffff, var(--ge-dark-color, #121212)); white-space: nowrap; ">has tag</div></div></div></foreignObject><text x="632" y="194" fill="light-dark(#000000, #ffffff)" font-family="&quot;Helvetica&quot;" font-size="11px" text-anchor="middle">has tag</text></switch></g></g><g><path d="M 361 305 L 207.37 305" fill="none" stroke="#000000" stroke-miterlimit="10" stroke-dasharray="3 3" pointer-events="stroke" style="stroke: light-dark(rgb(0, 0, 0), rgb(255, 255, 255));"/><path d="M 202.12 305 L 209.12 301.5 L 207.37 305 L 209.12 308.5 Z" fill="#000000" stroke="#000000" stroke-miterlimit="10" pointer-events="all" style="fill: light-dark(rgb(0, 0, 0), rgb(255, 255, 255)); stroke: light-dark(rgb(0, 0, 0), rgb(255, 255, 255));"/></g><g><g transform="translate(-0.5 -0.5)"><switch><foreignObject style="overflow: visible; text-align: left;" pointer-events="none" width="100%" height="100%" requiredFeatures="http://www.w3.org/TR/SVG11/feature#Extensibility"><div xmlns="http://www.w3.org/1999/xhtml" style="display: flex; align-items: unsafe center; justify-content: unsafe center; width: 1px; height: 1px; padding-top: 306px; margin-left: 282px;"><div style="box-sizing: border-box; font-size: 0; text-align: center; color: #000000; background-color: #ffffff; "><div style="display: inline-block; font-size: 11px; font-family: &quot;Helvetica&quot;; color: light-dark(#000000, #ffffff); line-height: 1.2; pointer-events: all; background-color: light-dark(#ffffff, var(--ge-dark-color, #121212)); white-space: nowrap; ">edited by<div>[timestamp]</div></div></div></div></foreignObject><text x="282" y="309" fill="light-dark(#000000, #ffffff)" font-family="&quot;Helvetica&quot;" font-size="11px" text-anchor="middle">edited by...</text></switch></g></g><g><path d="M 361 275 L 207.37 275" fill="none" stroke="#000000" stroke-miterlimit="10" stroke-dasharray="3 3" pointer-events="stroke" style="stroke: light-dark(rgb(0, 0, 0), rgb(255, 255, 255));"/><path d="M 202.12 275 L 209.12 271.5 L 207.37 275 L 209.12 278.5 Z" fill="#000000" stroke="#000000" stroke-miterlimit="10" pointer-events="all" style="fill: light-dark(rgb(0, 0, 0), rgb(255, 255, 255)); stroke: light-dark(rgb(0, 0, 0), rgb(255, 255, 255));"/></g><g><g transform="translate(-0.5 -0.5)"><switch><foreignObject style="overflow: visible; text-align: left;" pointer-events="none" width="100%" height="100%" requiredFeatures="http://www.w3.org/TR/SVG11/feature#Extensibility"><div xmlns="http://www.w3.org/1999/xhtml" style="display: flex; align-items: unsafe center; justify-content: unsafe center; width: 1px; height: 1px; padding-top: 276px; margin-left: 282px;"><div style="box-sizing: border-box; font-size: 0; text-align: center; color: #000000; background-color: #ffffff; "><div style="display: inline-block; font-size: 11px; font-family: &quot;Helvetica&quot;; color: light-dark(#000000, #ffffff); line-height: 1.2; pointer-events: all; background-color: light-dark(#ffffff, var(--ge-dark-color, #121212)); white-space: nowrap; ">uploaded by<div>[timestamp]</div></div></div></div></foreignObject><text x="282" y="279" fill="light-dark(#000000, #ffffff)" font-family="&quot;Helvetica&quot;" font-size="11px" text-anchor="middle">uploaded by...</text></switch></g></g><g><path d="M 521 290 L 521 263.6 Q 521 260 517.4 260 L 364.6 260 Q 361 260 361 263.6 L 361 290" fill="#cccccc" stroke="#000000" stroke-width="3" stroke-miterlimit="10" pointer-events="all" style="fill: light-dark(rgb(204, 204, 204), rgb(204, 204, 204)); stroke: light-dark(rgb(0, 0, 0), rgb(255, 255, 255));"/><path d="M 361 290 L 361 316.4 Q 361 320 364.6 320 L 517.4 320 Q 521 320 521 316.4 L 521 290" fill="none" stroke="#000000" stroke-width="3" stroke-miterlimit="10" pointer-events="none" style="stroke: light-dark(rgb(0, 0, 0), rgb(255, 255, 255));"/><path d="M 361 290 L 521 290" fill="none" stroke="#000000" stroke-width="3" stroke-miterlimit="10" pointer-events="none" style="stroke: light-dark(rgb(0, 0, 0), rgb(255, 255, 255));"/></g><g><g transform="translate(-0.5 -0.5)"><switch><foreignObject style="overflow: visible; text-align: left;" pointer-events="none" width="100%" height="100%" requiredFeatures="http://www.w3.org/TR/SVG11/feature#Extensibility"><div xmlns="http://www.w3.org/1999/xhtml" style="display: flex; align-items: unsafe center; justify-content: unsafe center; width: 158px; height: 1px; padding-top: 275px; margin-left: 362px;"><div style="box-sizing: border-box; font-size: 0; text-align: center; color: #000000; "><div style="display: inline-block; font-size: 12px; font-family: &quot;Helvetica&quot;; color: light-dark(#000000, #000000); line-height: 1.2; pointer-events: all; font-weight: bold; white-space: normal; word-wrap: normal; ">E33 Linguistic Object</div></div></div></foreignObject><text x="441" y="279" fill="#000000" font-family="&quot;Helvetica&quot;" font-size="12px" text-anchor="middle" font-weight="bold">E33 Linguistic Object</text></switch></g></g><g><rect x="361" y="290" width="160" height="30" fill="none" stroke="none" pointer-events="all"/></g><g><g transform="translate(-0.5 -0.5)"><switch><foreignObject style="overflow: visible; text-align: left;" pointer-events="none" width="100%" height="100%" requiredFeatures="http://www.w3.org/TR/SVG11/feature#Extensibility"><div xmlns="http://www.w3.org/1999/xhtml" style="display: flex; align-items: unsafe flex-start; justify-content: unsafe center; width: 1px; height: 1px; padding-top: 297px; margin-left: 443px;"><div style="box-sizing: border-box; font-size: 0; text-align: center; color: #000000; "><div style="display: inline-block; font-size: 12px; font-family: &quot;Helvetica&quot;; color: light-dark(#000000, #ffffff); line-height: 1.2; pointer-events: all; white-space: nowrap; ">id</div></div></div></foreignObject><text x="443" y="309" fill="light-dark(#000000, #ffffff)" font-family="&quot;Helvetica&quot;" font-size="12px" text-anchor="middle">id</text></switch></g></g><g><path d="M 521 470 L 541 470 Q 551 470 551 480 L 551 510 Q 551 520 561 520 L 684.63 520" fill="none" stroke="#000000" stroke-miterlimit="10" stroke-dasharray="3 3" pointer-events="stroke" style="stroke: light-dark(rgb(0, 0, 0), rgb(255, 255, 255));"/><path d="M 689.88 520 L 682.88 523.5 L 684.63 520 L 682.88 516.5 Z" fill="#000000" stroke="#000000" stroke-miterlimit="10" pointer-events="all" style="fill: light-dark(rgb(0, 0, 0), rgb(255, 255, 255)); stroke: light-dark(rgb(0, 0, 0), rgb(255, 255, 255));"/></g><g><g transform="translate(-0.5 -0.5)"><switch><foreignObject style="overflow: visible; text-align: left;" pointer-events="none" width="100%" height="100%" requiredFeatures="http://www.w3.org/TR/SVG11/feature#Extensibility"><div xmlns="http://www.w3.org/1999/xhtml" style="display: flex; align-items: unsafe center; justify-content: unsafe center; width: 1px; height: 1px; padding-top: 521px; margin-left: 612px;"><div style="box-sizing: border-box; font-size: 0; text-align: center; color: #000000; background-color: #ffffff; "><div style="display: inline-block; font-size: 11px; font-family: &quot;Helvetica&quot;; color: light-dark(#000000, #ffffff); line-height: 1.2; pointer-events: all; background-color: light-dark(#ffffff, var(--ge-dark-color, #121212)); white-space: nowrap; ">P14 carried out</div></div></div></foreignObject><text x="612" y="524" fill="light-dark(#000000, #ffffff)" font-family="&quot;Helvetica&quot;" font-size="11px" text-anchor="middle">P14 carried out</text></switch></g></g><g><path d="M 851 110 L 851 83.6 Q 851 80 847.4 80 L 694.6 80 Q 691 80 691 83.6 L 691 110" fill="#cccccc" stroke="#000000" stroke-miterlimit="10" pointer-events="all" style="fill: light-dark(rgb(204, 204, 204), rgb(204, 204, 204)); stroke: light-dark(rgb(0, 0, 0), rgb(255, 255, 255));"/><path d="M 691 110 L 691 136.4 Q 691 140 694.6 140 L 847.4 140 Q 851 140 851 136.4 L 851 110" fill="none" stroke="#000000" stroke-miterlimit="10" pointer-events="none" style="stroke: light-dark(rgb(0, 0, 0), rgb(255, 255, 255));"/><path d="M 691 110 L 851 110" fill="none" stroke="#000000" stroke-miterlimit="10" pointer-events="none" style="stroke: light-dark(rgb(0, 0, 0), rgb(255, 255, 255));"/></g><g><g transform="translate(-0.5 -0.5)"><switch><foreignObject style="overflow: visible; text-align: left;" pointer-events="none" width="100%" height="100%" requiredFeatures="http://www.w3.org/TR/SVG11/feature#Extensibility"><div xmlns="http://www.w3.org/1999/xhtml" style="display: flex; align-items: unsafe center; justify-content: unsafe center; width: 158px; height: 1px; padding-top: 95px; margin-left: 692px;"><div style="box-sizing: border-box; font-size: 0; text-align: center; color: #000000; "><div style="display: inline-block; font-size: 12px; font-family: &quot;Helvetica&quot;; color: light-dark(#000000, #000000); line-height: 1.2; pointer-events: all; font-weight: bold; white-space: normal; word-wrap: normal; ">TAG</div></div></div></foreignObject><text x="771" y="99" fill="#000000" font-family="&quot;Helvetica&quot;" font-size="12px" text-anchor="middle" font-weight="bold">TAG</text></switch></g></g><g><rect x="691" y="110" width="160" height="30" fill="none" stroke="none" pointer-events="all"/></g><g><g transform="translate(-0.5 -0.5)"><switch><foreignObject style="overflow: visible; text-align: left;" pointer-events="none" width="100%" height="100%" requiredFeatures="http://www.w3.org/TR/SVG11/feature#Extensibility"><div xmlns="http://www.w3.org/1999/xhtml" style="display: flex; align-items: unsafe flex-start; justify-content: unsafe center; width: 1px; height: 1px; padding-top: 117px; margin-left: 773px;"><div style="box-sizing: border-box; font-size: 0; text-align: center; color: #000000; "><div style="display: inline-block; font-size: 12px; font-family: &quot;Helvetica&quot;; color: light-dark(#000000, #ffffff); line-height: 1.2; pointer-events: all; white-space: nowrap; ">id</div></div></div></foreignObject><text x="773" y="129" fill="light-dark(#000000, #ffffff)" font-family="&quot;Helvetica&quot;" font-size="12px" text-anchor="middle">id</text></switch></g></g><g><path d="M 121 170 L 121 180 Q 121 190 131 190 L 391 190 Q 401 190 401 200 L 401 253.63" fill="none" stroke="#000000" stroke-miterlimit="10" pointer-events="stroke" style="stroke: light-dark(rgb(0, 0, 0), rgb(255, 255, 255));"/><path d="M 401 258.88 L 397.5 251.88 L 401 253.63 L 404.5 251.88 Z" fill="#000000" stroke="#000000" stroke-miterlimit="10" pointer-events="all" style="fill: light-dark(rgb(0, 0, 0), rgb(255, 255, 255)); stroke: light-dark(rgb(0, 0, 0), rgb(255, 255, 255));"/></g><g><g transform="translate(-0.5 -0.5)"><switch><foreignObject style="overflow: visible; text-align: left;" pointer-events="none" width="100%" height="100%" requiredFeatures="http://www.w3.org/TR/SVG11/feature#Extensibility"><div xmlns="http://www.w3.org/1999/xhtml" style="display: flex; align-items: unsafe center; justify-content: unsafe center; width: 1px; height: 1px; padding-top: 191px; margin-left: 273px;"><div style="box-sizing: border-box; font-size: 0; text-align: center; color: #000000; background-color: #ffffff; "><div style="display: inline-block; font-size: 11px; font-family: &quot;Helvetica&quot;; color: light-dark(#000000, #ffffff); line-height: 1.2; pointer-events: all; background-color: light-dark(#ffffff, var(--ge-dark-color, #121212)); white-space: nowrap; ">P67 refers to</div></div></div></foreignObject><text x="273" y="194" fill="light-dark(#000000, #ffffff)" font-family="&quot;Helvetica&quot;" font-size="11px" text-anchor="middle">P67 refers to</text></switch></g></g><g><rect x="1" y="550" width="560" height="330" fill-opacity="0.2" fill="#f0a30a" stroke="#bd7000" stroke-opacity="0.2" stroke-width="3" pointer-events="all" style="fill: light-dark(rgb(240, 163, 10), rgb(240, 163, 10)); stroke: light-dark(rgb(189, 112, 0), rgb(189, 112, 0));"/></g><g><g transform="translate(-0.5 -0.5)"><switch><foreignObject style="overflow: visible; text-align: left;" pointer-events="none" width="100%" height="100%" requiredFeatures="http://www.w3.org/TR/SVG11/feature#Extensibility"><div xmlns="http://www.w3.org/1999/xhtml" style="display: flex; align-items: unsafe flex-start; justify-content: unsafe flex-start; width: 551px; height: 1px; padding-top: 557px; margin-left: 10px;"><div style="box-sizing: border-box; font-size: 0; text-align: left; color: #4D4D4D; "><div style="display: inline-block; font-size: 12px; font-family: &quot;Helvetica&quot;; color: light-dark(#4D4D4D, #4D4D4D); line-height: 1.2; pointer-events: all; white-space: normal; word-wrap: normal; ">Segmentation</div></div></div></foreignObject><text x="10" y="569" fill="#4D4D4D" font-family="&quot;Helvetica&quot;" font-size="12px">Segmentation</text></switch></g></g><g><path d="M 361 610 L 361 583.6 Q 361 580 357.4 580 L 204.6 580 Q 201 580 201 583.6 L 201 610" fill="#cccccc" stroke="#000000" stroke-miterlimit="10" pointer-events="all" style="fill: light-dark(rgb(204, 204, 204), rgb(204, 204, 204)); stroke: light-dark(rgb(0, 0, 0), rgb(255, 255, 255));"/><path d="M 201 610 L 201 676.4 Q 201 680 204.6 680 L 357.4 680 Q 361 680 361 676.4 L 361 610" fill="#ffffff" stroke="#000000" stroke-miterlimit="10" pointer-events="all" style="fill: light-dark(#ffffff, var(--ge-dark-color, #121212)); stroke: light-dark(rgb(0, 0, 0), rgb(255, 255, 255));"/><path d="M 201 610 L 361 610" fill="none" stroke="#000000" stroke-miterlimit="10" pointer-events="all" style="stroke: light-dark(rgb(0, 0, 0), rgb(255, 255, 255));"/></g><g><g transform="translate(-0.5 -0.5)"><switch><foreignObject style="overflow: visible; text-align: left;" pointer-events="none" width="100%" height="100%" requiredFeatures="http://www.w3.org/TR/SVG11/feature#Extensibility"><div xmlns="http://www.w3.org/1999/xhtml" style="display: flex; align-items: unsafe center; justify-content: unsafe center; width: 158px; height: 1px; padding-top: 595px; margin-left: 202px;"><div style="box-sizing: border-box; font-size: 0; text-align: center; color: #000000; "><div style="display: inline-block; font-size: 12px; font-family: &quot;Helvetica&quot;; color: light-dark(#000000, #000000); line-height: 1.2; pointer-events: all; font-weight: bold; white-space: normal; word-wrap: normal; ">E33 Linguistic Object / Annotation</div></div></div></foreignObject><text x="281" y="599" fill="#000000" font-family="&quot;Helvetica&quot;" font-size="12px" text-anchor="middle" font-weight="bold">E33 Linguistic Object / An...</text></switch></g></g><g><rect x="201" y="610" width="160" height="70" fill="none" stroke="none" pointer-events="all"/></g><g><g transform="translate(-0.5 -0.5)"><switch><foreignObject style="overflow: visible; text-align: left;" pointer-events="none" width="100%" height="100%" requiredFeatures="http://www.w3.org/TR/SVG11/feature#Extensibility"><div xmlns="http://www.w3.org/1999/xhtml" style="display: flex; align-items: unsafe flex-start; justify-content: unsafe center; width: 1px; height: 1px; padding-top: 617px; margin-left: 283px;"><div style="box-sizing: border-box; font-size: 0; text-align: center; color: #000000; "><div style="display: inline-block; font-size: 12px; font-family: &quot;Helvetica&quot;; color: light-dark(#000000, #ffffff); line-height: 1.2; pointer-events: all; white-space: nowrap; ">id<br />value<br />start<br />end</div></div></div></foreignObject><text x="283" y="629" fill="light-dark(#000000, #ffffff)" font-family="&quot;Helvetica&quot;" font-size="12px" text-anchor="middle">id...</text></switch></g></g><g><path d="M 361 600.4 L 441 600.4 Q 451 600.4 451 610.4 L 451 649.4 Q 451 659.4 441 659.39 L 367.53 659.35" fill="none" stroke="#000000" stroke-miterlimit="10" stroke-dasharray="3 3" pointer-events="stroke" style="stroke: light-dark(rgb(0, 0, 0), rgb(255, 255, 255));"/><path d="M 362.28 659.35 L 369.28 655.85 L 367.53 659.35 L 369.28 662.85 Z" fill="#000000" stroke="#000000" stroke-miterlimit="10" pointer-events="all" style="fill: light-dark(rgb(0, 0, 0), rgb(255, 255, 255)); stroke: light-dark(rgb(0, 0, 0), rgb(255, 255, 255));"/></g><g><g transform="translate(-0.5 -0.5)"><switch><foreignObject style="overflow: visible; text-align: left;" pointer-events="none" width="100%" height="100%" requiredFeatures="http://www.w3.org/TR/SVG11/feature#Extensibility"><div xmlns="http://www.w3.org/1999/xhtml" style="display: flex; align-items: unsafe center; justify-content: unsafe center; width: 1px; height: 1px; padding-top: 630px; margin-left: 453px;"><div style="box-sizing: border-box; font-size: 0; text-align: center; color: #000000; background-color: #ffffff; "><div style="display: inline-block; font-size: 11px; font-family: &quot;Helvetica&quot;; color: light-dark(#000000, #ffffff); line-height: 1.2; pointer-events: all; background-color: light-dark(#ffffff, var(--ge-dark-color, #121212)); white-space: nowrap; ">is close to<br />[distance]<br />[weight]</div></div></div></foreignObject><text x="453" y="633" fill="light-dark(#000000, #ffffff)" font-family="&quot;Helvetica&quot;" font-size="11px" text-anchor="middle">is close to...</text></switch></g></g><g><path d="M 261 769.98 L 261 743.58 Q 261 739.98 257.4 739.98 L 104.6 739.98 Q 101 739.98 101 743.58 L 101 769.98" fill="#cccccc" stroke="#000000" stroke-miterlimit="10" pointer-events="all" style="fill: light-dark(rgb(204, 204, 204), rgb(204, 204, 204)); stroke: light-dark(rgb(0, 0, 0), rgb(255, 255, 255));"/><path d="M 101 769.98 L 101 826.38 Q 101 829.98 104.6 829.98 L 257.4 829.98 Q 261 829.98 261 826.38 L 261 769.98" fill="#ffffff" stroke="#000000" stroke-miterlimit="10" pointer-events="all" style="fill: light-dark(#ffffff, var(--ge-dark-color, #121212)); stroke: light-dark(rgb(0, 0, 0), rgb(255, 255, 255));"/><path d="M 101 769.98 L 261 769.98" fill="none" stroke="#000000" stroke-miterlimit="10" pointer-events="all" style="stroke: light-dark(rgb(0, 0, 0), rgb(255, 255, 255));"/></g><g><g transform="translate(-0.5 -0.5)"><switch><foreignObject style="overflow: visible; text-align: left;" pointer-events="none" width="100%" height="100%" requiredFeatures="http://www.w3.org/TR/SVG11/feature#Extensibility"><div xmlns="http://www.w3.org/1999/xhtml" style="display: flex; align-items: unsafe center; justify-content: unsafe center; width: 158px; height: 1px; padding-top: 755px; margin-left: 102px;"><div style="box-sizing: border-box; font-size: 0; text-align: center; color: #000000; "><div style="display: inline-block; font-size: 12px; font-family: &quot;Helvetica&quot;; color: light-dark(#000000, #000000); line-height: 1.2; pointer-events: all; font-weight: bold; white-space: normal; word-wrap: normal; ">E55 Type / AAT</div></div></div></foreignObject><text x="181" y="759" fill="#000000" font-family="&quot;Helvetica&quot;" font-size="12px" text-anchor="middle" font-weight="bold">E55 Type / AAT</text></switch></g></g><g><rect x="101" y="769.98" width="160" height="60" fill="none" stroke="none" pointer-events="all"/></g><g><g transform="translate(-0.5 -0.5)"><switch><foreignObject style="overflow: visible; text-align: left;" pointer-events="none" width="100%" height="100%" requiredFeatures="http://www.w3.org/TR/SVG11/feature#Extensibility"><div xmlns="http://www.w3.org/1999/xhtml" style="display: flex; align-items: unsafe flex-start; justify-content: unsafe center; width: 1px; height: 1px; padding-top: 777px; margin-left: 183px;"><div style="box-sizing: border-box; font-size: 0; text-align: center; color: #000000; "><div style="display: inline-block; font-size: 12px; font-family: &quot;Helvetica&quot;; color: light-dark(#000000, #ffffff); line-height: 1.2; pointer-events: all; white-space: nowrap; ">id<br />identifier<br />label</div></div></div></foreignObject><text x="183" y="789" fill="light-dark(#000000, #ffffff)" font-family="&quot;Helvetica&quot;" font-size="12px" text-anchor="middle">id...</text></switch></g></g><g><path d="M 461.01 769.98 L 461.01 743.58 Q 461.01 739.98 457.41 739.98 L 304.61 739.98 Q 301.01 739.98 301.01 743.58 L 301.01 769.98" fill="#cccccc" stroke="#000000" stroke-miterlimit="10" pointer-events="all" style="fill: light-dark(rgb(204, 204, 204), rgb(204, 204, 204)); stroke: light-dark(rgb(0, 0, 0), rgb(255, 255, 255));"/><path d="M 301.01 769.98 L 301.01 826.38 Q 301.01 829.98 304.61 829.98 L 457.41 829.98 Q 461.01 829.98 461.01 826.38 L 461.01 769.98" fill="#ffffff" stroke="#000000" stroke-miterlimit="10" pointer-events="all" style="fill: light-dark(#ffffff, var(--ge-dark-color, #121212)); stroke: light-dark(rgb(0, 0, 0), rgb(255, 255, 255));"/><path d="M 301.01 769.98 L 461.01 769.98" fill="none" stroke="#000000" stroke-miterlimit="10" pointer-events="all" style="stroke: light-dark(rgb(0, 0, 0), rgb(255, 255, 255));"/></g><g><g transform="translate(-0.5 -0.5)"><switch><foreignObject style="overflow: visible; text-align: left;" pointer-events="none" width="100%" height="100%" requiredFeatures="http://www.w3.org/TR/SVG11/feature#Extensibility"><div xmlns="http://www.w3.org/1999/xhtml" style="display: flex; align-items: unsafe center; justify-content: unsafe center; width: 158px; height: 1px; padding-top: 755px; margin-left: 302px;"><div style="box-sizing: border-box; font-size: 0; text-align: center; color: #000000; "><div style="display: inline-block; font-size: 12px; font-family: &quot;Helvetica&quot;; color: light-dark(#000000, #000000); line-height: 1.2; pointer-events: all; font-weight: bold; white-space: normal; word-wrap: normal; ">E55 Type / Wikidata</div></div></div></foreignObject><text x="381" y="759" fill="#000000" font-family="&quot;Helvetica&quot;" font-size="12px" text-anchor="middle" font-weight="bold">E55 Type / Wikidata</text></switch></g></g><g><rect x="301.01" y="769.98" width="160" height="60" fill="none" stroke="none" pointer-events="all"/></g><g><g transform="translate(-0.5 -0.5)"><switch><foreignObject style="overflow: visible; text-align: left;" pointer-events="none" width="100%" height="100%" requiredFeatures="http://www.w3.org/TR/SVG11/feature#Extensibility"><div xmlns="http://www.w3.org/1999/xhtml" style="display: flex; align-items: unsafe flex-start; justify-content: unsafe center; width: 1px; height: 1px; padding-top: 777px; margin-left: 383px;"><div style="box-sizing: border-box; font-size: 0; text-align: center; color: #000000; "><div style="display: inline-block; font-size: 12px; font-family: &quot;Helvetica&quot;; color: light-dark(#000000, #ffffff); line-height: 1.2; pointer-events: all; white-space: nowrap; ">id<br />identifier<br />label</div></div></div></foreignObject><text x="383" y="789" fill="light-dark(#000000, #ffffff)" font-family="&quot;Helvetica&quot;" font-size="12px" text-anchor="middle">id...</text></switch></g></g><g><path d="M 461.01 784.98 L 501 785 Q 511 785 511 795 L 511 850 Q 511 860 501 860 L 391 860 Q 381 860 381 850 L 381.01 836.35" fill="none" stroke="#000000" stroke-miterlimit="10" stroke-dasharray="3 3" pointer-events="stroke" style="stroke: light-dark(rgb(0, 0, 0), rgb(255, 255, 255));"/><path d="M 381.01 831.1 L 384.51 838.1 L 381.01 836.35 L 377.51 838.1 Z" fill="#000000" stroke="#000000" stroke-miterlimit="10" pointer-events="all" style="fill: light-dark(rgb(0, 0, 0), rgb(255, 255, 255)); stroke: light-dark(rgb(0, 0, 0), rgb(255, 255, 255));"/></g><g><g transform="translate(-0.5 -0.5)"><switch><foreignObject style="overflow: visible; text-align: left;" pointer-events="none" width="100%" height="100%" requiredFeatures="http://www.w3.org/TR/SVG11/feature#Extensibility"><div xmlns="http://www.w3.org/1999/xhtml" style="display: flex; align-items: unsafe center; justify-content: unsafe center; width: 1px; height: 1px; padding-top: 824px; margin-left: 513px;"><div style="box-sizing: border-box; font-size: 0; text-align: center; color: #000000; background-color: #ffffff; "><div style="display: inline-block; font-size: 11px; font-family: &quot;Helvetica&quot;; color: light-dark(#000000, #ffffff); line-height: 1.2; pointer-events: all; background-color: light-dark(#ffffff, var(--ge-dark-color, #121212)); white-space: nowrap; ">P127 has<br />broader term</div></div></div></foreignObject><text x="513" y="827" fill="light-dark(#000000, #ffffff)" font-family="&quot;Helvetica&quot;" font-size="11px" text-anchor="middle">P127 has...</text></switch></g></g><g><path d="M 101 785 L 61 785 Q 51 785 51 795 L 51 850.1 Q 51 860.1 61 860.1 L 171 860.1 Q 181 860.1 181 850.1 L 181 836.35" fill="none" stroke="#000000" stroke-miterlimit="10" stroke-dasharray="3 3" pointer-events="stroke" style="stroke: light-dark(rgb(0, 0, 0), rgb(255, 255, 255));"/><path d="M 181 831.1 L 184.5 838.1 L 181 836.35 L 177.5 838.1 Z" fill="#000000" stroke="#000000" stroke-miterlimit="10" pointer-events="all" style="fill: light-dark(rgb(0, 0, 0), rgb(255, 255, 255)); stroke: light-dark(rgb(0, 0, 0), rgb(255, 255, 255));"/></g><g><g transform="translate(-0.5 -0.5)"><switch><foreignObject style="overflow: visible; text-align: left;" pointer-events="none" width="100%" height="100%" requiredFeatures="http://www.w3.org/TR/SVG11/feature#Extensibility"><div xmlns="http://www.w3.org/1999/xhtml" style="display: flex; align-items: unsafe center; justify-content: unsafe center; width: 1px; height: 1px; padding-top: 824px; margin-left: 53px;"><div style="box-sizing: border-box; font-size: 0; text-align: center; color: #000000; background-color: #ffffff; "><div style="display: inline-block; font-size: 11px; font-family: &quot;Helvetica&quot;; color: light-dark(#000000, #ffffff); line-height: 1.2; pointer-events: all; background-color: light-dark(#ffffff, var(--ge-dark-color, #121212)); white-space: nowrap; ">P127 has<br />broader term</div></div></div></foreignObject><text x="53" y="827" fill="light-dark(#000000, #ffffff)" font-family="&quot;Helvetica&quot;" font-size="11px" text-anchor="middle">P127 has...</text></switch></g></g><g><path d="M 301 680 L 301 700 Q 301 710 311 710 L 371 710 Q 381 710 381 720 L 381 733.61" fill="none" stroke="#000000" stroke-miterlimit="10" stroke-dasharray="3 3" pointer-events="stroke" style="stroke: light-dark(rgb(0, 0, 0), rgb(255, 255, 255));"/><path d="M 381 738.86 L 377.5 731.86 L 381 733.61 L 384.5 731.86 Z" fill="#000000" stroke="#000000" stroke-miterlimit="10" pointer-events="all" style="fill: light-dark(rgb(0, 0, 0), rgb(255, 255, 255)); stroke: light-dark(rgb(0, 0, 0), rgb(255, 255, 255));"/></g><g><g transform="translate(-0.5 -0.5)"><switch><foreignObject style="overflow: visible; text-align: left;" pointer-events="none" width="100%" height="100%" requiredFeatures="http://www.w3.org/TR/SVG11/feature#Extensibility"><div xmlns="http://www.w3.org/1999/xhtml" style="display: flex; align-items: unsafe center; justify-content: unsafe center; width: 1px; height: 1px; padding-top: 711px; margin-left: 342px;"><div style="box-sizing: border-box; font-size: 0; text-align: center; color: #000000; background-color: #ffffff; "><div style="display: inline-block; font-size: 11px; font-family: &quot;Helvetica&quot;; color: light-dark(#000000, #ffffff); line-height: 1.2; pointer-events: all; background-color: light-dark(#ffffff, var(--ge-dark-color, #121212)); white-space: nowrap; ">P2 has type<br />[confidence]<br /><font color="#99004d" style="color: light-dark(rgb(153, 0, 77), rgb(153, 0, 77));">[weight]</font></div></div></div></foreignObject><text x="342" y="714" fill="light-dark(#000000, #ffffff)" font-family="&quot;Helvetica&quot;" font-size="11px" text-anchor="middle">P2 has type...</text></switch></g></g><g><path d="M 261 680 L 261 700 Q 261 710 251 710 L 191 710 Q 181 710 181 720 L 181 733.61" fill="none" stroke="#000000" stroke-miterlimit="10" stroke-dasharray="3 3" pointer-events="stroke" style="stroke: light-dark(rgb(0, 0, 0), rgb(255, 255, 255));"/><path d="M 181 738.86 L 177.5 731.86 L 181 733.61 L 184.5 731.86 Z" fill="#000000" stroke="#000000" stroke-miterlimit="10" pointer-events="all" style="fill: light-dark(rgb(0, 0, 0), rgb(255, 255, 255)); stroke: light-dark(rgb(0, 0, 0), rgb(255, 255, 255));"/></g><g><g transform="translate(-0.5 -0.5)"><switch><foreignObject style="overflow: visible; text-align: left;" pointer-events="none" width="100%" height="100%" requiredFeatures="http://www.w3.org/TR/SVG11/feature#Extensibility"><div xmlns="http://www.w3.org/1999/xhtml" style="display: flex; align-items: unsafe center; justify-content: unsafe center; width: 1px; height: 1px; padding-top: 711px; margin-left: 222px;"><div style="box-sizing: border-box; font-size: 0; text-align: center; color: #000000; background-color: #ffffff; "><div style="display: inline-block; font-size: 11px; font-family: &quot;Helvetica&quot;; color: light-dark(#000000, #ffffff); line-height: 1.2; pointer-events: all; background-color: light-dark(#ffffff, var(--ge-dark-color, #121212)); white-space: nowrap; ">P2 has type<br />[confidence]<br /><font color="#99004d" style="color: light-dark(rgb(153, 0, 77), rgb(153, 0, 77));">[weight]</font></div></div></div></foreignObject><text x="222" y="714" fill="light-dark(#000000, #ffffff)" font-family="&quot;Helvetica&quot;" font-size="11px" text-anchor="middle">P2 has type...</text></switch></g></g><g><path d="M 341.01 829.98 L 341 850 Q 341 860 331 860 L 231 860 Q 221 860 221 850 L 221 836.35" fill="none" stroke="#000000" stroke-miterlimit="10" stroke-dasharray="3 3" pointer-events="stroke" style="stroke: light-dark(rgb(0, 0, 0), rgb(255, 255, 255));"/><path d="M 221 831.1 L 224.5 838.1 L 221 836.35 L 217.5 838.1 Z" fill="#000000" stroke="#000000" stroke-miterlimit="10" pointer-events="all" style="fill: light-dark(rgb(0, 0, 0), rgb(255, 255, 255)); stroke: light-dark(rgb(0, 0, 0), rgb(255, 255, 255));"/></g><g><g transform="translate(-0.5 -0.5)"><switch><foreignObject style="overflow: visible; text-align: left;" pointer-events="none" width="100%" height="100%" requiredFeatures="http://www.w3.org/TR/SVG11/feature#Extensibility"><div xmlns="http://www.w3.org/1999/xhtml" style="display: flex; align-items: unsafe center; justify-content: unsafe center; width: 1px; height: 1px; padding-top: 861px; margin-left: 282px;"><div style="box-sizing: border-box; font-size: 0; text-align: center; color: #000000; background-color: #ffffff; "><div style="display: inline-block; font-size: 11px; font-family: &quot;Helvetica&quot;; color: light-dark(#000000, #ffffff); line-height: 1.2; pointer-events: all; background-color: light-dark(#ffffff, var(--ge-dark-color, #121212)); white-space: nowrap; ">refers to aat</div></div></div></foreignObject><text x="282" y="864" fill="light-dark(#000000, #ffffff)" font-family="&quot;Helvetica&quot;" font-size="11px" text-anchor="middle">refers to aat</text></switch></g></g><g><path d="M 467.38 762.48 L 501 762.5 Q 511 762.5 511 752.5 L 511 720 Q 511 710 501 710 L 431 710 Q 421 710 421 720 L 421.01 739.98" fill="none" stroke="#99004d" stroke-miterlimit="10" stroke-dasharray="3 3" pointer-events="stroke" style="stroke: light-dark(rgb(153, 0, 77), rgb(153, 0, 77));"/><path d="M 462.13 762.48 L 469.13 758.98 L 467.38 762.48 L 469.13 765.98 Z" fill="#99004d" stroke="#99004d" stroke-miterlimit="10" pointer-events="all" style="fill: light-dark(rgb(153, 0, 77), rgb(153, 0, 77)); stroke: light-dark(rgb(153, 0, 77), rgb(153, 0, 77));"/></g><g><g transform="translate(-0.5 -0.5)"><switch><foreignObject style="overflow: visible; text-align: left;" pointer-events="none" width="100%" height="100%" requiredFeatures="http://www.w3.org/TR/SVG11/feature#Extensibility"><div xmlns="http://www.w3.org/1999/xhtml" style="display: flex; align-items: unsafe center; justify-content: unsafe center; width: 1px; height: 1px; padding-top: 711px; margin-left: 472px;"><div style="box-sizing: border-box; font-size: 0; text-align: center; color: #99004D; background-color: #ffffff; "><div style="display: inline-block; font-size: 11px; font-family: &quot;Helvetica&quot;; color: light-dark(#99004D, #99004D); line-height: 1.2; pointer-events: all; background-color: light-dark(#ffffff, var(--ge-dark-color, #121212)); white-space: nowrap; ">is similar<br />[weight]</div></div></div></foreignObject><text x="472" y="714" fill="#99004D" font-family="&quot;Helvetica&quot;" font-size="11px" text-anchor="middle">is similar...</text></switch></g></g><g><path d="M 94.63 762.49 L 92.82 762.5 Q 91 762.5 81 762.62 L 61 762.88 Q 51 763 51 753 L 51 720 Q 51 710 61 710 L 131 710 Q 141 710 141 720 L 141 739.98" fill="none" stroke="#99004d" stroke-miterlimit="10" stroke-dasharray="3 3" pointer-events="stroke" style="stroke: light-dark(rgb(153, 0, 77), rgb(153, 0, 77));"/><path d="M 99.88 762.48 L 92.89 766 L 94.63 762.49 L 92.88 759 Z" fill="#99004d" stroke="#99004d" stroke-miterlimit="10" pointer-events="all" style="fill: light-dark(rgb(153, 0, 77), rgb(153, 0, 77)); stroke: light-dark(rgb(153, 0, 77), rgb(153, 0, 77));"/></g><g><g transform="translate(-0.5 -0.5)"><switch><foreignObject style="overflow: visible; text-align: left;" pointer-events="none" width="100%" height="100%" requiredFeatures="http://www.w3.org/TR/SVG11/feature#Extensibility"><div xmlns="http://www.w3.org/1999/xhtml" style="display: flex; align-items: unsafe center; justify-content: unsafe center; width: 1px; height: 1px; padding-top: 711px; margin-left: 90px;"><div style="box-sizing: border-box; font-size: 0; text-align: center; color: #99004D; background-color: #ffffff; "><div style="display: inline-block; font-size: 11px; font-family: &quot;Helvetica&quot;; color: light-dark(#99004D, #99004D); line-height: 1.2; pointer-events: all; background-color: light-dark(#ffffff, var(--ge-dark-color, #121212)); white-space: nowrap; ">is similar<br />[weight]</div></div></div></foreignObject><text x="90" y="714" fill="#99004D" font-family="&quot;Helvetica&quot;" font-size="11px" text-anchor="middle">is similar...</text></switch></g></g><g><path d="M 201 290 L 201 263.6 Q 201 260 197.4 260 L 44.6 260 Q 41 260 41 263.6 L 41 290" fill="#cccccc" stroke="#000000" stroke-miterlimit="10" pointer-events="all" style="fill: light-dark(rgb(204, 204, 204), rgb(204, 204, 204)); stroke: light-dark(rgb(0, 0, 0), rgb(255, 255, 255));"/><path d="M 41 290 L 41 316.4 Q 41 320 44.6 320 L 197.4 320 Q 201 320 201 316.4 L 201 290" fill="#ffffff" stroke="#000000" stroke-miterlimit="10" pointer-events="all" style="fill: light-dark(#ffffff, var(--ge-dark-color, #121212)); stroke: light-dark(rgb(0, 0, 0), rgb(255, 255, 255));"/><path d="M 41 290 L 201 290" fill="none" stroke="#000000" stroke-miterlimit="10" pointer-events="all" style="stroke: light-dark(rgb(0, 0, 0), rgb(255, 255, 255));"/></g><g><g transform="translate(-0.5 -0.5)"><switch><foreignObject style="overflow: visible; text-align: left;" pointer-events="none" width="100%" height="100%" requiredFeatures="http://www.w3.org/TR/SVG11/feature#Extensibility"><div xmlns="http://www.w3.org/1999/xhtml" style="display: flex; align-items: unsafe center; justify-content: unsafe center; width: 158px; height: 1px; padding-top: 275px; margin-left: 42px;"><div style="box-sizing: border-box; font-size: 0; text-align: center; color: #000000; "><div style="display: inline-block; font-size: 12px; font-family: &quot;Helvetica&quot;; color: light-dark(#000000, #000000); line-height: 1.2; pointer-events: all; font-weight: bold; white-space: normal; word-wrap: normal; ">User</div></div></div></foreignObject><text x="121" y="279" fill="#000000" font-family="&quot;Helvetica&quot;" font-size="12px" text-anchor="middle" font-weight="bold">User</text></switch></g></g><g><rect x="41" y="290" width="160" height="30" fill="none" stroke="none" pointer-events="all"/></g><g><g transform="translate(-0.5 -0.5)"><switch><foreignObject style="overflow: visible; text-align: left;" pointer-events="none" width="100%" height="100%" requiredFeatures="http://www.w3.org/TR/SVG11/feature#Extensibility"><div xmlns="http://www.w3.org/1999/xhtml" style="display: flex; align-items: unsafe flex-start; justify-content: unsafe center; width: 1px; height: 1px; padding-top: 297px; margin-left: 123px;"><div style="box-sizing: border-box; font-size: 0; text-align: center; color: #000000; "><div style="display: inline-block; font-size: 12px; font-family: &quot;Helvetica&quot;; color: light-dark(#000000, #ffffff); line-height: 1.2; pointer-events: all; white-space: nowrap; ">id</div></div></div></foreignObject><text x="123" y="309" fill="light-dark(#000000, #ffffff)" font-family="&quot;Helvetica&quot;" font-size="12px" text-anchor="middle">id</text></switch></g></g></g></svg>
