{
  "name": "dto-interfaces",
  "$schema": "../../node_modules/nx/schemas/project-schema.json",
  "sourceRoot": "libs/dto-interfaces/src",
  "projectType": "library",
  "targets": {
    "lint": {
      "executor": "@nrwl/linter:eslint",
      "outputs": ["{options.outputFile}"],
      "options": {
        "lintFilePatterns": ["libs/dto-interfaces/**/*.ts"]
      }
    }
  },
  "tags": []
}
