<mxfile host="Electron" agent="Mozilla/5.0 (X11; Linux x86_64) AppleWebKit/537.36 (KHTML, like Gecko) draw.io/26.0.9 Chrome/128.0.6613.186 Electron/32.2.5 Safari/537.36" version="26.0.9">
  <diagram name="Seite-1" id="OWoWVebOE3oBWS9_Dsgk">
    <mxGraphModel dx="2449" dy="1299" grid="1" gridSize="10" guides="1" tooltips="1" connect="1" arrows="1" fold="1" page="0" pageScale="1" pageWidth="1169" pageHeight="827" math="0" shadow="0">
      <root>
        <mxCell id="0" />
        <mxCell id="1" parent="0" />
        <mxCell id="RAKLjF86ejIlvez53UjO-114" value="Objects" style="rounded=0;whiteSpace=wrap;html=1;fillColor=#f0a30a;fontColor=#4D4D4D;strokeColor=#BD7000;opacity=20;strokeWidth=3;verticalAlign=top;labelBackgroundColor=none;labelBorderColor=none;align=center;" parent="1" vertex="1">
          <mxGeometry x="220" y="50" width="200" height="120" as="geometry" />
        </mxCell>
        <mxCell id="RAKLjF86ejIlvez53UjO-34" style="edgeStyle=orthogonalEdgeStyle;rounded=1;orthogonalLoop=1;jettySize=auto;html=1;startArrow=none;startFill=0;endArrow=classic;endFill=1;dashed=1;exitX=1;exitY=0.333;exitDx=0;exitDy=0;exitPerimeter=0;" parent="1" source="RAKLjF86ejIlvez53UjO-1" target="RAKLjF86ejIlvez53UjO-13" edge="1">
          <mxGeometry relative="1" as="geometry">
            <Array as="points">
              <mxPoint x="650" y="420" />
              <mxPoint x="650" y="420" />
            </Array>
          </mxGeometry>
        </mxCell>
        <mxCell id="RAKLjF86ejIlvez53UjO-37" value="P3 has note" style="edgeLabel;html=1;align=center;verticalAlign=middle;resizable=0;points=[];" parent="RAKLjF86ejIlvez53UjO-34" vertex="1" connectable="0">
          <mxGeometry relative="1" as="geometry">
            <mxPoint x="18" as="offset" />
          </mxGeometry>
        </mxCell>
        <mxCell id="RAKLjF86ejIlvez53UjO-50" style="edgeStyle=orthogonalEdgeStyle;rounded=0;orthogonalLoop=1;jettySize=auto;html=1;" parent="1" source="RAKLjF86ejIlvez53UjO-1" target="RAKLjF86ejIlvez53UjO-9" edge="1">
          <mxGeometry relative="1" as="geometry" />
        </mxCell>
        <mxCell id="RAKLjF86ejIlvez53UjO-51" value="P1 is identified by" style="edgeLabel;html=1;align=center;verticalAlign=middle;resizable=0;points=[];" parent="RAKLjF86ejIlvez53UjO-50" vertex="1" connectable="0">
          <mxGeometry relative="1" as="geometry">
            <mxPoint y="-38" as="offset" />
          </mxGeometry>
        </mxCell>
        <mxCell id="RAKLjF86ejIlvez53UjO-52" style="edgeStyle=orthogonalEdgeStyle;rounded=1;orthogonalLoop=1;jettySize=auto;html=1;exitX=0.625;exitY=-0.01;exitDx=0;exitDy=0;dashed=1;exitPerimeter=0;" parent="1" source="RAKLjF86ejIlvez53UjO-1" target="RAKLjF86ejIlvez53UjO-11" edge="1">
          <mxGeometry relative="1" as="geometry">
            <Array as="points">
              <mxPoint x="500" y="320" />
              <mxPoint x="800" y="320" />
            </Array>
          </mxGeometry>
        </mxCell>
        <mxCell id="RAKLjF86ejIlvez53UjO-53" value="has tag" style="edgeLabel;html=1;align=center;verticalAlign=middle;resizable=0;points=[];" parent="RAKLjF86ejIlvez53UjO-52" vertex="1" connectable="0">
          <mxGeometry relative="1" as="geometry">
            <mxPoint as="offset" />
          </mxGeometry>
        </mxCell>
        <mxCell id="RAKLjF86ejIlvez53UjO-56" style="edgeStyle=orthogonalEdgeStyle;orthogonalLoop=1;jettySize=auto;html=1;exitX=0.193;exitY=-0.016;exitDx=0;exitDy=0;rounded=1;exitPerimeter=0;" parent="1" source="RAKLjF86ejIlvez53UjO-1" target="RAKLjF86ejIlvez53UjO-72" edge="1">
          <mxGeometry relative="1" as="geometry">
            <Array as="points">
              <mxPoint x="431" y="350" />
              <mxPoint x="160" y="350" />
            </Array>
          </mxGeometry>
        </mxCell>
        <mxCell id="RAKLjF86ejIlvez53UjO-59" value="P48 has preferred identifier" style="edgeLabel;html=1;align=center;verticalAlign=middle;resizable=0;points=[];" parent="RAKLjF86ejIlvez53UjO-56" vertex="1" connectable="0">
          <mxGeometry relative="1" as="geometry">
            <mxPoint as="offset" />
          </mxGeometry>
        </mxCell>
        <mxCell id="RAKLjF86ejIlvez53UjO-57" style="edgeStyle=orthogonalEdgeStyle;rounded=1;orthogonalLoop=1;jettySize=auto;html=1;startArrow=classic;startFill=1;endArrow=none;endFill=0;exitX=0.109;exitY=-0.017;exitDx=0;exitDy=0;exitPerimeter=0;" parent="1" source="RAKLjF86ejIlvez53UjO-1" target="RAKLjF86ejIlvez53UjO-7" edge="1">
          <mxGeometry relative="1" as="geometry">
            <Array as="points">
              <mxPoint x="417" y="370" />
              <mxPoint y="370" />
              <mxPoint y="250" />
            </Array>
          </mxGeometry>
        </mxCell>
        <mxCell id="RAKLjF86ejIlvez53UjO-58" value="P67 refers to" style="edgeLabel;html=1;align=center;verticalAlign=middle;resizable=0;points=[];" parent="RAKLjF86ejIlvez53UjO-57" vertex="1" connectable="0">
          <mxGeometry relative="1" as="geometry">
            <mxPoint as="offset" />
          </mxGeometry>
        </mxCell>
        <mxCell id="RAKLjF86ejIlvez53UjO-86" style="edgeStyle=orthogonalEdgeStyle;rounded=1;orthogonalLoop=1;jettySize=auto;html=1;exitX=1;exitY=0.25;exitDx=0;exitDy=0;dashed=1;" parent="1" source="RAKLjF86ejIlvez53UjO-2" target="RAKLjF86ejIlvez53UjO-78" edge="1">
          <mxGeometry relative="1" as="geometry">
            <Array as="points">
              <mxPoint x="590" y="438" />
              <mxPoint x="590" y="495" />
            </Array>
          </mxGeometry>
        </mxCell>
        <mxCell id="RAKLjF86ejIlvez53UjO-89" value="P3 has note" style="edgeLabel;html=1;align=center;verticalAlign=middle;resizable=0;points=[];" parent="RAKLjF86ejIlvez53UjO-86" vertex="1" connectable="0">
          <mxGeometry relative="1" as="geometry">
            <mxPoint x="38" as="offset" />
          </mxGeometry>
        </mxCell>
        <mxCell id="RAKLjF86ejIlvez53UjO-97" style="edgeStyle=orthogonalEdgeStyle;rounded=0;orthogonalLoop=1;jettySize=auto;html=1;dashed=1;" parent="1" source="RAKLjF86ejIlvez53UjO-1" target="RAKLjF86ejIlvez53UjO-93" edge="1">
          <mxGeometry relative="1" as="geometry" />
        </mxCell>
        <mxCell id="RAKLjF86ejIlvez53UjO-98" value="P105 right held by" style="edgeLabel;html=1;align=center;verticalAlign=middle;resizable=0;points=[];" parent="RAKLjF86ejIlvez53UjO-97" vertex="1" connectable="0">
          <mxGeometry relative="1" as="geometry">
            <mxPoint as="offset" />
          </mxGeometry>
        </mxCell>
        <mxCell id="RAKLjF86ejIlvez53UjO-106" style="edgeStyle=orthogonalEdgeStyle;rounded=1;orthogonalLoop=1;jettySize=auto;html=1;exitX=0.896;exitY=-0.006;exitDx=0;exitDy=0;exitPerimeter=0;dashed=1;" parent="1" source="RAKLjF86ejIlvez53UjO-1" target="RAKLjF86ejIlvez53UjO-102" edge="1">
          <mxGeometry relative="1" as="geometry">
            <Array as="points">
              <mxPoint x="543" y="360" />
              <mxPoint x="960" y="360" />
              <mxPoint x="960" y="325" />
            </Array>
          </mxGeometry>
        </mxCell>
        <mxCell id="RAKLjF86ejIlvez53UjO-108" value="P2 has type" style="edgeLabel;html=1;align=center;verticalAlign=middle;resizable=0;points=[];" parent="RAKLjF86ejIlvez53UjO-106" vertex="1" connectable="0">
          <mxGeometry relative="1" as="geometry">
            <mxPoint x="9" as="offset" />
          </mxGeometry>
        </mxCell>
        <mxCell id="RAKLjF86ejIlvez53UjO-115" style="edgeStyle=orthogonalEdgeStyle;rounded=1;orthogonalLoop=1;jettySize=auto;html=1;exitX=0.312;exitY=0.026;exitDx=0;exitDy=0;dashed=1;exitPerimeter=0;" parent="1" source="RAKLjF86ejIlvez53UjO-1" target="RAKLjF86ejIlvez53UjO-117" edge="1">
          <mxGeometry relative="1" as="geometry">
            <Array as="points">
              <mxPoint x="450" y="330" />
              <mxPoint x="320" y="330" />
            </Array>
          </mxGeometry>
        </mxCell>
        <mxCell id="RAKLjF86ejIlvez53UjO-116" value="P138 represents&lt;br&gt;[coverageWeight]&lt;br&gt;[distanceWeight]&lt;br&gt;[weight]" style="edgeLabel;html=1;align=center;verticalAlign=middle;resizable=0;points=[];" parent="RAKLjF86ejIlvez53UjO-115" vertex="1" connectable="0">
          <mxGeometry relative="1" as="geometry">
            <mxPoint y="-90" as="offset" />
          </mxGeometry>
        </mxCell>
        <mxCell id="RAKLjF86ejIlvez53UjO-1" value="E38 Image" style="swimlane;childLayout=stackLayout;horizontal=1;startSize=30;horizontalStack=0;rounded=1;fontSize=12;fontStyle=1;strokeWidth=3;resizeParent=0;resizeLast=1;shadow=0;align=center;arcSize=4;whiteSpace=wrap;html=1;fillStyle=auto;swimlaneFillColor=none;fillColor=#CCCCCC;fontColor=#000000;" parent="1" vertex="1">
          <mxGeometry x="400" y="400" width="160" height="60" as="geometry">
            <mxRectangle x="470" y="160" width="90" height="30" as="alternateBounds" />
          </mxGeometry>
        </mxCell>
        <mxCell id="RAKLjF86ejIlvez53UjO-2" value="id" style="align=center;strokeColor=none;fillColor=none;spacingLeft=4;fontSize=12;verticalAlign=top;resizable=0;rotatable=0;part=1;html=1;" parent="RAKLjF86ejIlvez53UjO-1" vertex="1">
          <mxGeometry y="30" width="160" height="30" as="geometry" />
        </mxCell>
        <mxCell id="RAKLjF86ejIlvez53UjO-7" value="D9 Digital Object" style="swimlane;childLayout=stackLayout;horizontal=1;startSize=30;horizontalStack=0;rounded=1;fontSize=12;fontStyle=1;strokeWidth=1;resizeParent=0;resizeLast=1;shadow=0;align=center;arcSize=4;whiteSpace=wrap;html=1;fillStyle=auto;swimlaneFillColor=none;fillColor=#CCCCCC;fontColor=#000000;" parent="1" vertex="1">
          <mxGeometry x="-240" y="155" width="160" height="190" as="geometry">
            <mxRectangle x="470" y="160" width="90" height="30" as="alternateBounds" />
          </mxGeometry>
        </mxCell>
        <mxCell id="RAKLjF86ejIlvez53UjO-8" value="id&lt;br&gt;&lt;div style=&quot;&quot;&gt;&lt;span style=&quot;background-color: initial;&quot;&gt;path&lt;/span&gt;&lt;/div&gt;&lt;div style=&quot;&quot;&gt;&lt;span style=&quot;background-color: initial;&quot;&gt;original&lt;/span&gt;&lt;/div&gt;&lt;div style=&quot;&quot;&gt;&lt;span style=&quot;background-color: initial;&quot;&gt;preview&lt;/span&gt;&lt;/div&gt;&lt;div style=&quot;&quot;&gt;&lt;span style=&quot;background-color: initial;&quot;&gt;thumb&lt;/span&gt;&lt;/div&gt;&lt;div style=&quot;&quot;&gt;&lt;span style=&quot;background-color: initial;&quot;&gt;tiny&lt;/span&gt;&lt;/div&gt;&lt;div style=&quot;&quot;&gt;&lt;span style=&quot;background-color: initial;&quot;&gt;texture&lt;/span&gt;&lt;/div&gt;&lt;div style=&quot;&quot;&gt;&lt;span style=&quot;background-color: initial;&quot;&gt;type&lt;/span&gt;&lt;/div&gt;&lt;div style=&quot;&quot;&gt;&lt;span style=&quot;background-color: initial;&quot;&gt;width&lt;/span&gt;&lt;/div&gt;&lt;div style=&quot;&quot;&gt;&lt;span style=&quot;background-color: initial;&quot;&gt;height&lt;/span&gt;&lt;/div&gt;" style="align=center;strokeColor=none;fillColor=none;spacingLeft=4;fontSize=12;verticalAlign=top;resizable=0;rotatable=0;part=1;html=1;" parent="RAKLjF86ejIlvez53UjO-7" vertex="1">
          <mxGeometry y="30" width="160" height="160" as="geometry" />
        </mxCell>
        <mxCell id="RAKLjF86ejIlvez53UjO-9" value="E35 Title" style="swimlane;childLayout=stackLayout;horizontal=1;startSize=30;horizontalStack=0;rounded=1;fontSize=12;fontStyle=1;strokeWidth=1;resizeParent=0;resizeLast=1;shadow=0;align=center;arcSize=4;whiteSpace=wrap;html=1;fillStyle=auto;swimlaneFillColor=none;fillColor=#CCCCCC;fontColor=#000000;" parent="1" vertex="1">
          <mxGeometry x="400" y="200" width="160" height="70" as="geometry">
            <mxRectangle x="470" y="160" width="90" height="30" as="alternateBounds" />
          </mxGeometry>
        </mxCell>
        <mxCell id="RAKLjF86ejIlvez53UjO-10" value="id&lt;br&gt;&lt;div style=&quot;&quot;&gt;&lt;span style=&quot;background-color: initial;&quot;&gt;value&lt;/span&gt;&lt;/div&gt;" style="align=center;strokeColor=none;fillColor=none;spacingLeft=4;fontSize=12;verticalAlign=top;resizable=0;rotatable=0;part=1;html=1;" parent="RAKLjF86ejIlvez53UjO-9" vertex="1">
          <mxGeometry y="30" width="160" height="40" as="geometry" />
        </mxCell>
        <mxCell id="RAKLjF86ejIlvez53UjO-11" value="TAG" style="swimlane;childLayout=stackLayout;horizontal=1;startSize=30;horizontalStack=0;rounded=1;fontSize=12;fontStyle=1;strokeWidth=1;resizeParent=0;resizeLast=1;shadow=0;align=center;arcSize=4;whiteSpace=wrap;html=1;fillStyle=auto;swimlaneFillColor=none;fillColor=#CCCCCC;fontColor=#000000;" parent="1" vertex="1">
          <mxGeometry x="720" y="200" width="160" height="60" as="geometry">
            <mxRectangle x="470" y="160" width="90" height="30" as="alternateBounds" />
          </mxGeometry>
        </mxCell>
        <mxCell id="RAKLjF86ejIlvez53UjO-12" value="id" style="align=center;strokeColor=none;fillColor=none;spacingLeft=4;fontSize=12;verticalAlign=top;resizable=0;rotatable=0;part=1;html=1;" parent="RAKLjF86ejIlvez53UjO-11" vertex="1">
          <mxGeometry y="30" width="160" height="30" as="geometry" />
        </mxCell>
        <mxCell id="RAKLjF86ejIlvez53UjO-84" style="edgeStyle=orthogonalEdgeStyle;rounded=0;orthogonalLoop=1;jettySize=auto;html=1;" parent="1" source="RAKLjF86ejIlvez53UjO-13" target="RAKLjF86ejIlvez53UjO-80" edge="1">
          <mxGeometry relative="1" as="geometry" />
        </mxCell>
        <mxCell id="RAKLjF86ejIlvez53UjO-88" value="P3.1 has type" style="edgeLabel;html=1;align=center;verticalAlign=middle;resizable=0;points=[];" parent="RAKLjF86ejIlvez53UjO-84" vertex="1" connectable="0">
          <mxGeometry relative="1" as="geometry">
            <mxPoint as="offset" />
          </mxGeometry>
        </mxCell>
        <mxCell id="RAKLjF86ejIlvez53UjO-13" value="E62 String" style="swimlane;childLayout=stackLayout;horizontal=1;startSize=30;horizontalStack=0;rounded=1;fontSize=12;fontStyle=1;strokeWidth=1;resizeParent=0;resizeLast=1;shadow=0;align=center;arcSize=4;whiteSpace=wrap;html=1;fillStyle=auto;swimlaneFillColor=none;fillColor=#CCCCCC;fontColor=#000000;" parent="1" vertex="1">
          <mxGeometry x="720" y="380" width="160" height="70" as="geometry">
            <mxRectangle x="470" y="160" width="90" height="30" as="alternateBounds" />
          </mxGeometry>
        </mxCell>
        <mxCell id="RAKLjF86ejIlvez53UjO-14" value="id&lt;br&gt;value" style="align=center;strokeColor=none;fillColor=none;spacingLeft=4;fontSize=12;verticalAlign=top;resizable=0;rotatable=0;part=1;html=1;" parent="RAKLjF86ejIlvez53UjO-13" vertex="1">
          <mxGeometry y="30" width="160" height="40" as="geometry" />
        </mxCell>
        <mxCell id="RAKLjF86ejIlvez53UjO-15" value="E52 Time-Span" style="swimlane;childLayout=stackLayout;horizontal=1;startSize=30;horizontalStack=0;rounded=1;fontSize=12;fontStyle=1;strokeWidth=1;resizeParent=0;resizeLast=1;shadow=0;align=center;arcSize=4;whiteSpace=wrap;html=1;fillStyle=auto;swimlaneFillColor=none;fillColor=#CCCCCC;fontColor=#000000;" parent="1" vertex="1">
          <mxGeometry x="720" y="667.5" width="160" height="60" as="geometry">
            <mxRectangle x="470" y="160" width="90" height="30" as="alternateBounds" />
          </mxGeometry>
        </mxCell>
        <mxCell id="RAKLjF86ejIlvez53UjO-16" value="id" style="align=center;strokeColor=none;fillColor=none;spacingLeft=4;fontSize=12;verticalAlign=top;resizable=0;rotatable=0;part=1;html=1;" parent="RAKLjF86ejIlvez53UjO-15" vertex="1">
          <mxGeometry y="30" width="160" height="30" as="geometry" />
        </mxCell>
        <mxCell id="RAKLjF86ejIlvez53UjO-43" style="edgeStyle=orthogonalEdgeStyle;rounded=0;orthogonalLoop=1;jettySize=auto;html=1;entryX=0.5;entryY=0;entryDx=0;entryDy=0;" parent="1" source="RAKLjF86ejIlvez53UjO-17" target="RAKLjF86ejIlvez53UjO-19" edge="1">
          <mxGeometry relative="1" as="geometry" />
        </mxCell>
        <mxCell id="RAKLjF86ejIlvez53UjO-44" value="P168 place is&lt;br&gt;defined by" style="edgeLabel;html=1;align=center;verticalAlign=middle;resizable=0;points=[];" parent="RAKLjF86ejIlvez53UjO-43" vertex="1" connectable="0">
          <mxGeometry relative="1" as="geometry">
            <mxPoint as="offset" />
          </mxGeometry>
        </mxCell>
        <mxCell id="RAKLjF86ejIlvez53UjO-17" value="E53 Place" style="swimlane;childLayout=stackLayout;horizontal=1;startSize=30;horizontalStack=0;rounded=1;fontSize=12;fontStyle=1;strokeWidth=1;resizeParent=0;resizeLast=1;shadow=0;align=center;arcSize=4;whiteSpace=wrap;html=1;fillStyle=auto;swimlaneFillColor=none;fillColor=#CCCCCC;fontColor=#000000;" parent="1" vertex="1">
          <mxGeometry x="400" y="760" width="160" height="60" as="geometry">
            <mxRectangle x="470" y="160" width="90" height="30" as="alternateBounds" />
          </mxGeometry>
        </mxCell>
        <mxCell id="RAKLjF86ejIlvez53UjO-18" value="id" style="align=center;strokeColor=none;fillColor=none;spacingLeft=4;fontSize=12;verticalAlign=top;resizable=0;rotatable=0;part=1;html=1;" parent="RAKLjF86ejIlvez53UjO-17" vertex="1">
          <mxGeometry y="30" width="160" height="30" as="geometry" />
        </mxCell>
        <mxCell id="RAKLjF86ejIlvez53UjO-19" value="E94 Space Primitive" style="swimlane;childLayout=stackLayout;horizontal=1;startSize=30;horizontalStack=0;rounded=1;fontSize=12;fontStyle=1;strokeWidth=1;resizeParent=0;resizeLast=1;shadow=0;align=center;arcSize=4;whiteSpace=wrap;html=1;fillStyle=auto;swimlaneFillColor=default;fillColor=#CCCCCC;fontColor=#000000;" parent="1" vertex="1">
          <mxGeometry x="400" y="910" width="160" height="140" as="geometry">
            <mxRectangle x="470" y="160" width="90" height="30" as="alternateBounds" />
          </mxGeometry>
        </mxCell>
        <mxCell id="RAKLjF86ejIlvez53UjO-20" value="id&lt;br&gt;latitude&lt;br&gt;longitude&lt;br&gt;altitude&lt;br&gt;point&lt;br&gt;radius?&lt;br&gt;status" style="align=center;strokeColor=none;fillColor=none;spacingLeft=4;fontSize=12;verticalAlign=top;resizable=0;rotatable=0;part=1;html=1;" parent="RAKLjF86ejIlvez53UjO-19" vertex="1">
          <mxGeometry y="30" width="160" height="110" as="geometry" />
        </mxCell>
        <mxCell id="RAKLjF86ejIlvez53UjO-24" value="E61 Time Primitive" style="swimlane;childLayout=stackLayout;horizontal=1;startSize=30;horizontalStack=0;rounded=1;fontSize=12;fontStyle=1;strokeWidth=1;resizeParent=0;resizeLast=1;shadow=0;align=center;arcSize=4;whiteSpace=wrap;html=1;fillStyle=auto;swimlaneFillColor=none;fillColor=#CCCCCC;fontColor=#000000;" parent="1" vertex="1">
          <mxGeometry x="1040" y="640" width="160" height="115" as="geometry">
            <mxRectangle x="470" y="160" width="90" height="30" as="alternateBounds" />
          </mxGeometry>
        </mxCell>
        <mxCell id="RAKLjF86ejIlvez53UjO-25" value="id&lt;br&gt;&lt;div style=&quot;&quot;&gt;&lt;span style=&quot;background-color: initial;&quot;&gt;value&lt;br&gt;&lt;/span&gt;&lt;/div&gt;&lt;div style=&quot;&quot;&gt;&lt;span style=&quot;background-color: initial;&quot;&gt;from&lt;/span&gt;&lt;/div&gt;&lt;div style=&quot;&quot;&gt;&lt;span style=&quot;background-color: initial;&quot;&gt;to&lt;/span&gt;&lt;/div&gt;&lt;div style=&quot;&quot;&gt;&lt;span style=&quot;background-color: initial;&quot;&gt;display&lt;/span&gt;&lt;/div&gt;" style="align=center;strokeColor=none;fillColor=none;spacingLeft=4;fontSize=12;verticalAlign=top;resizable=0;rotatable=0;part=1;html=1;" parent="RAKLjF86ejIlvez53UjO-24" vertex="1">
          <mxGeometry y="30" width="160" height="85" as="geometry" />
        </mxCell>
        <mxCell id="RAKLjF86ejIlvez53UjO-26" value="E21 Person" style="swimlane;childLayout=stackLayout;horizontal=1;startSize=30;horizontalStack=0;rounded=1;fontSize=12;fontStyle=1;strokeWidth=1;resizeParent=0;resizeLast=1;shadow=0;align=center;arcSize=4;whiteSpace=wrap;html=1;fillStyle=auto;swimlaneFillColor=none;fillColor=#CCCCCC;fontColor=#000000;" parent="1" vertex="1">
          <mxGeometry x="720" y="560" width="160" height="60" as="geometry">
            <mxRectangle x="470" y="160" width="90" height="30" as="alternateBounds" />
          </mxGeometry>
        </mxCell>
        <mxCell id="RAKLjF86ejIlvez53UjO-27" value="id" style="align=center;strokeColor=none;fillColor=none;spacingLeft=4;fontSize=12;verticalAlign=top;resizable=0;rotatable=0;part=1;html=1;" parent="RAKLjF86ejIlvez53UjO-26" vertex="1">
          <mxGeometry y="30" width="160" height="30" as="geometry" />
        </mxCell>
        <mxCell id="RAKLjF86ejIlvez53UjO-28" style="edgeStyle=orthogonalEdgeStyle;rounded=1;orthogonalLoop=1;jettySize=auto;html=1;exitX=1;exitY=0.5;exitDx=0;exitDy=0;dashed=1;" parent="1" source="RAKLjF86ejIlvez53UjO-71" target="RAKLjF86ejIlvez53UjO-15" edge="1">
          <mxGeometry relative="1" as="geometry">
            <Array as="points">
              <mxPoint x="590" y="605" />
              <mxPoint x="590" y="698" />
            </Array>
          </mxGeometry>
        </mxCell>
        <mxCell id="RAKLjF86ejIlvez53UjO-29" value="P4 has time-span" style="edgeLabel;html=1;align=center;verticalAlign=middle;resizable=0;points=[];" parent="RAKLjF86ejIlvez53UjO-28" vertex="1" connectable="0">
          <mxGeometry relative="1" as="geometry">
            <mxPoint x="57" y="-1" as="offset" />
          </mxGeometry>
        </mxCell>
        <mxCell id="RAKLjF86ejIlvez53UjO-30" style="edgeStyle=orthogonalEdgeStyle;rounded=1;orthogonalLoop=1;jettySize=auto;html=1;entryX=0;entryY=0;entryDx=0;entryDy=0;dashed=1;" parent="1" source="RAKLjF86ejIlvez53UjO-70" target="RAKLjF86ejIlvez53UjO-27" edge="1">
          <mxGeometry relative="1" as="geometry">
            <mxPoint x="890" y="440" as="sourcePoint" />
            <mxPoint x="1050" y="440" as="targetPoint" />
            <Array as="points">
              <mxPoint x="680" y="590" />
              <mxPoint x="680" y="590" />
            </Array>
          </mxGeometry>
        </mxCell>
        <mxCell id="RAKLjF86ejIlvez53UjO-31" value="P14 carried out by" style="edgeLabel;html=1;align=center;verticalAlign=middle;resizable=0;points=[];" parent="RAKLjF86ejIlvez53UjO-30" vertex="1" connectable="0">
          <mxGeometry relative="1" as="geometry">
            <mxPoint as="offset" />
          </mxGeometry>
        </mxCell>
        <mxCell id="RAKLjF86ejIlvez53UjO-32" style="edgeStyle=orthogonalEdgeStyle;rounded=0;orthogonalLoop=1;jettySize=auto;html=1;" parent="1" source="RAKLjF86ejIlvez53UjO-15" target="RAKLjF86ejIlvez53UjO-24" edge="1">
          <mxGeometry relative="1" as="geometry">
            <mxPoint x="900" y="450" as="sourcePoint" />
            <mxPoint x="1060" y="450" as="targetPoint" />
          </mxGeometry>
        </mxCell>
        <mxCell id="RAKLjF86ejIlvez53UjO-33" value="P82 at some&lt;br&gt;time within" style="edgeLabel;html=1;align=center;verticalAlign=middle;resizable=0;points=[];" parent="RAKLjF86ejIlvez53UjO-32" vertex="1" connectable="0">
          <mxGeometry x="0.2" y="-1" relative="1" as="geometry">
            <mxPoint x="-12" y="-1" as="offset" />
          </mxGeometry>
        </mxCell>
        <mxCell id="RAKLjF86ejIlvez53UjO-38" value="E82 Actor Appellation" style="swimlane;childLayout=stackLayout;horizontal=1;startSize=30;horizontalStack=0;rounded=1;fontSize=12;fontStyle=1;strokeWidth=1;resizeParent=0;resizeLast=1;shadow=0;align=center;arcSize=4;whiteSpace=wrap;html=1;fillStyle=auto;swimlaneFillColor=none;fillColor=#CCCCCC;fontColor=#000000;" parent="1" vertex="1">
          <mxGeometry x="1040" y="555" width="160" height="70" as="geometry">
            <mxRectangle x="470" y="160" width="90" height="30" as="alternateBounds" />
          </mxGeometry>
        </mxCell>
        <mxCell id="RAKLjF86ejIlvez53UjO-39" value="id&lt;br&gt;&lt;div style=&quot;&quot;&gt;&lt;span style=&quot;background-color: initial;&quot;&gt;value&lt;br&gt;&lt;/span&gt;&lt;/div&gt;" style="align=center;strokeColor=none;fillColor=none;spacingLeft=4;fontSize=12;verticalAlign=top;resizable=0;rotatable=0;part=1;html=1;" parent="RAKLjF86ejIlvez53UjO-38" vertex="1">
          <mxGeometry y="30" width="160" height="40" as="geometry" />
        </mxCell>
        <mxCell id="RAKLjF86ejIlvez53UjO-40" style="edgeStyle=orthogonalEdgeStyle;rounded=0;orthogonalLoop=1;jettySize=auto;html=1;" parent="1" source="RAKLjF86ejIlvez53UjO-26" target="RAKLjF86ejIlvez53UjO-38" edge="1">
          <mxGeometry relative="1" as="geometry">
            <mxPoint x="1210" y="440" as="sourcePoint" />
            <mxPoint x="1370" y="440" as="targetPoint" />
          </mxGeometry>
        </mxCell>
        <mxCell id="RAKLjF86ejIlvez53UjO-41" value="P131 is identify by" style="edgeLabel;html=1;align=center;verticalAlign=middle;resizable=0;points=[];" parent="RAKLjF86ejIlvez53UjO-40" vertex="1" connectable="0">
          <mxGeometry x="0.2" y="-1" relative="1" as="geometry">
            <mxPoint x="-12" y="-1" as="offset" />
          </mxGeometry>
        </mxCell>
        <mxCell id="RAKLjF86ejIlvez53UjO-54" value="E82 Actor Appellation" style="swimlane;childLayout=stackLayout;horizontal=1;startSize=30;horizontalStack=0;rounded=1;fontSize=12;fontStyle=1;strokeWidth=1;resizeParent=0;resizeLast=1;shadow=0;align=center;arcSize=4;whiteSpace=wrap;html=1;fillStyle=auto;swimlaneFillColor=none;fillColor=#CCCCCC;fontColor=#000000;" parent="1" vertex="1">
          <mxGeometry x="-240" y="395" width="160" height="70" as="geometry">
            <mxRectangle x="470" y="160" width="90" height="30" as="alternateBounds" />
          </mxGeometry>
        </mxCell>
        <mxCell id="RAKLjF86ejIlvez53UjO-55" value="id&lt;br&gt;&lt;div style=&quot;&quot;&gt;&lt;span style=&quot;background-color: initial;&quot;&gt;value&lt;/span&gt;&lt;/div&gt;" style="align=center;strokeColor=none;fillColor=none;spacingLeft=4;fontSize=12;verticalAlign=top;resizable=0;rotatable=0;part=1;html=1;" parent="RAKLjF86ejIlvez53UjO-54" vertex="1">
          <mxGeometry y="30" width="160" height="40" as="geometry" />
        </mxCell>
        <mxCell id="RAKLjF86ejIlvez53UjO-74" style="edgeStyle=orthogonalEdgeStyle;rounded=0;orthogonalLoop=1;jettySize=auto;html=1;" parent="1" source="RAKLjF86ejIlvez53UjO-70" target="RAKLjF86ejIlvez53UjO-17" edge="1">
          <mxGeometry relative="1" as="geometry" />
        </mxCell>
        <mxCell id="RAKLjF86ejIlvez53UjO-75" value="P7 took place at" style="edgeLabel;html=1;align=center;verticalAlign=middle;resizable=0;points=[];" parent="RAKLjF86ejIlvez53UjO-74" vertex="1" connectable="0">
          <mxGeometry relative="1" as="geometry">
            <mxPoint y="20" as="offset" />
          </mxGeometry>
        </mxCell>
        <mxCell id="RAKLjF86ejIlvez53UjO-91" style="edgeStyle=orthogonalEdgeStyle;rounded=0;orthogonalLoop=1;jettySize=auto;html=1;" parent="1" source="RAKLjF86ejIlvez53UjO-70" target="RAKLjF86ejIlvez53UjO-1" edge="1">
          <mxGeometry relative="1" as="geometry" />
        </mxCell>
        <mxCell id="RAKLjF86ejIlvez53UjO-92" value="P94 has created" style="edgeLabel;html=1;align=center;verticalAlign=middle;resizable=0;points=[];" parent="RAKLjF86ejIlvez53UjO-91" vertex="1" connectable="0">
          <mxGeometry relative="1" as="geometry">
            <mxPoint as="offset" />
          </mxGeometry>
        </mxCell>
        <mxCell id="RAKLjF86ejIlvez53UjO-99" style="edgeStyle=orthogonalEdgeStyle;rounded=1;orthogonalLoop=1;jettySize=auto;html=1;" parent="1" source="RAKLjF86ejIlvez53UjO-70" target="RAKLjF86ejIlvez53UjO-76" edge="1">
          <mxGeometry relative="1" as="geometry">
            <Array as="points">
              <mxPoint x="300" y="590" />
              <mxPoint x="300" y="590" />
            </Array>
            <mxPoint x="310" y="570" as="targetPoint" />
          </mxGeometry>
        </mxCell>
        <mxCell id="RAKLjF86ejIlvez53UjO-109" value="P16 used&lt;br&gt;specific object" style="edgeLabel;html=1;align=center;verticalAlign=middle;resizable=0;points=[];" parent="RAKLjF86ejIlvez53UjO-99" vertex="1" connectable="0">
          <mxGeometry relative="1" as="geometry">
            <mxPoint as="offset" />
          </mxGeometry>
        </mxCell>
        <mxCell id="RAKLjF86ejIlvez53UjO-70" value="E65 Creation" style="swimlane;childLayout=stackLayout;horizontal=1;startSize=30;horizontalStack=0;rounded=1;fontSize=12;fontStyle=1;strokeWidth=1;resizeParent=0;resizeLast=1;shadow=0;align=center;arcSize=4;whiteSpace=wrap;html=1;fillStyle=auto;swimlaneFillColor=none;fillColor=#CCCCCC;fontColor=#000000;" parent="1" vertex="1">
          <mxGeometry x="400" y="560" width="160" height="60" as="geometry">
            <mxRectangle x="470" y="160" width="90" height="30" as="alternateBounds" />
          </mxGeometry>
        </mxCell>
        <mxCell id="RAKLjF86ejIlvez53UjO-71" value="id" style="align=center;strokeColor=none;fillColor=none;spacingLeft=4;fontSize=12;verticalAlign=top;resizable=0;rotatable=0;part=1;html=1;" parent="RAKLjF86ejIlvez53UjO-70" vertex="1">
          <mxGeometry y="30" width="160" height="30" as="geometry" />
        </mxCell>
        <mxCell id="RAKLjF86ejIlvez53UjO-72" value="E42 Identifier" style="swimlane;childLayout=stackLayout;horizontal=1;startSize=30;horizontalStack=0;rounded=1;fontSize=12;fontStyle=1;strokeWidth=1;resizeParent=0;resizeLast=1;shadow=0;align=center;arcSize=4;whiteSpace=wrap;html=1;fillStyle=auto;swimlaneFillColor=none;fillColor=#CCCCCC;fontColor=#000000;" parent="1" vertex="1">
          <mxGeometry x="80" y="200" width="160" height="100" as="geometry">
            <mxRectangle x="470" y="160" width="90" height="30" as="alternateBounds" />
          </mxGeometry>
        </mxCell>
        <mxCell id="RAKLjF86ejIlvez53UjO-73" value="id&lt;br&gt;&lt;div style=&quot;&quot;&gt;&lt;span style=&quot;background-color: initial;&quot;&gt;slub_id?&lt;/span&gt;&lt;/div&gt;&lt;div style=&quot;&quot;&gt;&lt;span style=&quot;background-color: initial;&quot;&gt;slub_cap_no?&lt;/span&gt;&lt;/div&gt;&lt;div style=&quot;&quot;&gt;&lt;span style=&quot;background-color: initial;&quot;&gt;permalink?&lt;/span&gt;&lt;/div&gt;" style="align=center;strokeColor=none;fillColor=none;spacingLeft=4;fontSize=12;verticalAlign=top;resizable=0;rotatable=0;part=1;html=1;" parent="RAKLjF86ejIlvez53UjO-72" vertex="1">
          <mxGeometry y="30" width="160" height="70" as="geometry" />
        </mxCell>
        <mxCell id="RAKLjF86ejIlvez53UjO-76" value="E22 Human-Made Object" style="swimlane;childLayout=stackLayout;horizontal=1;startSize=30;horizontalStack=0;rounded=1;fontSize=12;fontStyle=1;strokeWidth=1;resizeParent=0;resizeLast=1;shadow=0;align=center;arcSize=4;whiteSpace=wrap;html=1;fillStyle=auto;swimlaneFillColor=default;fillColor=#CCCCCC;fontColor=#000000;" parent="1" vertex="1">
          <mxGeometry x="80" y="510" width="160" height="160" as="geometry">
            <mxRectangle x="470" y="160" width="90" height="30" as="alternateBounds" />
          </mxGeometry>
        </mxCell>
        <mxCell id="RAKLjF86ejIlvez53UjO-77" value="id&lt;br&gt;ck&lt;br&gt;offset&lt;br&gt;k?&lt;br&gt;omega&lt;br&gt;phi&lt;br&gt;kappa&lt;br&gt;method: &#39;manual&#39;|&#39;pipeline&#39;" style="align=center;strokeColor=none;fillColor=none;spacingLeft=4;fontSize=12;verticalAlign=top;resizable=0;rotatable=0;part=1;html=1;" parent="RAKLjF86ejIlvez53UjO-76" vertex="1">
          <mxGeometry y="30" width="160" height="130" as="geometry" />
        </mxCell>
        <mxCell id="RAKLjF86ejIlvez53UjO-85" style="edgeStyle=orthogonalEdgeStyle;rounded=0;orthogonalLoop=1;jettySize=auto;html=1;" parent="1" source="RAKLjF86ejIlvez53UjO-78" target="RAKLjF86ejIlvez53UjO-82" edge="1">
          <mxGeometry relative="1" as="geometry" />
        </mxCell>
        <mxCell id="RAKLjF86ejIlvez53UjO-87" value="P3.1 has type" style="edgeLabel;html=1;align=center;verticalAlign=middle;resizable=0;points=[];" parent="RAKLjF86ejIlvez53UjO-85" vertex="1" connectable="0">
          <mxGeometry relative="1" as="geometry">
            <mxPoint as="offset" />
          </mxGeometry>
        </mxCell>
        <mxCell id="RAKLjF86ejIlvez53UjO-78" value="E62 String" style="swimlane;childLayout=stackLayout;horizontal=1;startSize=30;horizontalStack=0;rounded=1;fontSize=12;fontStyle=1;strokeWidth=1;resizeParent=0;resizeLast=1;shadow=0;align=center;arcSize=4;whiteSpace=wrap;html=1;fillStyle=auto;swimlaneFillColor=none;fillColor=#CCCCCC;fontColor=#000000;" parent="1" vertex="1">
          <mxGeometry x="720" y="465" width="160" height="70" as="geometry">
            <mxRectangle x="470" y="160" width="90" height="30" as="alternateBounds" />
          </mxGeometry>
        </mxCell>
        <mxCell id="RAKLjF86ejIlvez53UjO-79" value="id&lt;br&gt;value" style="align=center;strokeColor=none;fillColor=none;spacingLeft=4;fontSize=12;verticalAlign=top;resizable=0;rotatable=0;part=1;html=1;" parent="RAKLjF86ejIlvez53UjO-78" vertex="1">
          <mxGeometry y="30" width="160" height="40" as="geometry" />
        </mxCell>
        <mxCell id="RAKLjF86ejIlvez53UjO-80" value="E55 Type" style="swimlane;childLayout=stackLayout;horizontal=1;startSize=30;horizontalStack=0;rounded=1;fontSize=12;fontStyle=1;strokeWidth=1;resizeParent=0;resizeLast=1;shadow=0;align=center;arcSize=4;whiteSpace=wrap;html=1;fillStyle=auto;swimlaneFillColor=none;fillColor=#CCCCCC;fontColor=#000000;" parent="1" vertex="1">
          <mxGeometry x="1040" y="385" width="160" height="60" as="geometry">
            <mxRectangle x="470" y="160" width="90" height="30" as="alternateBounds" />
          </mxGeometry>
        </mxCell>
        <mxCell id="RAKLjF86ejIlvez53UjO-81" value="id: &quot;image_description&quot;" style="align=center;strokeColor=none;fillColor=none;spacingLeft=4;fontSize=12;verticalAlign=top;resizable=0;rotatable=0;part=1;html=1;" parent="RAKLjF86ejIlvez53UjO-80" vertex="1">
          <mxGeometry y="30" width="160" height="30" as="geometry" />
        </mxCell>
        <mxCell id="RAKLjF86ejIlvez53UjO-82" value="E55 Type" style="swimlane;childLayout=stackLayout;horizontal=1;startSize=30;horizontalStack=0;rounded=1;fontSize=12;fontStyle=1;strokeWidth=1;resizeParent=0;resizeLast=1;shadow=0;align=center;arcSize=4;whiteSpace=wrap;html=1;fillStyle=auto;swimlaneFillColor=none;fillColor=#CCCCCC;fontColor=#000000;" parent="1" vertex="1">
          <mxGeometry x="1040" y="470" width="160" height="60" as="geometry">
            <mxRectangle x="470" y="160" width="90" height="30" as="alternateBounds" />
          </mxGeometry>
        </mxCell>
        <mxCell id="RAKLjF86ejIlvez53UjO-83" value="id: &quot;image_miscellaneous&quot;" style="align=center;strokeColor=none;fillColor=none;spacingLeft=4;fontSize=12;verticalAlign=top;resizable=0;rotatable=0;part=1;html=1;" parent="RAKLjF86ejIlvez53UjO-82" vertex="1">
          <mxGeometry y="30" width="160" height="30" as="geometry" />
        </mxCell>
        <mxCell id="RAKLjF86ejIlvez53UjO-95" style="edgeStyle=orthogonalEdgeStyle;rounded=0;orthogonalLoop=1;jettySize=auto;html=1;" parent="1" source="RAKLjF86ejIlvez53UjO-93" target="RAKLjF86ejIlvez53UjO-54" edge="1">
          <mxGeometry relative="1" as="geometry" />
        </mxCell>
        <mxCell id="RAKLjF86ejIlvez53UjO-96" value="P131 is identified by" style="edgeLabel;html=1;align=center;verticalAlign=middle;resizable=0;points=[];" parent="RAKLjF86ejIlvez53UjO-95" vertex="1" connectable="0">
          <mxGeometry relative="1" as="geometry">
            <mxPoint as="offset" />
          </mxGeometry>
        </mxCell>
        <mxCell id="RAKLjF86ejIlvez53UjO-93" value="E40 Legal Body" style="swimlane;childLayout=stackLayout;horizontal=1;startSize=30;horizontalStack=0;rounded=1;fontSize=12;fontStyle=1;strokeWidth=1;resizeParent=0;resizeLast=1;shadow=0;align=center;arcSize=4;whiteSpace=wrap;html=1;fillStyle=auto;swimlaneFillColor=none;fillColor=#CCCCCC;fontColor=#000000;" parent="1" vertex="1">
          <mxGeometry x="80" y="400" width="160" height="60" as="geometry">
            <mxRectangle x="470" y="160" width="90" height="30" as="alternateBounds" />
          </mxGeometry>
        </mxCell>
        <mxCell id="RAKLjF86ejIlvez53UjO-94" value="id" style="align=center;strokeColor=none;fillColor=none;spacingLeft=4;fontSize=12;verticalAlign=top;resizable=0;rotatable=0;part=1;html=1;" parent="RAKLjF86ejIlvez53UjO-93" vertex="1">
          <mxGeometry y="30" width="160" height="30" as="geometry" />
        </mxCell>
        <mxCell id="RAKLjF86ejIlvez53UjO-100" value="E55 Type" style="swimlane;childLayout=stackLayout;horizontal=1;startSize=30;horizontalStack=0;rounded=1;fontSize=12;fontStyle=1;strokeWidth=1;resizeParent=0;resizeLast=1;shadow=0;align=center;arcSize=4;whiteSpace=wrap;html=1;fillStyle=auto;swimlaneFillColor=none;fillColor=#CCCCCC;fontColor=#000000;" parent="1" vertex="1">
          <mxGeometry x="1040" y="195" width="160" height="70" as="geometry">
            <mxRectangle x="470" y="160" width="90" height="30" as="alternateBounds" />
          </mxGeometry>
        </mxCell>
        <mxCell id="RAKLjF86ejIlvez53UjO-101" value="id: &quot;image:spatial:&lt;br&gt;not_possible&quot;" style="align=center;strokeColor=none;fillColor=none;spacingLeft=4;fontSize=12;verticalAlign=top;resizable=0;rotatable=0;part=1;html=1;" parent="RAKLjF86ejIlvez53UjO-100" vertex="1">
          <mxGeometry y="30" width="160" height="40" as="geometry" />
        </mxCell>
        <mxCell id="RAKLjF86ejIlvez53UjO-102" value="E55 Type" style="swimlane;childLayout=stackLayout;horizontal=1;startSize=30;horizontalStack=0;rounded=1;fontSize=12;fontStyle=1;strokeWidth=1;resizeParent=0;resizeLast=1;shadow=0;align=center;arcSize=4;whiteSpace=wrap;html=1;fillStyle=auto;swimlaneFillColor=none;fillColor=#CCCCCC;fontColor=#000000;" parent="1" vertex="1">
          <mxGeometry x="1040" y="290" width="160" height="70" as="geometry">
            <mxRectangle x="470" y="160" width="90" height="30" as="alternateBounds" />
          </mxGeometry>
        </mxCell>
        <mxCell id="RAKLjF86ejIlvez53UjO-103" value="id: &quot;image:spatial:&lt;br&gt;not_yet_possible&quot;" style="align=center;strokeColor=none;fillColor=none;spacingLeft=4;fontSize=12;verticalAlign=top;resizable=0;rotatable=0;part=1;html=1;" parent="RAKLjF86ejIlvez53UjO-102" vertex="1">
          <mxGeometry y="30" width="160" height="40" as="geometry" />
        </mxCell>
        <mxCell id="RAKLjF86ejIlvez53UjO-105" style="edgeStyle=orthogonalEdgeStyle;rounded=1;orthogonalLoop=1;jettySize=auto;html=1;exitX=0.75;exitY=0;exitDx=0;exitDy=0;dashed=1;" parent="1" source="RAKLjF86ejIlvez53UjO-1" target="RAKLjF86ejIlvez53UjO-100" edge="1">
          <mxGeometry relative="1" as="geometry">
            <mxPoint x="290" y="470" as="targetPoint" />
            <Array as="points">
              <mxPoint x="520" y="340" />
              <mxPoint x="940" y="340" />
              <mxPoint x="940" y="230" />
            </Array>
          </mxGeometry>
        </mxCell>
        <mxCell id="RAKLjF86ejIlvez53UjO-107" value="P2 has type" style="edgeLabel;html=1;align=center;verticalAlign=middle;resizable=0;points=[];" parent="RAKLjF86ejIlvez53UjO-105" vertex="1" connectable="0">
          <mxGeometry relative="1" as="geometry">
            <mxPoint x="-9" as="offset" />
          </mxGeometry>
        </mxCell>
        <mxCell id="RAKLjF86ejIlvez53UjO-117" value="E22 Human-Made Object" style="swimlane;childLayout=stackLayout;horizontal=1;startSize=30;horizontalStack=0;rounded=1;fontSize=12;fontStyle=1;strokeWidth=1;resizeParent=0;resizeLast=1;shadow=0;align=center;arcSize=4;whiteSpace=wrap;html=1;fillStyle=auto;swimlaneFillColor=default;fillColor=#CCCCCC;fontColor=#000000;" parent="1" vertex="1">
          <mxGeometry x="240" y="80" width="160" height="60" as="geometry">
            <mxRectangle x="470" y="160" width="90" height="30" as="alternateBounds" />
          </mxGeometry>
        </mxCell>
        <mxCell id="RAKLjF86ejIlvez53UjO-118" value="id" style="align=center;strokeColor=none;fillColor=none;spacingLeft=4;fontSize=12;verticalAlign=top;resizable=0;rotatable=0;part=1;html=1;" parent="RAKLjF86ejIlvez53UjO-117" vertex="1">
          <mxGeometry y="30" width="160" height="30" as="geometry" />
        </mxCell>
        <mxCell id="RAKLjF86ejIlvez53UjO-119" value="Segmentation" style="rounded=0;whiteSpace=wrap;html=1;fillColor=#f0a30a;fontColor=#4D4D4D;strokeColor=#BD7000;opacity=20;strokeWidth=3;verticalAlign=top;labelBackgroundColor=none;labelBorderColor=none;align=left;spacing=2;spacingLeft=7;" parent="1" vertex="1">
          <mxGeometry x="-240" y="740" width="560" height="330" as="geometry" />
        </mxCell>
        <mxCell id="RAKLjF86ejIlvez53UjO-120" style="edgeStyle=orthogonalEdgeStyle;rounded=0;orthogonalLoop=1;jettySize=auto;html=1;exitX=0.25;exitY=1;exitDx=0;exitDy=0;" parent="1" target="bNz0FLv0N4wVYE_ucOOk-3" edge="1">
          <mxGeometry relative="1" as="geometry">
            <Array as="points">
              <mxPoint x="-40" y="900" />
              <mxPoint x="-160" y="900" />
            </Array>
          </mxGeometry>
        </mxCell>
        <mxCell id="RAKLjF86ejIlvez53UjO-121" value="P2 has type" style="edgeLabel;html=1;align=center;verticalAlign=middle;resizable=0;points=[];" parent="RAKLjF86ejIlvez53UjO-120" vertex="1" connectable="0">
          <mxGeometry x="-0.0778" y="-1" relative="1" as="geometry">
            <mxPoint as="offset" />
          </mxGeometry>
        </mxCell>
        <mxCell id="RAKLjF86ejIlvez53UjO-122" value="E36 Visual Item / Annotation" style="swimlane;childLayout=stackLayout;horizontal=1;startSize=30;horizontalStack=0;rounded=1;fontSize=12;fontStyle=1;strokeWidth=1;resizeParent=0;resizeLast=1;shadow=0;align=center;arcSize=4;whiteSpace=wrap;html=1;fillStyle=auto;swimlaneFillColor=default;fillColor=#CCCCCC;fontColor=#000000;" parent="1" vertex="1">
          <mxGeometry x="-40" y="770" width="160" height="100" as="geometry">
            <mxRectangle x="470" y="160" width="90" height="30" as="alternateBounds" />
          </mxGeometry>
        </mxCell>
        <mxCell id="bNz0FLv0N4wVYE_ucOOk-16" value="id&lt;br&gt;polylist&lt;br&gt;bbox&lt;br&gt;area" style="align=center;strokeColor=none;fillColor=none;spacingLeft=4;fontSize=12;verticalAlign=top;resizable=0;rotatable=0;part=1;html=1;" parent="RAKLjF86ejIlvez53UjO-122" vertex="1">
          <mxGeometry y="30" width="160" height="70" as="geometry" />
        </mxCell>
        <mxCell id="-rV9NFb2ba8N9q2K_3OO-1" style="edgeStyle=orthogonalEdgeStyle;rounded=1;orthogonalLoop=1;jettySize=auto;html=1;exitX=1;exitY=0.204;exitDx=0;exitDy=0;entryX=1.001;entryY=0.705;entryDx=0;entryDy=0;dashed=1;exitPerimeter=0;entryPerimeter=0;" parent="RAKLjF86ejIlvez53UjO-122" source="RAKLjF86ejIlvez53UjO-122" target="bNz0FLv0N4wVYE_ucOOk-16" edge="1">
          <mxGeometry relative="1" as="geometry">
            <mxPoint x="190.01" y="69.98000000000002" as="targetPoint" />
            <Array as="points">
              <mxPoint x="250" y="20" />
              <mxPoint x="250" y="80" />
              <mxPoint x="160" y="80" />
            </Array>
            <mxPoint x="270.01" y="24.980000000000132" as="sourcePoint" />
          </mxGeometry>
        </mxCell>
        <mxCell id="-rV9NFb2ba8N9q2K_3OO-2" value="is close to&lt;br&gt;[distance]&lt;br&gt;[weight]" style="edgeLabel;html=1;align=center;verticalAlign=middle;resizable=0;points=[];" parent="-rV9NFb2ba8N9q2K_3OO-1" vertex="1" connectable="0">
          <mxGeometry x="-0.2308" y="1" relative="1" as="geometry">
            <mxPoint y="27" as="offset" />
          </mxGeometry>
        </mxCell>
        <mxCell id="bNz0FLv0N4wVYE_ucOOk-1" style="edgeStyle=orthogonalEdgeStyle;rounded=1;orthogonalLoop=1;jettySize=auto;html=1;exitX=0.25;exitY=1;exitDx=0;exitDy=0;dashed=1;" parent="1" source="RAKLjF86ejIlvez53UjO-2" target="RAKLjF86ejIlvez53UjO-122" edge="1">
          <mxGeometry relative="1" as="geometry">
            <mxPoint x="-20" y="660" as="targetPoint" />
            <Array as="points">
              <mxPoint x="440" y="500" />
              <mxPoint x="40" y="500" />
            </Array>
          </mxGeometry>
        </mxCell>
        <mxCell id="bNz0FLv0N4wVYE_ucOOk-2" value="P106 is composed of" style="edgeLabel;html=1;align=center;verticalAlign=middle;resizable=0;points=[];" parent="bNz0FLv0N4wVYE_ucOOk-1" vertex="1" connectable="0">
          <mxGeometry relative="1" as="geometry">
            <mxPoint x="-65" y="220" as="offset" />
          </mxGeometry>
        </mxCell>
        <mxCell id="bNz0FLv0N4wVYE_ucOOk-3" value="E55 Type / AAT" style="swimlane;childLayout=stackLayout;horizontal=1;startSize=30;horizontalStack=0;rounded=1;fontSize=12;fontStyle=1;strokeWidth=1;resizeParent=0;resizeLast=1;shadow=0;align=center;arcSize=4;whiteSpace=wrap;html=1;fillStyle=auto;swimlaneFillColor=default;fillColor=#CCCCCC;fontColor=#000000;" parent="1" vertex="1">
          <mxGeometry x="-140" y="929.9800000000001" width="160" height="90" as="geometry">
            <mxRectangle x="470" y="160" width="90" height="30" as="alternateBounds" />
          </mxGeometry>
        </mxCell>
        <mxCell id="bNz0FLv0N4wVYE_ucOOk-4" value="id&lt;br&gt;identifier&lt;br&gt;label" style="align=center;strokeColor=none;fillColor=none;spacingLeft=4;fontSize=12;verticalAlign=top;resizable=0;rotatable=0;part=1;html=1;" parent="bNz0FLv0N4wVYE_ucOOk-3" vertex="1">
          <mxGeometry y="30" width="160" height="60" as="geometry" />
        </mxCell>
        <mxCell id="K7JPmzCcr1eyrx-U6kwY-1" style="edgeStyle=orthogonalEdgeStyle;rounded=1;orthogonalLoop=1;jettySize=auto;html=1;exitX=1;exitY=0.25;exitDx=0;exitDy=0;entryX=0.75;entryY=0;entryDx=0;entryDy=0;startArrow=classic;startFill=1;endArrow=none;endFill=0;dashed=1;strokeColor=#99004D;" parent="1" source="bNz0FLv0N4wVYE_ucOOk-5" target="bNz0FLv0N4wVYE_ucOOk-5" edge="1">
          <mxGeometry relative="1" as="geometry">
            <mxPoint x="350" y="1150" as="targetPoint" />
            <Array as="points">
              <mxPoint x="270" y="953" />
              <mxPoint x="270" y="900" />
              <mxPoint x="180" y="900" />
            </Array>
          </mxGeometry>
        </mxCell>
        <mxCell id="K7JPmzCcr1eyrx-U6kwY-2" value="is similar&lt;br&gt;[weight]" style="edgeLabel;html=1;align=center;verticalAlign=middle;resizable=0;points=[];fontColor=#99004D;" parent="K7JPmzCcr1eyrx-U6kwY-1" vertex="1" connectable="0">
          <mxGeometry relative="1" as="geometry">
            <mxPoint x="-31" as="offset" />
          </mxGeometry>
        </mxCell>
        <mxCell id="bNz0FLv0N4wVYE_ucOOk-5" value="E55 Type / Wikidata" style="swimlane;childLayout=stackLayout;horizontal=1;startSize=30;horizontalStack=0;rounded=1;fontSize=12;fontStyle=1;strokeWidth=1;resizeParent=0;resizeLast=1;shadow=0;align=center;arcSize=4;whiteSpace=wrap;html=1;fillStyle=auto;swimlaneFillColor=default;fillColor=#CCCCCC;fontColor=#000000;" parent="1" vertex="1">
          <mxGeometry x="60.00999999999999" y="929.9800000000001" width="160" height="90" as="geometry">
            <mxRectangle x="470" y="160" width="90" height="30" as="alternateBounds" />
          </mxGeometry>
        </mxCell>
        <mxCell id="bNz0FLv0N4wVYE_ucOOk-6" value="id&lt;br&gt;identifier&lt;br&gt;label" style="align=center;strokeColor=none;fillColor=none;spacingLeft=4;fontSize=12;verticalAlign=top;resizable=0;rotatable=0;part=1;html=1;" parent="bNz0FLv0N4wVYE_ucOOk-5" vertex="1">
          <mxGeometry y="30" width="160" height="60" as="geometry" />
        </mxCell>
        <mxCell id="bNz0FLv0N4wVYE_ucOOk-9" style="edgeStyle=orthogonalEdgeStyle;rounded=1;orthogonalLoop=1;jettySize=auto;html=1;exitX=1;exitY=0.25;exitDx=0;exitDy=0;entryX=0.5;entryY=1;entryDx=0;entryDy=0;dashed=1;" parent="bNz0FLv0N4wVYE_ucOOk-5" source="bNz0FLv0N4wVYE_ucOOk-6" target="bNz0FLv0N4wVYE_ucOOk-6" edge="1">
          <mxGeometry relative="1" as="geometry">
            <mxPoint x="180" y="220" as="targetPoint" />
            <Array as="points">
              <mxPoint x="210" y="45" />
              <mxPoint x="210" y="120" />
              <mxPoint x="80" y="120" />
            </Array>
          </mxGeometry>
        </mxCell>
        <mxCell id="bNz0FLv0N4wVYE_ucOOk-10" value="P127 has&lt;br&gt;broader term" style="edgeLabel;html=1;align=center;verticalAlign=middle;resizable=0;points=[];" parent="bNz0FLv0N4wVYE_ucOOk-9" vertex="1" connectable="0">
          <mxGeometry x="-0.2308" y="1" relative="1" as="geometry">
            <mxPoint y="-22" as="offset" />
          </mxGeometry>
        </mxCell>
        <mxCell id="bNz0FLv0N4wVYE_ucOOk-11" style="edgeStyle=orthogonalEdgeStyle;rounded=1;orthogonalLoop=1;jettySize=auto;html=1;dashed=1;" parent="1" source="bNz0FLv0N4wVYE_ucOOk-3" target="bNz0FLv0N4wVYE_ucOOk-3" edge="1">
          <mxGeometry relative="1" as="geometry">
            <mxPoint x="230" y="1339.98" as="targetPoint" />
            <mxPoint x="100" y="939.9800000000001" as="sourcePoint" />
            <Array as="points">
              <mxPoint x="-190" y="975.05" />
              <mxPoint x="-190" y="1050.05" />
              <mxPoint x="-60" y="1050.05" />
            </Array>
          </mxGeometry>
        </mxCell>
        <mxCell id="bNz0FLv0N4wVYE_ucOOk-12" value="P127 has&lt;br&gt;broader term" style="edgeLabel;html=1;align=center;verticalAlign=middle;resizable=0;points=[];" parent="bNz0FLv0N4wVYE_ucOOk-11" vertex="1" connectable="0">
          <mxGeometry x="-0.2308" y="1" relative="1" as="geometry">
            <mxPoint y="-22" as="offset" />
          </mxGeometry>
        </mxCell>
        <mxCell id="bNz0FLv0N4wVYE_ucOOk-18" style="edgeStyle=orthogonalEdgeStyle;rounded=1;orthogonalLoop=1;jettySize=auto;html=1;dashed=1;" parent="1" source="bNz0FLv0N4wVYE_ucOOk-16" target="bNz0FLv0N4wVYE_ucOOk-5" edge="1">
          <mxGeometry relative="1" as="geometry">
            <Array as="points">
              <mxPoint x="60" y="900" />
              <mxPoint x="140" y="900" />
            </Array>
          </mxGeometry>
        </mxCell>
        <mxCell id="bNz0FLv0N4wVYE_ucOOk-21" value="P2 has type&lt;br&gt;[confidence]&lt;br&gt;&lt;font color=&quot;#99004d&quot;&gt;[weight]&lt;/font&gt;" style="edgeLabel;html=1;align=center;verticalAlign=middle;resizable=0;points=[];" parent="bNz0FLv0N4wVYE_ucOOk-18" vertex="1" connectable="0">
          <mxGeometry relative="1" as="geometry">
            <mxPoint as="offset" />
          </mxGeometry>
        </mxCell>
        <mxCell id="bNz0FLv0N4wVYE_ucOOk-19" style="edgeStyle=orthogonalEdgeStyle;rounded=1;orthogonalLoop=1;jettySize=auto;html=1;dashed=1;" parent="1" source="bNz0FLv0N4wVYE_ucOOk-16" target="bNz0FLv0N4wVYE_ucOOk-3" edge="1">
          <mxGeometry relative="1" as="geometry">
            <Array as="points">
              <mxPoint x="20" y="900" />
              <mxPoint x="-60" y="900" />
            </Array>
          </mxGeometry>
        </mxCell>
        <mxCell id="bNz0FLv0N4wVYE_ucOOk-20" value="P2 has type&lt;br&gt;[confidence]&lt;br&gt;&lt;font color=&quot;#99004d&quot;&gt;[weight]&lt;/font&gt;" style="edgeLabel;html=1;align=center;verticalAlign=middle;resizable=0;points=[];" parent="bNz0FLv0N4wVYE_ucOOk-19" vertex="1" connectable="0">
          <mxGeometry relative="1" as="geometry">
            <mxPoint as="offset" />
          </mxGeometry>
        </mxCell>
        <mxCell id="-rV9NFb2ba8N9q2K_3OO-3" style="edgeStyle=orthogonalEdgeStyle;rounded=1;orthogonalLoop=1;jettySize=auto;html=1;dashed=1;entryX=0.75;entryY=1;entryDx=0;entryDy=0;exitX=0.25;exitY=1;exitDx=0;exitDy=0;" parent="1" source="bNz0FLv0N4wVYE_ucOOk-6" target="bNz0FLv0N4wVYE_ucOOk-4" edge="1">
          <mxGeometry relative="1" as="geometry">
            <Array as="points">
              <mxPoint x="100" y="1050" />
              <mxPoint x="-20" y="1050" />
            </Array>
            <mxPoint x="110" y="1050" as="sourcePoint" />
            <mxPoint x="150" y="940" as="targetPoint" />
          </mxGeometry>
        </mxCell>
        <mxCell id="-rV9NFb2ba8N9q2K_3OO-4" value="&amp;nbsp;refers to aat" style="edgeLabel;html=1;align=center;verticalAlign=middle;resizable=0;points=[];" parent="-rV9NFb2ba8N9q2K_3OO-3" vertex="1" connectable="0">
          <mxGeometry relative="1" as="geometry">
            <mxPoint as="offset" />
          </mxGeometry>
        </mxCell>
        <mxCell id="K7JPmzCcr1eyrx-U6kwY-3" style="edgeStyle=orthogonalEdgeStyle;rounded=1;orthogonalLoop=1;jettySize=auto;html=1;exitX=0;exitY=0.25;exitDx=0;exitDy=0;entryX=0.25;entryY=0;entryDx=0;entryDy=0;startArrow=classic;startFill=1;endArrow=none;endFill=0;dashed=1;strokeColor=#99004D;" parent="1" source="bNz0FLv0N4wVYE_ucOOk-3" target="bNz0FLv0N4wVYE_ucOOk-3" edge="1">
          <mxGeometry relative="1" as="geometry">
            <mxPoint x="-190" y="930" as="targetPoint" />
            <mxPoint x="-150" y="952" as="sourcePoint" />
            <Array as="points">
              <mxPoint x="-190" y="953" />
              <mxPoint x="-190" y="900" />
              <mxPoint x="-100" y="900" />
            </Array>
          </mxGeometry>
        </mxCell>
        <mxCell id="K7JPmzCcr1eyrx-U6kwY-4" value="is similar&lt;br&gt;[weight]" style="edgeLabel;html=1;align=center;verticalAlign=middle;resizable=0;points=[];fontColor=#99004D;" parent="K7JPmzCcr1eyrx-U6kwY-3" vertex="1" connectable="0">
          <mxGeometry relative="1" as="geometry">
            <mxPoint x="31" as="offset" />
          </mxGeometry>
        </mxCell>
        <mxCell id="Iad6iyE-XMjYDoZjHM75-1" value="E30 Right" style="swimlane;childLayout=stackLayout;horizontal=1;startSize=30;horizontalStack=0;rounded=1;fontSize=12;fontStyle=1;strokeWidth=1;resizeParent=0;resizeLast=1;shadow=0;align=center;arcSize=4;whiteSpace=wrap;html=1;fillStyle=auto;swimlaneFillColor=none;fillColor=#CCCCCC;fontColor=#000000;" vertex="1" parent="1">
          <mxGeometry x="-240" y="485" width="160" height="70" as="geometry">
            <mxRectangle x="470" y="160" width="90" height="30" as="alternateBounds" />
          </mxGeometry>
        </mxCell>
        <mxCell id="Iad6iyE-XMjYDoZjHM75-2" value="id&lt;br&gt;&lt;div style=&quot;&quot;&gt;&lt;span style=&quot;background-color: initial;&quot;&gt;restricted&lt;/span&gt;&lt;/div&gt;" style="align=center;strokeColor=none;fillColor=none;spacingLeft=4;fontSize=12;verticalAlign=top;resizable=0;rotatable=0;part=1;html=1;" vertex="1" parent="Iad6iyE-XMjYDoZjHM75-1">
          <mxGeometry y="30" width="160" height="40" as="geometry" />
        </mxCell>
        <mxCell id="Iad6iyE-XMjYDoZjHM75-3" style="edgeStyle=orthogonalEdgeStyle;rounded=1;orthogonalLoop=1;jettySize=auto;html=1;exitX=0.12;exitY=1.011;exitDx=0;exitDy=0;exitPerimeter=0;dashed=1;curved=0;" edge="1" parent="1" source="RAKLjF86ejIlvez53UjO-2" target="Iad6iyE-XMjYDoZjHM75-1">
          <mxGeometry relative="1" as="geometry">
            <Array as="points">
              <mxPoint x="419" y="480" />
              <mxPoint y="480" />
              <mxPoint y="520" />
            </Array>
          </mxGeometry>
        </mxCell>
        <mxCell id="Iad6iyE-XMjYDoZjHM75-4" value="P104 is subject to" style="edgeLabel;html=1;align=center;verticalAlign=middle;resizable=0;points=[];" vertex="1" connectable="0" parent="Iad6iyE-XMjYDoZjHM75-3">
          <mxGeometry relative="1" as="geometry">
            <mxPoint as="offset" />
          </mxGeometry>
        </mxCell>
      </root>
    </mxGraphModel>
  </diagram>
</mxfile>
