<mxfile host="Electron" agent="Mozilla/5.0 (X11; Linux x86_64) AppleWebKit/537.36 (KHTML, like Gecko) draw.io/26.0.9 Chrome/128.0.6613.186 Electron/32.2.5 Safari/537.36" version="26.0.9">
  <diagram name="Seite-1" id="OWoWVebOE3oBWS9_Dsgk">
    <mxGraphModel dx="1687" dy="1069" grid="1" gridSize="10" guides="1" tooltips="1" connect="1" arrows="1" fold="1" page="0" pageScale="1" pageWidth="1169" pageHeight="827" math="0" shadow="0">
      <root>
        <mxCell id="0" />
        <mxCell id="1" parent="0" />
        <mxCell id="RAKLjF86ejIlvez53UjO-34" style="edgeStyle=orthogonalEdgeStyle;rounded=0;orthogonalLoop=1;jettySize=auto;html=1;startArrow=classic;startFill=1;endArrow=none;endFill=0;dashed=1;" parent="1" source="RAKLjF86ejIlvez53UjO-1" target="RAKLjF86ejIlvez53UjO-13" edge="1">
          <mxGeometry relative="1" as="geometry" />
        </mxCell>
        <mxCell id="RAKLjF86ejIlvez53UjO-37" value="P108 has produced" style="edgeLabel;html=1;align=center;verticalAlign=middle;resizable=0;points=[];" parent="RAKLjF86ejIlvez53UjO-34" vertex="1" connectable="0">
          <mxGeometry relative="1" as="geometry">
            <mxPoint as="offset" />
          </mxGeometry>
        </mxCell>
        <mxCell id="RAKLjF86ejIlvez53UjO-35" style="edgeStyle=orthogonalEdgeStyle;rounded=1;orthogonalLoop=1;jettySize=auto;html=1;entryX=0;entryY=0.5;entryDx=0;entryDy=0;exitX=1;exitY=0.5;exitDx=0;exitDy=0;startArrow=classic;startFill=1;endArrow=none;endFill=0;dashed=1;" parent="1" source="RAKLjF86ejIlvez53UjO-2" target="RAKLjF86ejIlvez53UjO-22" edge="1">
          <mxGeometry relative="1" as="geometry">
            <Array as="points">
              <mxPoint x="600" y="445" />
              <mxPoint x="600" y="530" />
            </Array>
          </mxGeometry>
        </mxCell>
        <mxCell id="RAKLjF86ejIlvez53UjO-36" value="P13 destroyed" style="edgeLabel;html=1;align=center;verticalAlign=middle;resizable=0;points=[];" parent="RAKLjF86ejIlvez53UjO-35" vertex="1" connectable="0">
          <mxGeometry x="0.2789" y="-1" relative="1" as="geometry">
            <mxPoint x="28" y="-1" as="offset" />
          </mxGeometry>
        </mxCell>
        <mxCell id="RAKLjF86ejIlvez53UjO-50" style="edgeStyle=orthogonalEdgeStyle;rounded=0;orthogonalLoop=1;jettySize=auto;html=1;" parent="1" source="RAKLjF86ejIlvez53UjO-1" target="RAKLjF86ejIlvez53UjO-9" edge="1">
          <mxGeometry relative="1" as="geometry" />
        </mxCell>
        <mxCell id="RAKLjF86ejIlvez53UjO-51" value="P1 is identified by" style="edgeLabel;html=1;align=center;verticalAlign=middle;resizable=0;points=[];" parent="RAKLjF86ejIlvez53UjO-50" vertex="1" connectable="0">
          <mxGeometry relative="1" as="geometry">
            <mxPoint y="-35" as="offset" />
          </mxGeometry>
        </mxCell>
        <mxCell id="RAKLjF86ejIlvez53UjO-52" style="edgeStyle=orthogonalEdgeStyle;rounded=1;orthogonalLoop=1;jettySize=auto;html=1;exitX=0.874;exitY=-0.007;exitDx=0;exitDy=0;dashed=1;exitPerimeter=0;" parent="1" source="RAKLjF86ejIlvez53UjO-1" target="RAKLjF86ejIlvez53UjO-11" edge="1">
          <mxGeometry relative="1" as="geometry">
            <Array as="points">
              <mxPoint x="540" y="360" />
              <mxPoint x="1120" y="360" />
            </Array>
          </mxGeometry>
        </mxCell>
        <mxCell id="RAKLjF86ejIlvez53UjO-53" value="has tag" style="edgeLabel;html=1;align=center;verticalAlign=middle;resizable=0;points=[];" parent="RAKLjF86ejIlvez53UjO-52" vertex="1" connectable="0">
          <mxGeometry relative="1" as="geometry">
            <mxPoint as="offset" />
          </mxGeometry>
        </mxCell>
        <mxCell id="RAKLjF86ejIlvez53UjO-56" style="edgeStyle=orthogonalEdgeStyle;orthogonalLoop=1;jettySize=auto;html=1;exitX=0.25;exitY=0;exitDx=0;exitDy=0;dashed=1;rounded=1;" parent="1" source="RAKLjF86ejIlvez53UjO-1" target="RAKLjF86ejIlvez53UjO-54" edge="1">
          <mxGeometry relative="1" as="geometry">
            <Array as="points">
              <mxPoint x="440" y="330" />
              <mxPoint x="160" y="330" />
            </Array>
          </mxGeometry>
        </mxCell>
        <mxCell id="RAKLjF86ejIlvez53UjO-59" value="P3 has note" style="edgeLabel;html=1;align=center;verticalAlign=middle;resizable=0;points=[];" parent="RAKLjF86ejIlvez53UjO-56" vertex="1" connectable="0">
          <mxGeometry relative="1" as="geometry">
            <mxPoint as="offset" />
          </mxGeometry>
        </mxCell>
        <mxCell id="RAKLjF86ejIlvez53UjO-57" style="edgeStyle=orthogonalEdgeStyle;rounded=0;orthogonalLoop=1;jettySize=auto;html=1;startArrow=classic;startFill=1;endArrow=none;endFill=0;" parent="1" source="RAKLjF86ejIlvez53UjO-1" target="RAKLjF86ejIlvez53UjO-7" edge="1">
          <mxGeometry relative="1" as="geometry">
            <Array as="points" />
          </mxGeometry>
        </mxCell>
        <mxCell id="RAKLjF86ejIlvez53UjO-58" value="P67 refers to" style="edgeLabel;html=1;align=center;verticalAlign=middle;resizable=0;points=[];" parent="RAKLjF86ejIlvez53UjO-57" vertex="1" connectable="0">
          <mxGeometry relative="1" as="geometry">
            <mxPoint as="offset" />
          </mxGeometry>
        </mxCell>
        <mxCell id="RAKLjF86ejIlvez53UjO-1" value="E22 Human-Made Object" style="swimlane;childLayout=stackLayout;horizontal=1;startSize=30;horizontalStack=0;rounded=1;fontSize=12;fontStyle=1;strokeWidth=3;resizeParent=0;resizeLast=1;shadow=0;align=center;arcSize=4;whiteSpace=wrap;html=1;fillStyle=auto;swimlaneFillColor=none;fillColor=#CCCCCC;fontColor=#000000;" parent="1" vertex="1">
          <mxGeometry x="400" y="399.69" width="160" height="60" as="geometry">
            <mxRectangle x="470" y="160" width="90" height="30" as="alternateBounds" />
          </mxGeometry>
        </mxCell>
        <mxCell id="RAKLjF86ejIlvez53UjO-2" value="id" style="align=center;strokeColor=none;fillColor=none;spacingLeft=4;fontSize=12;verticalAlign=top;resizable=0;rotatable=0;part=1;html=1;" parent="RAKLjF86ejIlvez53UjO-1" vertex="1">
          <mxGeometry y="30" width="160" height="30" as="geometry" />
        </mxCell>
        <mxCell id="RAKLjF86ejIlvez53UjO-3" value="D1 Digital Object" style="swimlane;childLayout=stackLayout;horizontal=1;startSize=30;horizontalStack=0;rounded=1;fontSize=12;fontStyle=1;strokeWidth=1;resizeParent=0;resizeLast=1;shadow=0;align=center;arcSize=4;whiteSpace=wrap;html=1;fillStyle=auto;swimlaneFillColor=default;fillColor=#CCCCCC;fontColor=#000000;" parent="1" vertex="1">
          <mxGeometry x="80" y="560" width="160" height="190" as="geometry">
            <mxRectangle x="470" y="160" width="90" height="30" as="alternateBounds" />
          </mxGeometry>
        </mxCell>
        <mxCell id="RAKLjF86ejIlvez53UjO-4" value="id&lt;br&gt;latitude&lt;br&gt;longitude&lt;br&gt;altitude&lt;br&gt;omega&lt;br&gt;phi&lt;br&gt;kappa&lt;br&gt;scale?&lt;br&gt;vrcity_forceTextures?&lt;div&gt;vrcity_noEdges?&lt;/div&gt;" style="align=center;strokeColor=none;fillColor=none;spacingLeft=4;fontSize=12;verticalAlign=top;resizable=0;rotatable=0;part=1;html=1;" parent="RAKLjF86ejIlvez53UjO-3" vertex="1">
          <mxGeometry y="30" width="160" height="160" as="geometry" />
        </mxCell>
        <mxCell id="RAKLjF86ejIlvez53UjO-60" style="edgeStyle=orthogonalEdgeStyle;rounded=0;orthogonalLoop=1;jettySize=auto;html=1;" parent="1" source="RAKLjF86ejIlvez53UjO-7" target="RAKLjF86ejIlvez53UjO-3" edge="1">
          <mxGeometry relative="1" as="geometry" />
        </mxCell>
        <mxCell id="RAKLjF86ejIlvez53UjO-61" value="P106 is composed of" style="edgeLabel;html=1;align=center;verticalAlign=middle;resizable=0;points=[];" parent="RAKLjF86ejIlvez53UjO-60" vertex="1" connectable="0">
          <mxGeometry relative="1" as="geometry">
            <mxPoint y="-5" as="offset" />
          </mxGeometry>
        </mxCell>
        <mxCell id="RAKLjF86ejIlvez53UjO-7" value="D9 Digital Object" style="swimlane;childLayout=stackLayout;horizontal=1;startSize=30;horizontalStack=0;rounded=1;fontSize=12;fontStyle=1;strokeWidth=1;resizeParent=0;resizeLast=1;shadow=0;align=center;arcSize=4;whiteSpace=wrap;html=1;fillStyle=auto;swimlaneFillColor=none;fillColor=#CCCCCC;fontColor=#000000;" parent="1" vertex="1">
          <mxGeometry x="80" y="349.69" width="160" height="160" as="geometry">
            <mxRectangle x="470" y="160" width="90" height="30" as="alternateBounds" />
          </mxGeometry>
        </mxCell>
        <mxCell id="RAKLjF86ejIlvez53UjO-8" value="id&lt;br&gt;&lt;div style=&quot;&quot;&gt;&lt;span style=&quot;background-color: initial;&quot;&gt;path&lt;/span&gt;&lt;/div&gt;&lt;div style=&quot;&quot;&gt;&lt;span style=&quot;background-color: initial;&quot;&gt;file&lt;/span&gt;&lt;/div&gt;&lt;div style=&quot;&quot;&gt;&lt;span style=&quot;background-color: initial;&quot;&gt;original&lt;/span&gt;&lt;/div&gt;&lt;div style=&quot;&quot;&gt;&lt;span style=&quot;background-color: initial;&quot;&gt;type&lt;/span&gt;&lt;/div&gt;&lt;div style=&quot;&quot;&gt;&lt;span style=&quot;background-color: initial;&quot;&gt;lowRes?&lt;/span&gt;&lt;/div&gt;&lt;div style=&quot;&quot;&gt;&lt;span style=&quot;background-color: initial;&quot;&gt;noEdges?&lt;/span&gt;&lt;/div&gt;&lt;div style=&quot;&quot;&gt;noEdgesLowRes?&lt;/div&gt;" style="align=center;strokeColor=none;fillColor=none;spacingLeft=4;fontSize=12;verticalAlign=top;resizable=0;rotatable=0;part=1;html=1;" parent="RAKLjF86ejIlvez53UjO-7" vertex="1">
          <mxGeometry y="30" width="160" height="130" as="geometry" />
        </mxCell>
        <mxCell id="RAKLjF86ejIlvez53UjO-9" value="E41 Appellation" style="swimlane;childLayout=stackLayout;horizontal=1;startSize=30;horizontalStack=0;rounded=1;fontSize=12;fontStyle=1;strokeWidth=1;resizeParent=0;resizeLast=1;shadow=0;align=center;arcSize=4;whiteSpace=wrap;html=1;fillStyle=auto;swimlaneFillColor=none;fillColor=#CCCCCC;fontColor=#000000;" parent="1" vertex="1">
          <mxGeometry x="400" y="220" width="160" height="70" as="geometry">
            <mxRectangle x="470" y="160" width="90" height="30" as="alternateBounds" />
          </mxGeometry>
        </mxCell>
        <mxCell id="RAKLjF86ejIlvez53UjO-10" value="id&lt;br&gt;&lt;div style=&quot;&quot;&gt;&lt;span style=&quot;background-color: initial;&quot;&gt;value&lt;/span&gt;&lt;/div&gt;" style="align=center;strokeColor=none;fillColor=none;spacingLeft=4;fontSize=12;verticalAlign=top;resizable=0;rotatable=0;part=1;html=1;" parent="RAKLjF86ejIlvez53UjO-9" vertex="1">
          <mxGeometry y="30" width="160" height="40" as="geometry" />
        </mxCell>
        <mxCell id="RAKLjF86ejIlvez53UjO-11" value="TAG" style="swimlane;childLayout=stackLayout;horizontal=1;startSize=30;horizontalStack=0;rounded=1;fontSize=12;fontStyle=1;strokeWidth=1;resizeParent=0;resizeLast=1;shadow=0;align=center;arcSize=4;whiteSpace=wrap;html=1;fillStyle=auto;swimlaneFillColor=none;fillColor=#CCCCCC;fontColor=#000000;" parent="1" vertex="1">
          <mxGeometry x="1040" y="225" width="160" height="60" as="geometry">
            <mxRectangle x="470" y="160" width="90" height="30" as="alternateBounds" />
          </mxGeometry>
        </mxCell>
        <mxCell id="RAKLjF86ejIlvez53UjO-12" value="id" style="align=center;strokeColor=none;fillColor=none;spacingLeft=4;fontSize=12;verticalAlign=top;resizable=0;rotatable=0;part=1;html=1;" parent="RAKLjF86ejIlvez53UjO-11" vertex="1">
          <mxGeometry y="30" width="160" height="30" as="geometry" />
        </mxCell>
        <mxCell id="RAKLjF86ejIlvez53UjO-13" value="E12 Production" style="swimlane;childLayout=stackLayout;horizontal=1;startSize=30;horizontalStack=0;rounded=1;fontSize=12;fontStyle=1;strokeWidth=1;resizeParent=0;resizeLast=1;shadow=0;align=center;arcSize=4;whiteSpace=wrap;html=1;fillStyle=auto;swimlaneFillColor=none;fillColor=#CCCCCC;fontColor=#000000;" parent="1" vertex="1">
          <mxGeometry x="720" y="400" width="160" height="60" as="geometry">
            <mxRectangle x="470" y="160" width="90" height="30" as="alternateBounds" />
          </mxGeometry>
        </mxCell>
        <mxCell id="RAKLjF86ejIlvez53UjO-14" value="id" style="align=center;strokeColor=none;fillColor=none;spacingLeft=4;fontSize=12;verticalAlign=top;resizable=0;rotatable=0;part=1;html=1;" parent="RAKLjF86ejIlvez53UjO-13" vertex="1">
          <mxGeometry y="30" width="160" height="30" as="geometry" />
        </mxCell>
        <mxCell id="RAKLjF86ejIlvez53UjO-15" value="E52 Time-Span" style="swimlane;childLayout=stackLayout;horizontal=1;startSize=30;horizontalStack=0;rounded=1;fontSize=12;fontStyle=1;strokeWidth=1;resizeParent=0;resizeLast=1;shadow=0;align=center;arcSize=4;whiteSpace=wrap;html=1;fillStyle=auto;swimlaneFillColor=none;fillColor=#CCCCCC;fontColor=#000000;" parent="1" vertex="1">
          <mxGeometry x="1040" y="400" width="160" height="60" as="geometry">
            <mxRectangle x="470" y="160" width="90" height="30" as="alternateBounds" />
          </mxGeometry>
        </mxCell>
        <mxCell id="RAKLjF86ejIlvez53UjO-16" value="id" style="align=center;strokeColor=none;fillColor=none;spacingLeft=4;fontSize=12;verticalAlign=top;resizable=0;rotatable=0;part=1;html=1;" parent="RAKLjF86ejIlvez53UjO-15" vertex="1">
          <mxGeometry y="30" width="160" height="30" as="geometry" />
        </mxCell>
        <mxCell id="RAKLjF86ejIlvez53UjO-42" style="edgeStyle=orthogonalEdgeStyle;rounded=1;orthogonalLoop=1;jettySize=auto;html=1;entryX=0.75;entryY=1;entryDx=0;entryDy=0;" parent="1" source="RAKLjF86ejIlvez53UjO-17" target="RAKLjF86ejIlvez53UjO-2" edge="1">
          <mxGeometry relative="1" as="geometry" />
        </mxCell>
        <mxCell id="RAKLjF86ejIlvez53UjO-45" value="P157 is at rest&lt;br&gt;relative to" style="edgeLabel;html=1;align=center;verticalAlign=middle;resizable=0;points=[];" parent="RAKLjF86ejIlvez53UjO-42" vertex="1" connectable="0">
          <mxGeometry relative="1" as="geometry">
            <mxPoint x="85" as="offset" />
          </mxGeometry>
        </mxCell>
        <mxCell id="RAKLjF86ejIlvez53UjO-43" style="edgeStyle=orthogonalEdgeStyle;rounded=0;orthogonalLoop=1;jettySize=auto;html=1;entryX=0.5;entryY=0;entryDx=0;entryDy=0;" parent="1" source="RAKLjF86ejIlvez53UjO-17" target="RAKLjF86ejIlvez53UjO-19" edge="1">
          <mxGeometry relative="1" as="geometry" />
        </mxCell>
        <mxCell id="RAKLjF86ejIlvez53UjO-44" value="P168 place is&lt;br&gt;defined by" style="edgeLabel;html=1;align=center;verticalAlign=middle;resizable=0;points=[];" parent="RAKLjF86ejIlvez53UjO-43" vertex="1" connectable="0">
          <mxGeometry relative="1" as="geometry">
            <mxPoint as="offset" />
          </mxGeometry>
        </mxCell>
        <mxCell id="RAKLjF86ejIlvez53UjO-48" style="edgeStyle=orthogonalEdgeStyle;rounded=0;orthogonalLoop=1;jettySize=auto;html=1;dashed=1;" parent="1" source="RAKLjF86ejIlvez53UjO-17" target="RAKLjF86ejIlvez53UjO-46" edge="1">
          <mxGeometry relative="1" as="geometry" />
        </mxCell>
        <mxCell id="RAKLjF86ejIlvez53UjO-49" value="P87 is identified by" style="edgeLabel;html=1;align=center;verticalAlign=middle;resizable=0;points=[];spacing=2;labelBackgroundColor=default;labelBorderColor=none;" parent="RAKLjF86ejIlvez53UjO-48" vertex="1" connectable="0">
          <mxGeometry relative="1" as="geometry">
            <mxPoint as="offset" />
          </mxGeometry>
        </mxCell>
        <mxCell id="RAKLjF86ejIlvez53UjO-17" value="E53 Place" style="swimlane;childLayout=stackLayout;horizontal=1;startSize=30;horizontalStack=0;rounded=1;fontSize=12;fontStyle=1;strokeWidth=1;resizeParent=0;resizeLast=1;shadow=0;align=center;arcSize=4;whiteSpace=wrap;html=1;fillStyle=auto;swimlaneFillColor=none;fillColor=#CCCCCC;fontColor=#000000;" parent="1" vertex="1">
          <mxGeometry x="720" y="600" width="160" height="60" as="geometry">
            <mxRectangle x="470" y="160" width="90" height="30" as="alternateBounds" />
          </mxGeometry>
        </mxCell>
        <mxCell id="RAKLjF86ejIlvez53UjO-18" value="id" style="align=center;strokeColor=none;fillColor=none;spacingLeft=4;fontSize=12;verticalAlign=top;resizable=0;rotatable=0;part=1;html=1;" parent="RAKLjF86ejIlvez53UjO-17" vertex="1">
          <mxGeometry y="30" width="160" height="30" as="geometry" />
        </mxCell>
        <mxCell id="RAKLjF86ejIlvez53UjO-19" value="E94 Space Primitive" style="swimlane;childLayout=stackLayout;horizontal=1;startSize=30;horizontalStack=0;rounded=1;fontSize=12;fontStyle=1;strokeWidth=1;resizeParent=0;resizeLast=1;shadow=0;align=center;arcSize=4;whiteSpace=wrap;html=1;fillStyle=auto;swimlaneFillColor=default;fillColor=#CCCCCC;fontColor=#000000;" parent="1" vertex="1">
          <mxGeometry x="720" y="745" width="160" height="120" as="geometry">
            <mxRectangle x="470" y="160" width="90" height="30" as="alternateBounds" />
          </mxGeometry>
        </mxCell>
        <mxCell id="RAKLjF86ejIlvez53UjO-20" value="id&lt;br&gt;latitude&lt;br&gt;longitude&lt;br&gt;altitude&lt;br&gt;point" style="align=center;strokeColor=none;fillColor=none;spacingLeft=4;fontSize=12;verticalAlign=top;resizable=0;rotatable=0;part=1;html=1;" parent="RAKLjF86ejIlvez53UjO-19" vertex="1">
          <mxGeometry y="30" width="160" height="90" as="geometry" />
        </mxCell>
        <mxCell id="RAKLjF86ejIlvez53UjO-22" value="E6 Destruction" style="swimlane;childLayout=stackLayout;horizontal=1;startSize=30;horizontalStack=0;rounded=1;fontSize=12;fontStyle=1;strokeWidth=1;resizeParent=0;resizeLast=1;shadow=0;align=center;arcSize=4;whiteSpace=wrap;html=1;fillStyle=auto;swimlaneFillColor=none;fillColor=#CCCCCC;fontColor=#000000;" parent="1" vertex="1">
          <mxGeometry x="720" y="500" width="160" height="60" as="geometry">
            <mxRectangle x="470" y="160" width="90" height="30" as="alternateBounds" />
          </mxGeometry>
        </mxCell>
        <mxCell id="RAKLjF86ejIlvez53UjO-23" value="id" style="align=center;strokeColor=none;fillColor=none;spacingLeft=4;fontSize=12;verticalAlign=top;resizable=0;rotatable=0;part=1;html=1;" parent="RAKLjF86ejIlvez53UjO-22" vertex="1">
          <mxGeometry y="30" width="160" height="30" as="geometry" />
        </mxCell>
        <mxCell id="RAKLjF86ejIlvez53UjO-24" value="E61 Time Primitive" style="swimlane;childLayout=stackLayout;horizontal=1;startSize=30;horizontalStack=0;rounded=1;fontSize=12;fontStyle=1;strokeWidth=1;resizeParent=0;resizeLast=1;shadow=0;align=center;arcSize=4;whiteSpace=wrap;html=1;fillStyle=auto;swimlaneFillColor=none;fillColor=#CCCCCC;fontColor=#000000;" parent="1" vertex="1">
          <mxGeometry x="1360" y="395" width="160" height="70" as="geometry">
            <mxRectangle x="470" y="160" width="90" height="30" as="alternateBounds" />
          </mxGeometry>
        </mxCell>
        <mxCell id="RAKLjF86ejIlvez53UjO-25" value="id&lt;br&gt;&lt;div style=&quot;&quot;&gt;&lt;span style=&quot;background-color: initial;&quot;&gt;value&lt;br&gt;&lt;/span&gt;&lt;/div&gt;" style="align=center;strokeColor=none;fillColor=none;spacingLeft=4;fontSize=12;verticalAlign=top;resizable=0;rotatable=0;part=1;html=1;" parent="RAKLjF86ejIlvez53UjO-24" vertex="1">
          <mxGeometry y="30" width="160" height="40" as="geometry" />
        </mxCell>
        <mxCell id="RAKLjF86ejIlvez53UjO-26" value="E52 Time-Span" style="swimlane;childLayout=stackLayout;horizontal=1;startSize=30;horizontalStack=0;rounded=1;fontSize=12;fontStyle=1;strokeWidth=1;resizeParent=0;resizeLast=1;shadow=0;align=center;arcSize=4;whiteSpace=wrap;html=1;fillStyle=auto;swimlaneFillColor=none;fillColor=#CCCCCC;fontColor=#000000;" parent="1" vertex="1">
          <mxGeometry x="1040" y="500" width="160" height="60" as="geometry">
            <mxRectangle x="470" y="160" width="90" height="30" as="alternateBounds" />
          </mxGeometry>
        </mxCell>
        <mxCell id="RAKLjF86ejIlvez53UjO-27" value="id" style="align=center;strokeColor=none;fillColor=none;spacingLeft=4;fontSize=12;verticalAlign=top;resizable=0;rotatable=0;part=1;html=1;" parent="RAKLjF86ejIlvez53UjO-26" vertex="1">
          <mxGeometry y="30" width="160" height="30" as="geometry" />
        </mxCell>
        <mxCell id="RAKLjF86ejIlvez53UjO-28" style="edgeStyle=orthogonalEdgeStyle;rounded=0;orthogonalLoop=1;jettySize=auto;html=1;entryX=0;entryY=0.5;entryDx=0;entryDy=0;" parent="1" source="RAKLjF86ejIlvez53UjO-13" target="RAKLjF86ejIlvez53UjO-15" edge="1">
          <mxGeometry relative="1" as="geometry" />
        </mxCell>
        <mxCell id="RAKLjF86ejIlvez53UjO-29" value="P4 has time-span" style="edgeLabel;html=1;align=center;verticalAlign=middle;resizable=0;points=[];" parent="RAKLjF86ejIlvez53UjO-28" vertex="1" connectable="0">
          <mxGeometry relative="1" as="geometry">
            <mxPoint as="offset" />
          </mxGeometry>
        </mxCell>
        <mxCell id="RAKLjF86ejIlvez53UjO-30" style="edgeStyle=orthogonalEdgeStyle;rounded=0;orthogonalLoop=1;jettySize=auto;html=1;" parent="1" source="RAKLjF86ejIlvez53UjO-22" target="RAKLjF86ejIlvez53UjO-26" edge="1">
          <mxGeometry relative="1" as="geometry">
            <mxPoint x="890" y="440" as="sourcePoint" />
            <mxPoint x="1050" y="440" as="targetPoint" />
          </mxGeometry>
        </mxCell>
        <mxCell id="RAKLjF86ejIlvez53UjO-31" value="P4 has time-span" style="edgeLabel;html=1;align=center;verticalAlign=middle;resizable=0;points=[];" parent="RAKLjF86ejIlvez53UjO-30" vertex="1" connectable="0">
          <mxGeometry relative="1" as="geometry">
            <mxPoint as="offset" />
          </mxGeometry>
        </mxCell>
        <mxCell id="RAKLjF86ejIlvez53UjO-32" style="edgeStyle=orthogonalEdgeStyle;rounded=0;orthogonalLoop=1;jettySize=auto;html=1;" parent="1" source="RAKLjF86ejIlvez53UjO-15" target="RAKLjF86ejIlvez53UjO-24" edge="1">
          <mxGeometry relative="1" as="geometry">
            <mxPoint x="900" y="450" as="sourcePoint" />
            <mxPoint x="1060" y="450" as="targetPoint" />
          </mxGeometry>
        </mxCell>
        <mxCell id="RAKLjF86ejIlvez53UjO-33" value="P82 at some&lt;br&gt;time within" style="edgeLabel;html=1;align=center;verticalAlign=middle;resizable=0;points=[];" parent="RAKLjF86ejIlvez53UjO-32" vertex="1" connectable="0">
          <mxGeometry x="0.2" y="-1" relative="1" as="geometry">
            <mxPoint x="-12" y="-1" as="offset" />
          </mxGeometry>
        </mxCell>
        <mxCell id="RAKLjF86ejIlvez53UjO-38" value="E61 Time Primitive" style="swimlane;childLayout=stackLayout;horizontal=1;startSize=30;horizontalStack=0;rounded=1;fontSize=12;fontStyle=1;strokeWidth=1;resizeParent=0;resizeLast=1;shadow=0;align=center;arcSize=4;whiteSpace=wrap;html=1;fillStyle=auto;swimlaneFillColor=none;fillColor=#CCCCCC;fontColor=#000000;" parent="1" vertex="1">
          <mxGeometry x="1360" y="495" width="160" height="70" as="geometry">
            <mxRectangle x="470" y="160" width="90" height="30" as="alternateBounds" />
          </mxGeometry>
        </mxCell>
        <mxCell id="RAKLjF86ejIlvez53UjO-39" value="id&lt;br&gt;&lt;div style=&quot;&quot;&gt;&lt;span style=&quot;background-color: initial;&quot;&gt;value&lt;br&gt;&lt;/span&gt;&lt;/div&gt;" style="align=center;strokeColor=none;fillColor=none;spacingLeft=4;fontSize=12;verticalAlign=top;resizable=0;rotatable=0;part=1;html=1;" parent="RAKLjF86ejIlvez53UjO-38" vertex="1">
          <mxGeometry y="30" width="160" height="40" as="geometry" />
        </mxCell>
        <mxCell id="RAKLjF86ejIlvez53UjO-40" style="edgeStyle=orthogonalEdgeStyle;rounded=0;orthogonalLoop=1;jettySize=auto;html=1;" parent="1" source="RAKLjF86ejIlvez53UjO-26" target="RAKLjF86ejIlvez53UjO-38" edge="1">
          <mxGeometry relative="1" as="geometry">
            <mxPoint x="1210" y="440" as="sourcePoint" />
            <mxPoint x="1370" y="440" as="targetPoint" />
          </mxGeometry>
        </mxCell>
        <mxCell id="RAKLjF86ejIlvez53UjO-41" value="P82 at some&lt;br&gt;time within" style="edgeLabel;html=1;align=center;verticalAlign=middle;resizable=0;points=[];" parent="RAKLjF86ejIlvez53UjO-40" vertex="1" connectable="0">
          <mxGeometry x="0.2" y="-1" relative="1" as="geometry">
            <mxPoint x="-12" y="-1" as="offset" />
          </mxGeometry>
        </mxCell>
        <mxCell id="RAKLjF86ejIlvez53UjO-46" value="E45 Address" style="swimlane;childLayout=stackLayout;horizontal=1;startSize=30;horizontalStack=0;rounded=1;fontSize=12;fontStyle=1;strokeWidth=1;resizeParent=0;resizeLast=1;shadow=0;align=center;arcSize=4;whiteSpace=wrap;html=1;fillStyle=auto;swimlaneFillColor=none;fillColor=#CCCCCC;fontColor=#000000;" parent="1" vertex="1">
          <mxGeometry x="1040" y="595" width="160" height="70" as="geometry">
            <mxRectangle x="470" y="160" width="90" height="30" as="alternateBounds" />
          </mxGeometry>
        </mxCell>
        <mxCell id="RAKLjF86ejIlvez53UjO-47" value="id&lt;br&gt;&lt;div style=&quot;&quot;&gt;&lt;span style=&quot;background-color: initial;&quot;&gt;value&lt;/span&gt;&lt;/div&gt;" style="align=center;strokeColor=none;fillColor=none;spacingLeft=4;fontSize=12;verticalAlign=top;resizable=0;rotatable=0;part=1;html=1;" parent="RAKLjF86ejIlvez53UjO-46" vertex="1">
          <mxGeometry y="30" width="160" height="40" as="geometry" />
        </mxCell>
        <mxCell id="RAKLjF86ejIlvez53UjO-54" value="E62 String" style="swimlane;childLayout=stackLayout;horizontal=1;startSize=30;horizontalStack=0;rounded=1;fontSize=12;fontStyle=1;strokeWidth=1;resizeParent=0;resizeLast=1;shadow=0;align=center;arcSize=4;whiteSpace=wrap;html=1;fillStyle=auto;swimlaneFillColor=none;fillColor=#CCCCCC;fontColor=#000000;" parent="1" vertex="1">
          <mxGeometry x="80" y="220" width="160" height="70" as="geometry">
            <mxRectangle x="470" y="160" width="90" height="30" as="alternateBounds" />
          </mxGeometry>
        </mxCell>
        <mxCell id="RAKLjF86ejIlvez53UjO-55" value="id&lt;br&gt;&lt;div style=&quot;&quot;&gt;&lt;span style=&quot;background-color: initial;&quot;&gt;value&lt;/span&gt;&lt;/div&gt;" style="align=center;strokeColor=none;fillColor=none;spacingLeft=4;fontSize=12;verticalAlign=top;resizable=0;rotatable=0;part=1;html=1;" parent="RAKLjF86ejIlvez53UjO-54" vertex="1">
          <mxGeometry y="30" width="160" height="40" as="geometry" />
        </mxCell>
        <mxCell id="RAKLjF86ejIlvez53UjO-62" value="E53 Place" style="swimlane;childLayout=stackLayout;horizontal=1;startSize=30;horizontalStack=0;rounded=1;fontSize=12;fontStyle=1;strokeWidth=1;resizeParent=0;resizeLast=1;shadow=0;align=center;arcSize=4;whiteSpace=wrap;html=1;fillStyle=auto;swimlaneFillColor=none;fillColor=#CCCCCC;fontColor=#000000;" parent="1" vertex="1">
          <mxGeometry x="1040" y="745" width="160" height="70" as="geometry">
            <mxRectangle x="470" y="160" width="90" height="30" as="alternateBounds" />
          </mxGeometry>
        </mxCell>
        <mxCell id="RAKLjF86ejIlvez53UjO-63" value="id&lt;br&gt;&lt;div style=&quot;&quot;&gt;&lt;span style=&quot;background-color: initial;&quot;&gt;osm&lt;/span&gt;&lt;/div&gt;" style="align=center;strokeColor=none;fillColor=none;spacingLeft=4;fontSize=12;verticalAlign=top;resizable=0;rotatable=0;part=1;html=1;" parent="RAKLjF86ejIlvez53UjO-62" vertex="1">
          <mxGeometry y="30" width="160" height="40" as="geometry" />
        </mxCell>
        <mxCell id="RAKLjF86ejIlvez53UjO-65" style="edgeStyle=orthogonalEdgeStyle;rounded=1;orthogonalLoop=1;jettySize=auto;html=1;exitX=1;exitY=0.5;exitDx=0;exitDy=0;dashed=1;" parent="1" source="RAKLjF86ejIlvez53UjO-18" edge="1">
          <mxGeometry relative="1" as="geometry">
            <mxPoint x="1040" y="785" as="targetPoint" />
            <Array as="points">
              <mxPoint x="960" y="645" />
              <mxPoint x="960" y="785" />
            </Array>
          </mxGeometry>
        </mxCell>
        <mxCell id="RAKLjF86ejIlvez53UjO-66" value="P121 overlaps with" style="edgeLabel;html=1;align=center;verticalAlign=middle;resizable=0;points=[];" parent="RAKLjF86ejIlvez53UjO-65" vertex="1" connectable="0">
          <mxGeometry relative="1" as="geometry">
            <mxPoint as="offset" />
          </mxGeometry>
        </mxCell>
        <mxCell id="RAKLjF86ejIlvez53UjO-67" style="edgeStyle=orthogonalEdgeStyle;orthogonalLoop=1;jettySize=auto;html=1;entryX=0.5;entryY=1;entryDx=0;entryDy=0;rounded=1;dashed=1;" parent="1" source="RAKLjF86ejIlvez53UjO-46" target="RAKLjF86ejIlvez53UjO-46" edge="1">
          <mxGeometry relative="1" as="geometry">
            <mxPoint x="1200" y="715" as="targetPoint" />
            <mxPoint x="1220" y="625" as="sourcePoint" />
            <Array as="points">
              <mxPoint x="1250" y="630" />
              <mxPoint x="1250" y="705" />
              <mxPoint x="1120" y="705" />
            </Array>
          </mxGeometry>
        </mxCell>
        <mxCell id="RAKLjF86ejIlvez53UjO-68" value="P139 has&lt;br&gt;alternative form" style="edgeLabel;html=1;align=center;verticalAlign=middle;resizable=0;points=[];" parent="RAKLjF86ejIlvez53UjO-67" vertex="1" connectable="0">
          <mxGeometry relative="1" as="geometry">
            <mxPoint x="22" y="-40" as="offset" />
          </mxGeometry>
        </mxCell>
        <mxCell id="_7lDa83vHKBklteg1HPJ-5" value="Segmentation" style="rounded=0;whiteSpace=wrap;html=1;fillColor=#f0a30a;fontColor=#4D4D4D;strokeColor=#BD7000;opacity=20;strokeWidth=3;verticalAlign=top;labelBackgroundColor=none;labelBorderColor=none;align=left;spacing=2;spacingLeft=7;" parent="1" vertex="1">
          <mxGeometry x="80" y="760" width="560" height="330" as="geometry" />
        </mxCell>
        <mxCell id="_7lDa83vHKBklteg1HPJ-6" value="E22 Human-Made Object / Annotation" style="swimlane;childLayout=stackLayout;horizontal=1;startSize=30;horizontalStack=0;rounded=1;fontSize=12;fontStyle=1;strokeWidth=1;resizeParent=0;resizeLast=1;shadow=0;align=center;arcSize=4;whiteSpace=wrap;html=1;fillStyle=auto;swimlaneFillColor=default;fillColor=#CCCCCC;fontColor=#000000;" parent="1" vertex="1">
          <mxGeometry x="280" y="790" width="160" height="100" as="geometry">
            <mxRectangle x="470" y="160" width="90" height="30" as="alternateBounds" />
          </mxGeometry>
        </mxCell>
        <mxCell id="_7lDa83vHKBklteg1HPJ-7" value="id&lt;br&gt;objectName&lt;br&gt;bbox&lt;br&gt;volume" style="align=center;strokeColor=none;fillColor=none;spacingLeft=4;fontSize=12;verticalAlign=top;resizable=0;rotatable=0;part=1;html=1;" parent="_7lDa83vHKBklteg1HPJ-6" vertex="1">
          <mxGeometry y="30" width="160" height="70" as="geometry" />
        </mxCell>
        <mxCell id="_7lDa83vHKBklteg1HPJ-12" value="E55 Type / AAT" style="swimlane;childLayout=stackLayout;horizontal=1;startSize=30;horizontalStack=0;rounded=1;fontSize=12;fontStyle=1;strokeWidth=1;resizeParent=0;resizeLast=1;shadow=0;align=center;arcSize=4;whiteSpace=wrap;html=1;fillStyle=auto;swimlaneFillColor=default;fillColor=#CCCCCC;fontColor=#000000;" parent="1" vertex="1">
          <mxGeometry x="180" y="949.98" width="160" height="90" as="geometry">
            <mxRectangle x="470" y="160" width="90" height="30" as="alternateBounds" />
          </mxGeometry>
        </mxCell>
        <mxCell id="_7lDa83vHKBklteg1HPJ-13" value="id&lt;br&gt;identifier&lt;br&gt;label" style="align=center;strokeColor=none;fillColor=none;spacingLeft=4;fontSize=12;verticalAlign=top;resizable=0;rotatable=0;part=1;html=1;" parent="_7lDa83vHKBklteg1HPJ-12" vertex="1">
          <mxGeometry y="30" width="160" height="60" as="geometry" />
        </mxCell>
        <mxCell id="_7lDa83vHKBklteg1HPJ-14" style="edgeStyle=orthogonalEdgeStyle;rounded=1;orthogonalLoop=1;jettySize=auto;html=1;exitX=1;exitY=0.25;exitDx=0;exitDy=0;entryX=0.75;entryY=0;entryDx=0;entryDy=0;startArrow=classic;startFill=1;endArrow=none;endFill=0;dashed=1;strokeColor=#99004D;" parent="1" source="_7lDa83vHKBklteg1HPJ-16" target="_7lDa83vHKBklteg1HPJ-16" edge="1">
          <mxGeometry relative="1" as="geometry">
            <mxPoint x="670" y="1170" as="targetPoint" />
            <Array as="points">
              <mxPoint x="590" y="973" />
              <mxPoint x="590" y="920" />
              <mxPoint x="500" y="920" />
            </Array>
          </mxGeometry>
        </mxCell>
        <mxCell id="_7lDa83vHKBklteg1HPJ-15" value="is similar&lt;br&gt;[weight]" style="edgeLabel;html=1;align=center;verticalAlign=middle;resizable=0;points=[];fontColor=#99004D;" parent="_7lDa83vHKBklteg1HPJ-14" vertex="1" connectable="0">
          <mxGeometry relative="1" as="geometry">
            <mxPoint x="-31" as="offset" />
          </mxGeometry>
        </mxCell>
        <mxCell id="_7lDa83vHKBklteg1HPJ-16" value="E55 Type / Wikidata" style="swimlane;childLayout=stackLayout;horizontal=1;startSize=30;horizontalStack=0;rounded=1;fontSize=12;fontStyle=1;strokeWidth=1;resizeParent=0;resizeLast=1;shadow=0;align=center;arcSize=4;whiteSpace=wrap;html=1;fillStyle=auto;swimlaneFillColor=default;fillColor=#CCCCCC;fontColor=#000000;" parent="1" vertex="1">
          <mxGeometry x="380.01" y="949.98" width="160" height="90" as="geometry">
            <mxRectangle x="470" y="160" width="90" height="30" as="alternateBounds" />
          </mxGeometry>
        </mxCell>
        <mxCell id="_7lDa83vHKBklteg1HPJ-17" value="id&lt;br&gt;identifier&lt;br&gt;label" style="align=center;strokeColor=none;fillColor=none;spacingLeft=4;fontSize=12;verticalAlign=top;resizable=0;rotatable=0;part=1;html=1;" parent="_7lDa83vHKBklteg1HPJ-16" vertex="1">
          <mxGeometry y="30" width="160" height="60" as="geometry" />
        </mxCell>
        <mxCell id="_7lDa83vHKBklteg1HPJ-18" style="edgeStyle=orthogonalEdgeStyle;rounded=1;orthogonalLoop=1;jettySize=auto;html=1;exitX=1;exitY=0.25;exitDx=0;exitDy=0;entryX=0.5;entryY=1;entryDx=0;entryDy=0;dashed=1;" parent="_7lDa83vHKBklteg1HPJ-16" source="_7lDa83vHKBklteg1HPJ-17" target="_7lDa83vHKBklteg1HPJ-17" edge="1">
          <mxGeometry relative="1" as="geometry">
            <mxPoint x="180" y="220" as="targetPoint" />
            <Array as="points">
              <mxPoint x="210" y="45" />
              <mxPoint x="210" y="120" />
              <mxPoint x="80" y="120" />
            </Array>
          </mxGeometry>
        </mxCell>
        <mxCell id="_7lDa83vHKBklteg1HPJ-19" value="P127 has&lt;br&gt;broader term" style="edgeLabel;html=1;align=center;verticalAlign=middle;resizable=0;points=[];" parent="_7lDa83vHKBklteg1HPJ-18" vertex="1" connectable="0">
          <mxGeometry x="-0.2308" y="1" relative="1" as="geometry">
            <mxPoint y="-22" as="offset" />
          </mxGeometry>
        </mxCell>
        <mxCell id="_7lDa83vHKBklteg1HPJ-20" style="edgeStyle=orthogonalEdgeStyle;rounded=1;orthogonalLoop=1;jettySize=auto;html=1;dashed=1;" parent="1" source="_7lDa83vHKBklteg1HPJ-12" target="_7lDa83vHKBklteg1HPJ-12" edge="1">
          <mxGeometry relative="1" as="geometry">
            <mxPoint x="550" y="1359.98" as="targetPoint" />
            <mxPoint x="420" y="959.98" as="sourcePoint" />
            <Array as="points">
              <mxPoint x="130" y="995.05" />
              <mxPoint x="130" y="1070.05" />
              <mxPoint x="260" y="1070.05" />
            </Array>
          </mxGeometry>
        </mxCell>
        <mxCell id="_7lDa83vHKBklteg1HPJ-21" value="P127 has&lt;br&gt;broader term" style="edgeLabel;html=1;align=center;verticalAlign=middle;resizable=0;points=[];" parent="_7lDa83vHKBklteg1HPJ-20" vertex="1" connectable="0">
          <mxGeometry x="-0.2308" y="1" relative="1" as="geometry">
            <mxPoint y="-22" as="offset" />
          </mxGeometry>
        </mxCell>
        <mxCell id="_7lDa83vHKBklteg1HPJ-22" style="edgeStyle=orthogonalEdgeStyle;rounded=1;orthogonalLoop=1;jettySize=auto;html=1;dashed=1;" parent="1" source="_7lDa83vHKBklteg1HPJ-7" target="_7lDa83vHKBklteg1HPJ-16" edge="1">
          <mxGeometry relative="1" as="geometry">
            <Array as="points">
              <mxPoint x="380" y="920" />
              <mxPoint x="460" y="920" />
            </Array>
          </mxGeometry>
        </mxCell>
        <mxCell id="_7lDa83vHKBklteg1HPJ-23" value="P2 has type&lt;br&gt;[confidence]&lt;br&gt;&lt;font color=&quot;#99004d&quot;&gt;[weight]&lt;/font&gt;" style="edgeLabel;html=1;align=center;verticalAlign=middle;resizable=0;points=[];" parent="_7lDa83vHKBklteg1HPJ-22" vertex="1" connectable="0">
          <mxGeometry relative="1" as="geometry">
            <mxPoint as="offset" />
          </mxGeometry>
        </mxCell>
        <mxCell id="_7lDa83vHKBklteg1HPJ-24" style="edgeStyle=orthogonalEdgeStyle;rounded=1;orthogonalLoop=1;jettySize=auto;html=1;dashed=1;" parent="1" source="_7lDa83vHKBklteg1HPJ-7" target="_7lDa83vHKBklteg1HPJ-12" edge="1">
          <mxGeometry relative="1" as="geometry">
            <Array as="points">
              <mxPoint x="340" y="920" />
              <mxPoint x="260" y="920" />
            </Array>
          </mxGeometry>
        </mxCell>
        <mxCell id="_7lDa83vHKBklteg1HPJ-25" value="P2 has type&lt;br&gt;[confidence]&lt;br&gt;&lt;font color=&quot;#99004d&quot;&gt;[weight]&lt;/font&gt;" style="edgeLabel;html=1;align=center;verticalAlign=middle;resizable=0;points=[];" parent="_7lDa83vHKBklteg1HPJ-24" vertex="1" connectable="0">
          <mxGeometry relative="1" as="geometry">
            <mxPoint as="offset" />
          </mxGeometry>
        </mxCell>
        <mxCell id="_7lDa83vHKBklteg1HPJ-26" style="edgeStyle=orthogonalEdgeStyle;rounded=1;orthogonalLoop=1;jettySize=auto;html=1;dashed=1;entryX=0.75;entryY=1;entryDx=0;entryDy=0;exitX=0.25;exitY=1;exitDx=0;exitDy=0;" parent="1" source="_7lDa83vHKBklteg1HPJ-17" target="_7lDa83vHKBklteg1HPJ-13" edge="1">
          <mxGeometry relative="1" as="geometry">
            <Array as="points">
              <mxPoint x="420" y="1070" />
              <mxPoint x="300" y="1070" />
            </Array>
            <mxPoint x="430" y="1070" as="sourcePoint" />
            <mxPoint x="470" y="960" as="targetPoint" />
          </mxGeometry>
        </mxCell>
        <mxCell id="_7lDa83vHKBklteg1HPJ-27" value="refers to aat" style="edgeLabel;html=1;align=center;verticalAlign=middle;resizable=0;points=[];" parent="_7lDa83vHKBklteg1HPJ-26" vertex="1" connectable="0">
          <mxGeometry relative="1" as="geometry">
            <mxPoint as="offset" />
          </mxGeometry>
        </mxCell>
        <mxCell id="_7lDa83vHKBklteg1HPJ-28" style="edgeStyle=orthogonalEdgeStyle;rounded=1;orthogonalLoop=1;jettySize=auto;html=1;exitX=0;exitY=0.25;exitDx=0;exitDy=0;entryX=0.25;entryY=0;entryDx=0;entryDy=0;startArrow=classic;startFill=1;endArrow=none;endFill=0;dashed=1;strokeColor=#99004D;" parent="1" source="_7lDa83vHKBklteg1HPJ-12" target="_7lDa83vHKBklteg1HPJ-12" edge="1">
          <mxGeometry relative="1" as="geometry">
            <mxPoint x="130" y="950" as="targetPoint" />
            <mxPoint x="170" y="972" as="sourcePoint" />
            <Array as="points">
              <mxPoint x="130" y="973" />
              <mxPoint x="130" y="920" />
              <mxPoint x="220" y="920" />
            </Array>
          </mxGeometry>
        </mxCell>
        <mxCell id="_7lDa83vHKBklteg1HPJ-29" value="is similar&lt;br&gt;[weight]" style="edgeLabel;html=1;align=center;verticalAlign=middle;resizable=0;points=[];fontColor=#99004D;" parent="_7lDa83vHKBklteg1HPJ-28" vertex="1" connectable="0">
          <mxGeometry relative="1" as="geometry">
            <mxPoint x="31" as="offset" />
          </mxGeometry>
        </mxCell>
        <mxCell id="_7lDa83vHKBklteg1HPJ-30" style="edgeStyle=orthogonalEdgeStyle;rounded=1;orthogonalLoop=1;jettySize=auto;html=1;exitX=0.25;exitY=1;exitDx=0;exitDy=0;dashed=1;" parent="1" source="RAKLjF86ejIlvez53UjO-2" target="_7lDa83vHKBklteg1HPJ-6" edge="1">
          <mxGeometry relative="1" as="geometry">
            <Array as="points">
              <mxPoint x="440" y="630" />
              <mxPoint x="360" y="630" />
            </Array>
          </mxGeometry>
        </mxCell>
        <mxCell id="_7lDa83vHKBklteg1HPJ-31" value="P46 is composed of" style="edgeLabel;html=1;align=center;verticalAlign=middle;resizable=0;points=[];" parent="_7lDa83vHKBklteg1HPJ-30" vertex="1" connectable="0">
          <mxGeometry x="0.4057" relative="1" as="geometry">
            <mxPoint y="32" as="offset" />
          </mxGeometry>
        </mxCell>
        <mxCell id="_7lDa83vHKBklteg1HPJ-8" style="edgeStyle=orthogonalEdgeStyle;rounded=1;orthogonalLoop=1;jettySize=auto;html=1;dashed=1;" parent="1" edge="1">
          <mxGeometry relative="1" as="geometry">
            <mxPoint x="440" y="865" as="targetPoint" />
            <Array as="points">
              <mxPoint x="530" y="815" />
              <mxPoint x="530" y="865" />
              <mxPoint x="440" y="865" />
            </Array>
            <mxPoint x="440" y="815" as="sourcePoint" />
          </mxGeometry>
        </mxCell>
        <mxCell id="_7lDa83vHKBklteg1HPJ-9" value="is close to&lt;br&gt;[distance]&lt;br&gt;[weight]" style="edgeLabel;html=1;align=center;verticalAlign=middle;resizable=0;points=[];" parent="_7lDa83vHKBklteg1HPJ-8" vertex="1" connectable="0">
          <mxGeometry x="-0.2308" y="1" relative="1" as="geometry">
            <mxPoint y="26" as="offset" />
          </mxGeometry>
        </mxCell>
        <mxCell id="BhzK4nh6iCoqzrvOBLqP-1" value="E42 Identifier" style="swimlane;childLayout=stackLayout;horizontal=1;startSize=30;horizontalStack=0;rounded=1;fontSize=12;fontStyle=1;strokeWidth=1;resizeParent=0;resizeLast=1;shadow=0;align=center;arcSize=4;whiteSpace=wrap;html=1;fillStyle=auto;swimlaneFillColor=none;fillColor=#CCCCCC;fontColor=#000000;" parent="1" vertex="1">
          <mxGeometry x="720" y="220" width="160" height="70" as="geometry">
            <mxRectangle x="470" y="160" width="90" height="30" as="alternateBounds" />
          </mxGeometry>
        </mxCell>
        <mxCell id="BhzK4nh6iCoqzrvOBLqP-2" value="id&lt;br&gt;&lt;div style=&quot;&quot;&gt;&lt;span style=&quot;background-color: initial;&quot;&gt;zenodo_doi?&lt;/span&gt;&lt;/div&gt;" style="align=center;strokeColor=none;fillColor=none;spacingLeft=4;fontSize=12;verticalAlign=top;resizable=0;rotatable=0;part=1;html=1;" parent="BhzK4nh6iCoqzrvOBLqP-1" vertex="1">
          <mxGeometry y="30" width="160" height="40" as="geometry" />
        </mxCell>
        <mxCell id="BhzK4nh6iCoqzrvOBLqP-3" style="edgeStyle=orthogonalEdgeStyle;orthogonalLoop=1;jettySize=auto;html=1;exitX=0.686;exitY=0.001;exitDx=0;exitDy=0;dashed=1;rounded=1;exitPerimeter=0;" parent="1" source="RAKLjF86ejIlvez53UjO-1" target="BhzK4nh6iCoqzrvOBLqP-1" edge="1">
          <mxGeometry relative="1" as="geometry">
            <Array as="points">
              <mxPoint x="510" y="330" />
              <mxPoint x="800" y="330" />
            </Array>
            <mxPoint x="450" y="410" as="sourcePoint" />
            <mxPoint x="170" y="300" as="targetPoint" />
          </mxGeometry>
        </mxCell>
        <mxCell id="BhzK4nh6iCoqzrvOBLqP-4" value="P48 has preferred identifier" style="edgeLabel;html=1;align=center;verticalAlign=middle;resizable=0;points=[];" parent="BhzK4nh6iCoqzrvOBLqP-3" vertex="1" connectable="0">
          <mxGeometry relative="1" as="geometry">
            <mxPoint as="offset" />
          </mxGeometry>
        </mxCell>
      </root>
    </mxGraphModel>
  </diagram>
</mxfile>
