<mxfile host="Electron" agent="Mozilla/5.0 (X11; Linux x86_64) AppleWebKit/537.36 (KHTML, like Gecko) draw.io/26.0.4 Chrome/128.0.6613.186 Electron/32.2.5 Safari/537.36" version="26.0.4">
  <diagram name="Seite-1" id="vX3RHGdpOr-1wesDJP2E">
    <mxGraphModel dx="1834" dy="909" grid="1" gridSize="10" guides="1" tooltips="1" connect="1" arrows="1" fold="1" page="0" pageScale="1" pageWidth="827" pageHeight="1169" background="none" math="0" shadow="0">
      <root>
        <mxCell id="0" />
        <mxCell id="1" parent="0" />
        <mxCell id="K9Nwk68qKovCj_jJDmp7-4" value="User" style="rounded=0;whiteSpace=wrap;html=1;fillColor=#f0a30a;fontColor=#4D4D4D;strokeColor=#BD7000;opacity=20;strokeWidth=3;verticalAlign=top;labelBackgroundColor=none;labelBorderColor=none;align=center;" vertex="1" parent="1">
          <mxGeometry x="20" y="410" width="200" height="110" as="geometry" />
        </mxCell>
        <mxCell id="larpK5dxHuXWnhurxfbb-6" style="edgeStyle=orthogonalEdgeStyle;orthogonalLoop=1;jettySize=auto;html=1;rounded=1;exitX=0.5;exitY=0;exitDx=0;exitDy=0;" parent="1" source="larpK5dxHuXWnhurxfbb-26" target="larpK5dxHuXWnhurxfbb-3" edge="1">
          <mxGeometry relative="1" as="geometry">
            <mxPoint x="450" y="440" as="sourcePoint" />
          </mxGeometry>
        </mxCell>
        <mxCell id="larpK5dxHuXWnhurxfbb-7" value="P102 has titlle" style="edgeLabel;html=1;align=center;verticalAlign=middle;resizable=0;points=[];" parent="larpK5dxHuXWnhurxfbb-6" vertex="1" connectable="0">
          <mxGeometry x="0.4581" y="-3" relative="1" as="geometry">
            <mxPoint x="-3" y="-11" as="offset" />
          </mxGeometry>
        </mxCell>
        <mxCell id="larpK5dxHuXWnhurxfbb-3" value="E35 Title" style="swimlane;childLayout=stackLayout;horizontal=1;startSize=30;horizontalStack=0;rounded=1;fontSize=12;fontStyle=1;strokeWidth=1;resizeParent=0;resizeLast=1;shadow=0;align=center;arcSize=4;whiteSpace=wrap;html=1;fillStyle=auto;swimlaneFillColor=none;fillColor=#CCCCCC;fontColor=#000000;" parent="1" vertex="1">
          <mxGeometry x="360" y="250" width="160" height="70" as="geometry">
            <mxRectangle x="470" y="160" width="90" height="30" as="alternateBounds" />
          </mxGeometry>
        </mxCell>
        <mxCell id="larpK5dxHuXWnhurxfbb-4" value="id&lt;br&gt;&lt;div style=&quot;&quot;&gt;&lt;span style=&quot;background-color: initial;&quot;&gt;value&lt;/span&gt;&lt;/div&gt;" style="align=center;strokeColor=none;fillColor=none;spacingLeft=4;fontSize=12;verticalAlign=top;resizable=0;rotatable=0;part=1;html=1;" parent="larpK5dxHuXWnhurxfbb-3" vertex="1">
          <mxGeometry y="30" width="160" height="40" as="geometry" />
        </mxCell>
        <mxCell id="larpK5dxHuXWnhurxfbb-10" value="E42 Identifier" style="swimlane;childLayout=stackLayout;horizontal=1;startSize=30;horizontalStack=0;rounded=1;fontSize=12;fontStyle=1;strokeWidth=1;resizeParent=0;resizeLast=1;shadow=0;align=center;arcSize=4;whiteSpace=wrap;html=1;fillStyle=auto;swimlaneFillColor=none;fillColor=#CCCCCC;fontColor=#000000;" parent="1" vertex="1">
          <mxGeometry x="690" y="420" width="160" height="100" as="geometry">
            <mxRectangle x="690" y="420" width="90" height="30" as="alternateBounds" />
          </mxGeometry>
        </mxCell>
        <mxCell id="larpK5dxHuXWnhurxfbb-11" value="id&lt;br&gt;&lt;div style=&quot;&quot;&gt;&lt;span style=&quot;background-color: initial;&quot;&gt;value&lt;/span&gt;&lt;/div&gt;&lt;div style=&quot;&quot;&gt;&lt;span style=&quot;background-color: initial;&quot;&gt;doi?&lt;/span&gt;&lt;/div&gt;&lt;div style=&quot;&quot;&gt;&lt;span style=&quot;background-color: initial;&quot;&gt;bibtex?&lt;/span&gt;&lt;/div&gt;" style="align=center;strokeColor=none;fillColor=none;spacingLeft=4;fontSize=12;verticalAlign=top;resizable=0;rotatable=0;part=1;html=1;" parent="larpK5dxHuXWnhurxfbb-10" vertex="1">
          <mxGeometry y="30" width="160" height="70" as="geometry" />
        </mxCell>
        <mxCell id="larpK5dxHuXWnhurxfbb-12" value="D9 Digital Object" style="swimlane;childLayout=stackLayout;horizontal=1;startSize=30;horizontalStack=0;rounded=1;fontSize=12;fontStyle=1;strokeWidth=1;resizeParent=0;resizeLast=1;shadow=0;align=center;arcSize=4;whiteSpace=wrap;html=1;fillStyle=auto;swimlaneFillColor=none;fillColor=#CCCCCC;fontColor=#000000;" parent="1" vertex="1">
          <mxGeometry x="40" y="180" width="160" height="170" as="geometry">
            <mxRectangle x="470" y="160" width="90" height="30" as="alternateBounds" />
          </mxGeometry>
        </mxCell>
        <mxCell id="larpK5dxHuXWnhurxfbb-13" value="id&lt;br&gt;&lt;div style=&quot;&quot;&gt;&lt;span style=&quot;background-color: initial;&quot;&gt;path&lt;br&gt;preview&lt;/span&gt;&lt;/div&gt;&lt;div style=&quot;&quot;&gt;&lt;span style=&quot;background-color: initial;&quot;&gt;thumb&lt;/span&gt;&lt;/div&gt;&lt;div style=&quot;&quot;&gt;&lt;span style=&quot;background-color: initial;&quot;&gt;original&lt;/span&gt;&lt;/div&gt;&lt;div style=&quot;&quot;&gt;&lt;span style=&quot;background-color: initial;&quot;&gt;type&lt;/span&gt;&lt;/div&gt;&lt;div style=&quot;&quot;&gt;&lt;span style=&quot;background-color: initial;&quot;&gt;pdf?&lt;/span&gt;&lt;/div&gt;&lt;div style=&quot;&quot;&gt;&lt;span style=&quot;background-color: initial;&quot;&gt;txt?&lt;/span&gt;&lt;/div&gt;&lt;div style=&quot;&quot;&gt;json?&lt;/div&gt;" style="align=center;strokeColor=none;fillColor=none;spacingLeft=4;fontSize=12;verticalAlign=top;resizable=0;rotatable=0;part=1;html=1;" parent="larpK5dxHuXWnhurxfbb-12" vertex="1">
          <mxGeometry y="30" width="160" height="140" as="geometry" />
        </mxCell>
        <mxCell id="larpK5dxHuXWnhurxfbb-14" value="E61 Time Primitive" style="swimlane;childLayout=stackLayout;horizontal=1;startSize=30;horizontalStack=0;rounded=1;fontSize=12;fontStyle=1;strokeWidth=1;resizeParent=0;resizeLast=1;shadow=0;align=center;arcSize=4;whiteSpace=wrap;html=1;fillStyle=auto;swimlaneFillColor=none;fillColor=#CCCCCC;fontColor=#000000;" parent="1" vertex="1">
          <mxGeometry x="1010" y="520" width="160" height="120" as="geometry">
            <mxRectangle x="470" y="160" width="90" height="30" as="alternateBounds" />
          </mxGeometry>
        </mxCell>
        <mxCell id="larpK5dxHuXWnhurxfbb-15" value="id&lt;br&gt;&lt;div style=&quot;&quot;&gt;&lt;span style=&quot;background-color: initial;&quot;&gt;value&lt;/span&gt;&lt;/div&gt;&lt;div style=&quot;&quot;&gt;&lt;span style=&quot;background-color: initial;&quot;&gt;from&lt;/span&gt;&lt;/div&gt;&lt;div style=&quot;&quot;&gt;&lt;span style=&quot;background-color: initial;&quot;&gt;to&lt;/span&gt;&lt;/div&gt;&lt;div style=&quot;&quot;&gt;&lt;span style=&quot;background-color: initial;&quot;&gt;display&lt;/span&gt;&lt;/div&gt;" style="align=center;strokeColor=none;fillColor=none;spacingLeft=4;fontSize=12;verticalAlign=top;resizable=0;rotatable=0;part=1;html=1;" parent="larpK5dxHuXWnhurxfbb-14" vertex="1">
          <mxGeometry y="30" width="160" height="90" as="geometry" />
        </mxCell>
        <mxCell id="larpK5dxHuXWnhurxfbb-16" value="E82 Actor Appellation" style="swimlane;childLayout=stackLayout;horizontal=1;startSize=30;horizontalStack=0;rounded=1;fontSize=12;fontStyle=1;strokeWidth=1;resizeParent=0;resizeLast=1;shadow=0;align=center;arcSize=4;whiteSpace=wrap;html=1;fillStyle=auto;swimlaneFillColor=none;fillColor=#CCCCCC;fontColor=#000000;" parent="1" vertex="1">
          <mxGeometry x="1010" y="665" width="160" height="70" as="geometry">
            <mxRectangle x="470" y="160" width="90" height="30" as="alternateBounds" />
          </mxGeometry>
        </mxCell>
        <mxCell id="larpK5dxHuXWnhurxfbb-17" value="id&lt;br&gt;&lt;div style=&quot;&quot;&gt;&lt;span style=&quot;background-color: initial;&quot;&gt;value&lt;/span&gt;&lt;/div&gt;" style="align=center;strokeColor=none;fillColor=none;spacingLeft=4;fontSize=12;verticalAlign=top;resizable=0;rotatable=0;part=1;html=1;" parent="larpK5dxHuXWnhurxfbb-16" vertex="1">
          <mxGeometry y="30" width="160" height="40" as="geometry" />
        </mxCell>
        <mxCell id="larpK5dxHuXWnhurxfbb-33" style="edgeStyle=orthogonalEdgeStyle;rounded=0;orthogonalLoop=1;jettySize=auto;html=1;dashed=1;" parent="1" source="larpK5dxHuXWnhurxfbb-18" target="larpK5dxHuXWnhurxfbb-16" edge="1">
          <mxGeometry relative="1" as="geometry" />
        </mxCell>
        <mxCell id="larpK5dxHuXWnhurxfbb-34" value="P131 is identified by" style="edgeLabel;html=1;align=center;verticalAlign=middle;resizable=0;points=[];" parent="larpK5dxHuXWnhurxfbb-33" vertex="1" connectable="0">
          <mxGeometry x="0.1923" relative="1" as="geometry">
            <mxPoint x="-15" as="offset" />
          </mxGeometry>
        </mxCell>
        <mxCell id="larpK5dxHuXWnhurxfbb-18" value="E21 Person" style="swimlane;childLayout=stackLayout;horizontal=1;startSize=30;horizontalStack=0;rounded=1;fontSize=12;fontStyle=1;strokeWidth=1;resizeParent=0;resizeLast=1;shadow=0;align=center;arcSize=4;whiteSpace=wrap;html=1;fillStyle=auto;swimlaneFillColor=none;fillColor=#CCCCCC;fontColor=#000000;" parent="1" vertex="1">
          <mxGeometry x="690" y="670" width="160" height="60" as="geometry">
            <mxRectangle x="470" y="160" width="90" height="30" as="alternateBounds" />
          </mxGeometry>
        </mxCell>
        <mxCell id="larpK5dxHuXWnhurxfbb-19" value="id" style="align=center;strokeColor=none;fillColor=none;spacingLeft=4;fontSize=12;verticalAlign=top;resizable=0;rotatable=0;part=1;html=1;" parent="larpK5dxHuXWnhurxfbb-18" vertex="1">
          <mxGeometry y="30" width="160" height="30" as="geometry" />
        </mxCell>
        <mxCell id="larpK5dxHuXWnhurxfbb-29" style="edgeStyle=orthogonalEdgeStyle;orthogonalLoop=1;jettySize=auto;html=1;entryX=0;entryY=0;entryDx=0;entryDy=0;rounded=1;dashed=1;" parent="1" source="larpK5dxHuXWnhurxfbb-20" target="larpK5dxHuXWnhurxfbb-24" edge="1">
          <mxGeometry relative="1" as="geometry">
            <mxPoint x="530" y="640" as="sourcePoint" />
            <Array as="points">
              <mxPoint x="550" y="630" />
              <mxPoint x="550" y="580" />
            </Array>
          </mxGeometry>
        </mxCell>
        <mxCell id="larpK5dxHuXWnhurxfbb-32" value="P4 has time-span" style="edgeLabel;html=1;align=center;verticalAlign=middle;resizable=0;points=[];" parent="larpK5dxHuXWnhurxfbb-29" vertex="1" connectable="0">
          <mxGeometry x="0.3922" relative="1" as="geometry">
            <mxPoint x="-13" as="offset" />
          </mxGeometry>
        </mxCell>
        <mxCell id="larpK5dxHuXWnhurxfbb-37" style="edgeStyle=orthogonalEdgeStyle;rounded=0;orthogonalLoop=1;jettySize=auto;html=1;" parent="1" source="larpK5dxHuXWnhurxfbb-20" target="larpK5dxHuXWnhurxfbb-25" edge="1">
          <mxGeometry relative="1" as="geometry" />
        </mxCell>
        <mxCell id="larpK5dxHuXWnhurxfbb-38" value="P94 has created" style="edgeLabel;html=1;align=center;verticalAlign=middle;resizable=0;points=[];" parent="larpK5dxHuXWnhurxfbb-37" vertex="1" connectable="0">
          <mxGeometry x="0.2455" relative="1" as="geometry">
            <mxPoint y="8" as="offset" />
          </mxGeometry>
        </mxCell>
        <mxCell id="larpK5dxHuXWnhurxfbb-20" value="E65 Creation" style="swimlane;childLayout=stackLayout;horizontal=1;startSize=30;horizontalStack=0;rounded=1;fontSize=12;fontStyle=1;strokeWidth=1;resizeParent=0;resizeLast=1;shadow=0;align=center;arcSize=4;whiteSpace=wrap;html=1;fillStyle=auto;swimlaneFillColor=none;fillColor=#CCCCCC;fontColor=#000000;" parent="1" vertex="1">
          <mxGeometry x="360" y="610" width="160" height="60" as="geometry">
            <mxRectangle x="470" y="160" width="90" height="30" as="alternateBounds" />
          </mxGeometry>
        </mxCell>
        <mxCell id="larpK5dxHuXWnhurxfbb-21" value="id" style="align=center;strokeColor=none;fillColor=none;spacingLeft=4;fontSize=12;verticalAlign=top;resizable=0;rotatable=0;part=1;html=1;" parent="larpK5dxHuXWnhurxfbb-20" vertex="1">
          <mxGeometry y="30" width="160" height="30" as="geometry" />
        </mxCell>
        <mxCell id="larpK5dxHuXWnhurxfbb-35" style="edgeStyle=orthogonalEdgeStyle;rounded=0;orthogonalLoop=1;jettySize=auto;html=1;dashed=1;" parent="1" source="larpK5dxHuXWnhurxfbb-23" target="larpK5dxHuXWnhurxfbb-14" edge="1">
          <mxGeometry relative="1" as="geometry" />
        </mxCell>
        <mxCell id="larpK5dxHuXWnhurxfbb-36" value="P82 at some&lt;br&gt;time within" style="edgeLabel;html=1;align=center;verticalAlign=middle;resizable=0;points=[];" parent="larpK5dxHuXWnhurxfbb-35" vertex="1" connectable="0">
          <mxGeometry x="-0.2556" y="-2" relative="1" as="geometry">
            <mxPoint x="21" y="-2" as="offset" />
          </mxGeometry>
        </mxCell>
        <mxCell id="larpK5dxHuXWnhurxfbb-23" value="E52 Time-Span" style="swimlane;childLayout=stackLayout;horizontal=1;startSize=30;horizontalStack=0;rounded=1;fontSize=12;fontStyle=1;strokeWidth=1;resizeParent=0;resizeLast=1;shadow=0;align=center;arcSize=4;whiteSpace=wrap;html=1;fillStyle=auto;swimlaneFillColor=none;fillColor=#CCCCCC;fontColor=#000000;" parent="1" vertex="1">
          <mxGeometry x="690" y="550" width="160" height="60" as="geometry">
            <mxRectangle x="470" y="160" width="90" height="30" as="alternateBounds" />
          </mxGeometry>
        </mxCell>
        <mxCell id="larpK5dxHuXWnhurxfbb-24" value="id" style="align=center;strokeColor=none;fillColor=none;spacingLeft=4;fontSize=12;verticalAlign=top;resizable=0;rotatable=0;part=1;html=1;" parent="larpK5dxHuXWnhurxfbb-23" vertex="1">
          <mxGeometry y="30" width="160" height="30" as="geometry" />
        </mxCell>
        <mxCell id="larpK5dxHuXWnhurxfbb-41" style="edgeStyle=orthogonalEdgeStyle;rounded=0;orthogonalLoop=1;jettySize=auto;html=1;" parent="1" source="larpK5dxHuXWnhurxfbb-25" target="larpK5dxHuXWnhurxfbb-10" edge="1">
          <mxGeometry relative="1" as="geometry" />
        </mxCell>
        <mxCell id="larpK5dxHuXWnhurxfbb-42" value="P48 has preferred&lt;br&gt;identifier" style="edgeLabel;html=1;align=center;verticalAlign=middle;resizable=0;points=[];" parent="larpK5dxHuXWnhurxfbb-41" vertex="1" connectable="0">
          <mxGeometry x="0.1961" y="-3" relative="1" as="geometry">
            <mxPoint x="-22" y="-3" as="offset" />
          </mxGeometry>
        </mxCell>
        <mxCell id="larpK5dxHuXWnhurxfbb-51" style="edgeStyle=orthogonalEdgeStyle;rounded=1;orthogonalLoop=1;jettySize=auto;html=1;dashed=1;exitX=0.25;exitY=1;exitDx=0;exitDy=0;" parent="1" source="larpK5dxHuXWnhurxfbb-26" target="OAjJ4SIYbCOimFNp4Bia-2" edge="1">
          <mxGeometry relative="1" as="geometry">
            <mxPoint x="200" y="470.0000000000002" as="targetPoint" />
            <Array as="points">
              <mxPoint x="400" y="520" />
              <mxPoint x="280" y="520" />
            </Array>
          </mxGeometry>
        </mxCell>
        <mxCell id="larpK5dxHuXWnhurxfbb-52" value="P106 is composed of" style="edgeLabel;html=1;align=center;verticalAlign=middle;resizable=0;points=[];" parent="larpK5dxHuXWnhurxfbb-51" vertex="1" connectable="0">
          <mxGeometry relative="1" as="geometry">
            <mxPoint as="offset" />
          </mxGeometry>
        </mxCell>
        <mxCell id="larpK5dxHuXWnhurxfbb-58" style="edgeStyle=orthogonalEdgeStyle;rounded=1;orthogonalLoop=1;jettySize=auto;html=1;exitX=0.75;exitY=0;exitDx=0;exitDy=0;dashed=1;" parent="1" source="larpK5dxHuXWnhurxfbb-25" target="larpK5dxHuXWnhurxfbb-39" edge="1">
          <mxGeometry relative="1" as="geometry">
            <Array as="points">
              <mxPoint x="480" y="370" />
              <mxPoint x="770" y="370" />
            </Array>
          </mxGeometry>
        </mxCell>
        <mxCell id="larpK5dxHuXWnhurxfbb-59" value="has tag" style="edgeLabel;html=1;align=center;verticalAlign=middle;resizable=0;points=[];" parent="larpK5dxHuXWnhurxfbb-58" vertex="1" connectable="0">
          <mxGeometry x="-0.1158" relative="1" as="geometry">
            <mxPoint x="39" as="offset" />
          </mxGeometry>
        </mxCell>
        <mxCell id="K9Nwk68qKovCj_jJDmp7-6" style="edgeStyle=orthogonalEdgeStyle;rounded=0;orthogonalLoop=1;jettySize=auto;html=1;entryX=1;entryY=0.5;entryDx=0;entryDy=0;exitX=0;exitY=0.5;exitDx=0;exitDy=0;dashed=1;" edge="1" parent="1" source="larpK5dxHuXWnhurxfbb-26" target="K9Nwk68qKovCj_jJDmp7-2">
          <mxGeometry relative="1" as="geometry" />
        </mxCell>
        <mxCell id="K9Nwk68qKovCj_jJDmp7-9" value="edited by&lt;div&gt;[timestamp]&lt;/div&gt;" style="edgeLabel;html=1;align=center;verticalAlign=middle;resizable=0;points=[];" vertex="1" connectable="0" parent="K9Nwk68qKovCj_jJDmp7-6">
          <mxGeometry relative="1" as="geometry">
            <mxPoint as="offset" />
          </mxGeometry>
        </mxCell>
        <mxCell id="K9Nwk68qKovCj_jJDmp7-7" style="edgeStyle=orthogonalEdgeStyle;rounded=0;orthogonalLoop=1;jettySize=auto;html=1;entryX=1;entryY=0.25;entryDx=0;entryDy=0;exitX=0;exitY=0.25;exitDx=0;exitDy=0;dashed=1;" edge="1" parent="1" source="larpK5dxHuXWnhurxfbb-25" target="K9Nwk68qKovCj_jJDmp7-1">
          <mxGeometry relative="1" as="geometry" />
        </mxCell>
        <mxCell id="K9Nwk68qKovCj_jJDmp7-8" value="uploaded by&lt;div&gt;[timestamp]&lt;/div&gt;" style="edgeLabel;html=1;align=center;verticalAlign=middle;resizable=0;points=[];" vertex="1" connectable="0" parent="K9Nwk68qKovCj_jJDmp7-7">
          <mxGeometry relative="1" as="geometry">
            <mxPoint as="offset" />
          </mxGeometry>
        </mxCell>
        <mxCell id="larpK5dxHuXWnhurxfbb-25" value="E33 Linguistic Object" style="swimlane;childLayout=stackLayout;horizontal=1;startSize=30;horizontalStack=0;rounded=1;fontSize=12;fontStyle=1;strokeWidth=3;resizeParent=0;resizeLast=1;shadow=0;align=center;arcSize=4;whiteSpace=wrap;html=1;fillStyle=auto;swimlaneFillColor=none;fillColor=#CCCCCC;fontColor=#000000;" parent="1" vertex="1">
          <mxGeometry x="360" y="440" width="160" height="60" as="geometry">
            <mxRectangle x="470" y="160" width="90" height="30" as="alternateBounds" />
          </mxGeometry>
        </mxCell>
        <mxCell id="larpK5dxHuXWnhurxfbb-26" value="id" style="align=center;strokeColor=none;fillColor=none;spacingLeft=4;fontSize=12;verticalAlign=top;resizable=0;rotatable=0;part=1;html=1;" parent="larpK5dxHuXWnhurxfbb-25" vertex="1">
          <mxGeometry y="30" width="160" height="30" as="geometry" />
        </mxCell>
        <mxCell id="larpK5dxHuXWnhurxfbb-30" style="edgeStyle=orthogonalEdgeStyle;orthogonalLoop=1;jettySize=auto;html=1;rounded=1;dashed=1;" parent="1" source="larpK5dxHuXWnhurxfbb-20" target="larpK5dxHuXWnhurxfbb-18" edge="1">
          <mxGeometry relative="1" as="geometry">
            <Array as="points">
              <mxPoint x="550" y="650" />
              <mxPoint x="550" y="700" />
            </Array>
          </mxGeometry>
        </mxCell>
        <mxCell id="larpK5dxHuXWnhurxfbb-31" value="P14 carried out" style="edgeLabel;html=1;align=center;verticalAlign=middle;resizable=0;points=[];" parent="larpK5dxHuXWnhurxfbb-30" vertex="1" connectable="0">
          <mxGeometry x="0.1929" y="-1" relative="1" as="geometry">
            <mxPoint x="9" y="-1" as="offset" />
          </mxGeometry>
        </mxCell>
        <mxCell id="larpK5dxHuXWnhurxfbb-39" value="TAG" style="swimlane;childLayout=stackLayout;horizontal=1;startSize=30;horizontalStack=0;rounded=1;fontSize=12;fontStyle=1;strokeWidth=1;resizeParent=0;resizeLast=1;shadow=0;align=center;arcSize=4;whiteSpace=wrap;html=1;fillStyle=auto;swimlaneFillColor=none;fillColor=#CCCCCC;fontColor=#000000;" parent="1" vertex="1">
          <mxGeometry x="690" y="260" width="160" height="60" as="geometry">
            <mxRectangle x="470" y="160" width="90" height="30" as="alternateBounds" />
          </mxGeometry>
        </mxCell>
        <mxCell id="larpK5dxHuXWnhurxfbb-40" value="id" style="align=center;strokeColor=none;fillColor=none;spacingLeft=4;fontSize=12;verticalAlign=top;resizable=0;rotatable=0;part=1;html=1;" parent="larpK5dxHuXWnhurxfbb-39" vertex="1">
          <mxGeometry y="30" width="160" height="30" as="geometry" />
        </mxCell>
        <mxCell id="larpK5dxHuXWnhurxfbb-43" style="edgeStyle=orthogonalEdgeStyle;rounded=1;orthogonalLoop=1;jettySize=auto;html=1;entryX=0.25;entryY=0;entryDx=0;entryDy=0;exitX=0.5;exitY=1;exitDx=0;exitDy=0;" parent="1" source="larpK5dxHuXWnhurxfbb-13" target="larpK5dxHuXWnhurxfbb-25" edge="1">
          <mxGeometry relative="1" as="geometry">
            <Array as="points">
              <mxPoint x="120" y="370" />
              <mxPoint x="400" y="370" />
            </Array>
          </mxGeometry>
        </mxCell>
        <mxCell id="larpK5dxHuXWnhurxfbb-44" value="P67 refers to" style="edgeLabel;html=1;align=center;verticalAlign=middle;resizable=0;points=[];" parent="larpK5dxHuXWnhurxfbb-43" vertex="1" connectable="0">
          <mxGeometry x="-0.2903" y="-3" relative="1" as="geometry">
            <mxPoint x="40" y="-3" as="offset" />
          </mxGeometry>
        </mxCell>
        <mxCell id="OAjJ4SIYbCOimFNp4Bia-1" value="Segmentation" style="rounded=0;whiteSpace=wrap;html=1;fillColor=#f0a30a;fontColor=#4D4D4D;strokeColor=#BD7000;opacity=20;strokeWidth=3;verticalAlign=top;labelBackgroundColor=none;labelBorderColor=none;align=left;spacing=2;spacingLeft=7;" parent="1" vertex="1">
          <mxGeometry y="730" width="560" height="330" as="geometry" />
        </mxCell>
        <mxCell id="OAjJ4SIYbCOimFNp4Bia-2" value="E33 Linguistic Object / Annotation" style="swimlane;childLayout=stackLayout;horizontal=1;startSize=30;horizontalStack=0;rounded=1;fontSize=12;fontStyle=1;strokeWidth=1;resizeParent=0;resizeLast=1;shadow=0;align=center;arcSize=4;whiteSpace=wrap;html=1;fillStyle=auto;swimlaneFillColor=default;fillColor=#CCCCCC;fontColor=#000000;" parent="1" vertex="1">
          <mxGeometry x="200" y="760" width="160" height="100" as="geometry">
            <mxRectangle x="470" y="160" width="90" height="30" as="alternateBounds" />
          </mxGeometry>
        </mxCell>
        <mxCell id="OAjJ4SIYbCOimFNp4Bia-3" value="id&lt;br&gt;value&lt;br&gt;start&lt;br&gt;end" style="align=center;strokeColor=none;fillColor=none;spacingLeft=4;fontSize=12;verticalAlign=top;resizable=0;rotatable=0;part=1;html=1;" parent="OAjJ4SIYbCOimFNp4Bia-2" vertex="1">
          <mxGeometry y="30" width="160" height="70" as="geometry" />
        </mxCell>
        <mxCell id="OAjJ4SIYbCOimFNp4Bia-4" style="edgeStyle=orthogonalEdgeStyle;rounded=1;orthogonalLoop=1;jettySize=auto;html=1;exitX=1;exitY=0.204;exitDx=0;exitDy=0;entryX=1.001;entryY=0.705;entryDx=0;entryDy=0;dashed=1;exitPerimeter=0;entryPerimeter=0;" parent="OAjJ4SIYbCOimFNp4Bia-2" source="OAjJ4SIYbCOimFNp4Bia-2" target="OAjJ4SIYbCOimFNp4Bia-3" edge="1">
          <mxGeometry relative="1" as="geometry">
            <mxPoint x="190.01" y="69.98000000000002" as="targetPoint" />
            <Array as="points">
              <mxPoint x="250" y="20" />
              <mxPoint x="250" y="80" />
              <mxPoint x="160" y="80" />
            </Array>
            <mxPoint x="270.01" y="24.980000000000132" as="sourcePoint" />
          </mxGeometry>
        </mxCell>
        <mxCell id="OAjJ4SIYbCOimFNp4Bia-5" value="is close to&lt;br&gt;[distance]&lt;br&gt;[weight]" style="edgeLabel;html=1;align=center;verticalAlign=middle;resizable=0;points=[];" parent="OAjJ4SIYbCOimFNp4Bia-4" vertex="1" connectable="0">
          <mxGeometry x="-0.2308" y="1" relative="1" as="geometry">
            <mxPoint y="27" as="offset" />
          </mxGeometry>
        </mxCell>
        <mxCell id="OAjJ4SIYbCOimFNp4Bia-6" value="E55 Type / AAT" style="swimlane;childLayout=stackLayout;horizontal=1;startSize=30;horizontalStack=0;rounded=1;fontSize=12;fontStyle=1;strokeWidth=1;resizeParent=0;resizeLast=1;shadow=0;align=center;arcSize=4;whiteSpace=wrap;html=1;fillStyle=auto;swimlaneFillColor=default;fillColor=#CCCCCC;fontColor=#000000;" parent="1" vertex="1">
          <mxGeometry x="100" y="919.98" width="160" height="90" as="geometry">
            <mxRectangle x="470" y="160" width="90" height="30" as="alternateBounds" />
          </mxGeometry>
        </mxCell>
        <mxCell id="OAjJ4SIYbCOimFNp4Bia-7" value="id&lt;br&gt;identifier&lt;br&gt;label" style="align=center;strokeColor=none;fillColor=none;spacingLeft=4;fontSize=12;verticalAlign=top;resizable=0;rotatable=0;part=1;html=1;" parent="OAjJ4SIYbCOimFNp4Bia-6" vertex="1">
          <mxGeometry y="30" width="160" height="60" as="geometry" />
        </mxCell>
        <mxCell id="OAjJ4SIYbCOimFNp4Bia-8" value="E55 Type / Wikidata" style="swimlane;childLayout=stackLayout;horizontal=1;startSize=30;horizontalStack=0;rounded=1;fontSize=12;fontStyle=1;strokeWidth=1;resizeParent=0;resizeLast=1;shadow=0;align=center;arcSize=4;whiteSpace=wrap;html=1;fillStyle=auto;swimlaneFillColor=default;fillColor=#CCCCCC;fontColor=#000000;" parent="1" vertex="1">
          <mxGeometry x="300.01" y="919.98" width="160" height="90" as="geometry">
            <mxRectangle x="470" y="160" width="90" height="30" as="alternateBounds" />
          </mxGeometry>
        </mxCell>
        <mxCell id="OAjJ4SIYbCOimFNp4Bia-9" value="id&lt;br&gt;identifier&lt;br&gt;label" style="align=center;strokeColor=none;fillColor=none;spacingLeft=4;fontSize=12;verticalAlign=top;resizable=0;rotatable=0;part=1;html=1;" parent="OAjJ4SIYbCOimFNp4Bia-8" vertex="1">
          <mxGeometry y="30" width="160" height="60" as="geometry" />
        </mxCell>
        <mxCell id="OAjJ4SIYbCOimFNp4Bia-10" style="edgeStyle=orthogonalEdgeStyle;rounded=1;orthogonalLoop=1;jettySize=auto;html=1;exitX=1;exitY=0.25;exitDx=0;exitDy=0;entryX=0.5;entryY=1;entryDx=0;entryDy=0;dashed=1;" parent="OAjJ4SIYbCOimFNp4Bia-8" source="OAjJ4SIYbCOimFNp4Bia-9" target="OAjJ4SIYbCOimFNp4Bia-9" edge="1">
          <mxGeometry relative="1" as="geometry">
            <mxPoint x="180" y="220" as="targetPoint" />
            <Array as="points">
              <mxPoint x="210" y="45" />
              <mxPoint x="210" y="120" />
              <mxPoint x="80" y="120" />
            </Array>
          </mxGeometry>
        </mxCell>
        <mxCell id="OAjJ4SIYbCOimFNp4Bia-11" value="P127 has&lt;br&gt;broader term" style="edgeLabel;html=1;align=center;verticalAlign=middle;resizable=0;points=[];" parent="OAjJ4SIYbCOimFNp4Bia-10" vertex="1" connectable="0">
          <mxGeometry x="-0.2308" y="1" relative="1" as="geometry">
            <mxPoint y="-22" as="offset" />
          </mxGeometry>
        </mxCell>
        <mxCell id="OAjJ4SIYbCOimFNp4Bia-12" style="edgeStyle=orthogonalEdgeStyle;rounded=1;orthogonalLoop=1;jettySize=auto;html=1;dashed=1;" parent="1" source="OAjJ4SIYbCOimFNp4Bia-6" target="OAjJ4SIYbCOimFNp4Bia-6" edge="1">
          <mxGeometry relative="1" as="geometry">
            <mxPoint x="470" y="1329.98" as="targetPoint" />
            <mxPoint x="340" y="929.98" as="sourcePoint" />
            <Array as="points">
              <mxPoint x="50" y="965.05" />
              <mxPoint x="50" y="1040.05" />
              <mxPoint x="180" y="1040.05" />
            </Array>
          </mxGeometry>
        </mxCell>
        <mxCell id="OAjJ4SIYbCOimFNp4Bia-13" value="P127 has&lt;br&gt;broader term" style="edgeLabel;html=1;align=center;verticalAlign=middle;resizable=0;points=[];" parent="OAjJ4SIYbCOimFNp4Bia-12" vertex="1" connectable="0">
          <mxGeometry x="-0.2308" y="1" relative="1" as="geometry">
            <mxPoint y="-22" as="offset" />
          </mxGeometry>
        </mxCell>
        <mxCell id="OAjJ4SIYbCOimFNp4Bia-14" style="edgeStyle=orthogonalEdgeStyle;rounded=1;orthogonalLoop=1;jettySize=auto;html=1;dashed=1;" parent="1" source="OAjJ4SIYbCOimFNp4Bia-3" target="OAjJ4SIYbCOimFNp4Bia-8" edge="1">
          <mxGeometry relative="1" as="geometry">
            <Array as="points">
              <mxPoint x="300" y="890" />
              <mxPoint x="380" y="890" />
            </Array>
          </mxGeometry>
        </mxCell>
        <mxCell id="OAjJ4SIYbCOimFNp4Bia-15" value="P2 has type&lt;br&gt;[confidence]&lt;br&gt;&lt;font color=&quot;#99004d&quot;&gt;[weight]&lt;/font&gt;" style="edgeLabel;html=1;align=center;verticalAlign=middle;resizable=0;points=[];" parent="OAjJ4SIYbCOimFNp4Bia-14" vertex="1" connectable="0">
          <mxGeometry relative="1" as="geometry">
            <mxPoint as="offset" />
          </mxGeometry>
        </mxCell>
        <mxCell id="OAjJ4SIYbCOimFNp4Bia-16" style="edgeStyle=orthogonalEdgeStyle;rounded=1;orthogonalLoop=1;jettySize=auto;html=1;dashed=1;" parent="1" source="OAjJ4SIYbCOimFNp4Bia-3" target="OAjJ4SIYbCOimFNp4Bia-6" edge="1">
          <mxGeometry relative="1" as="geometry">
            <Array as="points">
              <mxPoint x="260" y="890" />
              <mxPoint x="180" y="890" />
            </Array>
          </mxGeometry>
        </mxCell>
        <mxCell id="OAjJ4SIYbCOimFNp4Bia-17" value="P2 has type&lt;br&gt;[confidence]&lt;br&gt;&lt;font color=&quot;#99004d&quot;&gt;[weight]&lt;/font&gt;" style="edgeLabel;html=1;align=center;verticalAlign=middle;resizable=0;points=[];" parent="OAjJ4SIYbCOimFNp4Bia-16" vertex="1" connectable="0">
          <mxGeometry relative="1" as="geometry">
            <mxPoint as="offset" />
          </mxGeometry>
        </mxCell>
        <mxCell id="OAjJ4SIYbCOimFNp4Bia-18" style="edgeStyle=orthogonalEdgeStyle;rounded=1;orthogonalLoop=1;jettySize=auto;html=1;dashed=1;entryX=0.75;entryY=1;entryDx=0;entryDy=0;exitX=0.25;exitY=1;exitDx=0;exitDy=0;" parent="1" source="OAjJ4SIYbCOimFNp4Bia-9" target="OAjJ4SIYbCOimFNp4Bia-7" edge="1">
          <mxGeometry relative="1" as="geometry">
            <Array as="points">
              <mxPoint x="340" y="1040" />
              <mxPoint x="220" y="1040" />
            </Array>
            <mxPoint x="350" y="1040" as="sourcePoint" />
            <mxPoint x="390" y="930" as="targetPoint" />
          </mxGeometry>
        </mxCell>
        <mxCell id="OAjJ4SIYbCOimFNp4Bia-19" value="refers to aat" style="edgeLabel;html=1;align=center;verticalAlign=middle;resizable=0;points=[];" parent="OAjJ4SIYbCOimFNp4Bia-18" vertex="1" connectable="0">
          <mxGeometry relative="1" as="geometry">
            <mxPoint as="offset" />
          </mxGeometry>
        </mxCell>
        <mxCell id="0c-gGB4rR2O5mJmdxChA-3" style="edgeStyle=orthogonalEdgeStyle;rounded=1;orthogonalLoop=1;jettySize=auto;html=1;exitX=1;exitY=0.25;exitDx=0;exitDy=0;entryX=0.75;entryY=0;entryDx=0;entryDy=0;startArrow=classic;startFill=1;endArrow=none;endFill=0;dashed=1;strokeColor=#99004D;" parent="1" source="OAjJ4SIYbCOimFNp4Bia-8" target="OAjJ4SIYbCOimFNp4Bia-8" edge="1">
          <mxGeometry relative="1" as="geometry">
            <mxPoint x="420" y="920" as="targetPoint" />
            <mxPoint x="460" y="942" as="sourcePoint" />
            <Array as="points">
              <mxPoint x="510" y="943" />
              <mxPoint x="510" y="890" />
              <mxPoint x="420" y="890" />
            </Array>
          </mxGeometry>
        </mxCell>
        <mxCell id="0c-gGB4rR2O5mJmdxChA-4" value="is similar&lt;br&gt;[weight]" style="edgeLabel;html=1;align=center;verticalAlign=middle;resizable=0;points=[];fontColor=#99004D;" parent="0c-gGB4rR2O5mJmdxChA-3" vertex="1" connectable="0">
          <mxGeometry relative="1" as="geometry">
            <mxPoint x="-31" as="offset" />
          </mxGeometry>
        </mxCell>
        <mxCell id="0c-gGB4rR2O5mJmdxChA-5" style="edgeStyle=orthogonalEdgeStyle;rounded=1;orthogonalLoop=1;jettySize=auto;html=1;exitX=0;exitY=0.25;exitDx=0;exitDy=0;entryX=0.25;entryY=0;entryDx=0;entryDy=0;startArrow=classic;startFill=1;endArrow=none;endFill=0;dashed=1;strokeColor=#99004D;" parent="1" source="OAjJ4SIYbCOimFNp4Bia-6" target="OAjJ4SIYbCOimFNp4Bia-6" edge="1">
          <mxGeometry relative="1" as="geometry">
            <mxPoint x="140" y="920" as="targetPoint" />
            <mxPoint x="100" y="942" as="sourcePoint" />
            <Array as="points">
              <mxPoint x="90" y="942" />
              <mxPoint x="50" y="943" />
              <mxPoint x="50" y="890" />
              <mxPoint x="140" y="890" />
            </Array>
          </mxGeometry>
        </mxCell>
        <mxCell id="0c-gGB4rR2O5mJmdxChA-6" value="is similar&lt;br&gt;[weight]" style="edgeLabel;html=1;align=center;verticalAlign=middle;resizable=0;points=[];fontColor=#99004D;" parent="0c-gGB4rR2O5mJmdxChA-5" vertex="1" connectable="0">
          <mxGeometry relative="1" as="geometry">
            <mxPoint x="31" as="offset" />
          </mxGeometry>
        </mxCell>
        <mxCell id="K9Nwk68qKovCj_jJDmp7-1" value="User" style="swimlane;childLayout=stackLayout;horizontal=1;startSize=30;horizontalStack=0;rounded=1;fontSize=12;fontStyle=1;strokeWidth=1;resizeParent=0;resizeLast=1;shadow=0;align=center;arcSize=4;whiteSpace=wrap;html=1;fillStyle=auto;swimlaneFillColor=default;fillColor=#CCCCCC;fontColor=#000000;" vertex="1" parent="1">
          <mxGeometry x="40" y="440" width="160" height="60" as="geometry">
            <mxRectangle x="470" y="160" width="90" height="30" as="alternateBounds" />
          </mxGeometry>
        </mxCell>
        <mxCell id="K9Nwk68qKovCj_jJDmp7-2" value="id" style="align=center;strokeColor=none;fillColor=none;spacingLeft=4;fontSize=12;verticalAlign=top;resizable=0;rotatable=0;part=1;html=1;" vertex="1" parent="K9Nwk68qKovCj_jJDmp7-1">
          <mxGeometry y="30" width="160" height="30" as="geometry" />
        </mxCell>
      </root>
    </mxGraphModel>
  </diagram>
</mxfile>
